{
  "command" : "unix-ntp-q",
  "metrics" : [ {
    "tags" : {
      "im.dstype" : "gauge",
      "im.metric-type" : "ts",
      "im.name" : "ntp-server-state",
      "im.step" : "300",
      "name" : "192.168.106.85"
    },
    "value" : "1.0"
  }, {
    "tags" : {
      "im.dstype" : "gauge",
      "im.metric-type" : "ts",
      "im.name" : "ntp-server-state",
      "im.step" : "300",
      "name" : "192.168.19.199"
    },
    "value" : "0.0"
  } ]
}
