{
  "command" : "chkp-clish-show_aaa_tacacs-servers_list",
  "metrics" : [ {
    "tags" : {
      "im.metric-type" : "runtime",
      "im.name" : "tacacs-enabled"
    },
    "value" : {
      "value" : "true"
    }
  }, {
    "tags" : {
      "im.metric-type" : "runtime",
      "im.name" : "tacacs-servers"
    },
    "value" : [ {
      "host" : "1.1.11.1",
      "priority" : "1",
      "timeout" : "5"
    }, {
      "priority" : "2",
      "timeout" : "5",
      "host" : "3.3.3.3"
    } ]
  } ]
}
