{
  "command" : "chkp-gaia-clish_show_interfaces_all-mds",
  "metrics" : [ {
    "tags" : {
      "display-name" : "Network Interfaces - Enabled/Disabed",
      "im.dstype" : "gauge",
      "im.dstype.displaytype" : "state",
      "im.identity-tags" : "name",
      "im.metric-type" : "ts",
      "im.name" : "network-interface-admin-state",
      "im.step" : "60",
      "live-config" : "true",
      "name" : "eth0"
    },
    "value" : "1.0"
  }, {
    "tags" : {
      "im.metric-type" : "runtime",
      "im.name" : "network-interface-duplex",
      "name" : "eth0"
    },
    "value" : {
      "value" : "full"
    }
  }, {
    "tags" : {
      "im.metric-type" : "runtime",
      "im.name" : "network-interface-duplex",
      "name" : "eth0:1"
    },
    "value" : {
      "value" : "full"
    }
  }, {
    "tags" : {
      "im.metric-type" : "runtime",
      "im.name" : "network-interface-duplex",
      "name" : "eth0:2"
    },
    "value" : {
      "value" : "full"
    }
  }, {
    "tags" : {
      "im.metric-type" : "runtime",
      "im.name" : "network-interface-ipv4-address",
      "name" : "eth0"
    },
    "value" : {
      "value" : "10.10.6.13"
    }
  }, {
    "tags" : {
      "im.metric-type" : "runtime",
      "im.name" : "network-interface-ipv4-address",
      "name" : "eth0:1"
    },
    "value" : {
      "value" : "10.10.6.10"
    }
  }, {
    "tags" : {
      "im.metric-type" : "runtime",
      "im.name" : "network-interface-ipv4-address",
      "name" : "eth0:2"
    },
    "value" : {
      "value" : "10.10.6.14"
    }
  }, {
    "tags" : {
      "im.metric-type" : "runtime",
      "im.name" : "network-interface-ipv4-subnet",
      "name" : "eth0"
    },
    "value" : {
      "value" : "255.255.255.0"
    }
  }, {
    "tags" : {
      "im.metric-type" : "runtime",
      "im.name" : "network-interface-mac",
      "name" : "eth0"
    },
    "value" : {
      "value" : "00:0C:29:9E:7E:34"
    }
  }, {
    "tags" : {
      "im.metric-type" : "runtime",
      "im.name" : "network-interface-mac",
      "name" : "eth0:1"
    },
    "value" : {
      "value" : "00:0C:29:9E:7E:34"
    }
  }, {
    "tags" : {
      "im.metric-type" : "runtime",
      "im.name" : "network-interface-mac",
      "name" : "eth0:2"
    },
    "value" : {
      "value" : "00:0C:29:9E:7E:34"
    }
  }, {
    "tags" : {
      "im.metric-type" : "runtime",
      "im.name" : "network-interface-mtu",
      "name" : "eth0"
    },
    "value" : {
      "value" : "1500"
    }
  }, {
    "tags" : {
      "im.metric-type" : "runtime",
      "im.name" : "network-interfaces"
    },
    "value" : [ {
      "driver" : "vmxnet3",
      "name" : "eth0:1",
      "mtu" : "1500",
      "auto-negotiation" : "off"
    }, {
      "driver" : "vmxnet3",
      "mtu" : "1500",
      "name" : "eth0:2",
      "auto-negotiation" : "off"
    }, {
      "name" : "eth0",
      "auto-negotiation" : "off",
      "mtu" : "1500",
      "driver" : "vmxnet3"
    } ]
  }, {
    "tags" : {
      "display-name" : "Network Interfaces - Stats",
      "im.dstype" : "counter",
      "im.dstype.displaytype" : "number",
      "im.identity-tags" : "name",
      "im.metric-type" : "ts",
      "im.name" : "network-interface-rx-bytes",
      "im.step" : "60",
      "live-config" : "true",
      "name" : "eth0"
    },
    "values" : ["1000", "2000", "3000", "4000", "5000"]
  }, {
    "tags" : {
      "display-name" : "Network Interfaces - Up/Down",
      "im.dstype" : "gauge",
      "im.dstype.displaytype" : "state",
      "im.identity-tags" : "name",
      "im.metric-type" : "ts",
      "im.name" : "network-interface-state",
      "im.step" : "60",
      "live-config" : "true",
      "name" : "eth0"
    },
    "value" : "1.0"
  }, {
    "tags" : {
      "display-name" : "Network Interfaces - Up/Down",
      "im.dstype" : "gauge",
      "im.dstype.displaytype" : "state",
      "im.identity-tags" : "name",
      "im.metric-type" : "ts",
      "im.name" : "network-interface-state",
      "im.step" : "60",
      "live-config" : "true",
      "name" : "eth0:1"
    },
    "value" : "1.0"
  }, {
    "tags" : {
      "display-name" : "Network Interfaces - Up/Down",
      "im.dstype" : "gauge",
      "im.dstype.displaytype" : "state",
      "im.identity-tags" : "name",
      "im.metric-type" : "ts",
      "im.name" : "network-interface-state",
      "im.step" : "60",
      "live-config" : "true",
      "name" : "eth0:2"
    },
    "value" : "1.0"
  }, {
    "tags" : {
      "im.metric-type" : "runtime",
      "im.name" : "network-interface-ipv4-subnet",
      "name" : "eth0:1"
    },
    "value" : {
      "value" : "255.255.255.0"
    }
  }, {
    "tags" : {
      "im.metric-type" : "runtime",
      "im.name" : "network-interface-ipv4-subnet",
      "name" : "eth0:2"
    },
    "value" : {
      "value" : "255.255.255.0"
    }
  }, {
    "tags" : {
      "im.metric-type" : "runtime",
      "im.name" : "network-interface-mtu",
      "name" : "eth0:1"
    },
    "value" : {
      "value" : "1500"
    }
  }, {
    "tags" : {
      "im.metric-type" : "runtime",
      "im.name" : "network-interface-mtu",
      "name" : "eth0:2"
    },
    "value" : {
      "value" : "1500"
    }
  }, {
    "tags" : {
      "im.metric-type" : "runtime",
      "im.name" : "network-interface-speed",
      "name" : "eth0"
    },
    "value" : {
      "value" : "10000M"
    }
  }, {
    "tags" : {
      "im.metric-type" : "runtime",
      "im.name" : "network-interface-speed",
      "name" : "eth0:1"
    },
    "value" : {
      "value" : "10000M"
    }
  }, {
    "tags" : {
      "im.metric-type" : "runtime",
      "im.name" : "network-interface-speed",
      "name" : "eth0:2"
    },
    "value" : {
      "value" : "10000M"
    }
  }, {
    "tags" : {
      "im.metric-type" : "runtime",
      "im.name" : "network-interface-type",
      "name" : "eth0"
    },
    "value" : {
      "value" : "Ethernet"
    }
  }, {
    "tags" : {
      "im.metric-type" : "runtime",
      "im.name" : "network-interface-type",
      "name" : "eth0:1"
    },
    "value" : {
      "value" : "Ethernet"
    }
  }, {
    "tags" : {
      "im.metric-type" : "runtime",
      "im.name" : "network-interface-type",
      "name" : "eth0:2"
    },
    "value" : {
      "value" : "Ethernet"
    }
  } ]
}
