{
  "command" : "chkp-gaia-clish_show_interfaces_all-vsx",
  "metrics" : [ {
    "tags" : {
      "display-name" : "Network Interfaces - Enabled/Disabed",
      "im.dstype" : "gauge",
      "im.dstype.displaytype" : "state",
      "im.identity-tags" : "name",
      "im.metric-type" : "ts",
      "im.name" : "network-interface-admin-state",
      "im.step" : "60",
      "live-config" : "true",
      "name" : "br1",
      "vs.id" : "1",
      "vs.name" : "lab-CP-VSXVSLS-1-R7730_VSW"
    },
    "value" : "1.0"
  }, {
    "tags" : {
      "display-name" : "Network Interfaces - Enabled/Disabed",
      "im.dstype" : "gauge",
      "im.dstype.displaytype" : "state",
      "im.identity-tags" : "name",
      "im.metric-type" : "ts",
      "im.name" : "network-interface-admin-state",
      "im.step" : "60",
      "live-config" : "true",
      "name" : "eth1",
      "vs.id" : "0",
      "vs.name" : "lab-CP-VSXVSLS-1-R7730"
    },
    "value" : "1.0"
  }, {
    "tags" : {
      "im.metric-type" : "runtime",
      "im.name" : "network-interfaces",
      "vs.id" : "1",
      "vs.name" : "lab-CP-VSXVSLS-1-R7730_VSW"
    },
    "value" : [ {
      "name" : "br1",
      "driver" : "bridge",
      "mtu" : "1500"
    }, {
      "auto-negotiation" : "on",
      "name" : "eth2",
      "mtu" : "1500",
      "driver" : "e1000"
    }, {
      "mtu" : "1500",
      "name" : "wrpj0"
    }, {
      "mtu" : "1500",
      "name" : "wrpj128"
    }, {
      "name" : "wrpj192",
      "mtu" : "1500"
    } ]
  }, {
    "tags" : {
      "im.metric-type" : "runtime",
      "im.name" : "network-interfaces",
      "vs.id" : "2",
      "vs.name" : "lab-CP-VSXVSLS-1-R7730_lab-VS3"
    },
    "value" : [ {
      "mtu" : "1500",
      "name" : "wrp128"
    }, {
      "name" : "eth0.13",
      "driver" : "e1000",
      "mtu" : "1500",
      "auto-negotiation" : "on"
    } ]
  }, {
    "tags" : {
      "im.metric-type" : "runtime",
      "im.name" : "network-interface-duplex",
      "name" : "eth0",
      "vs.id" : "0",
      "vs.name" : "lab-CP-VSXVSLS-1-R7730"
    },
    "value" : {
      "value" : "half"
    }
  }, {
    "tags" : {
      "im.metric-type" : "runtime",
      "im.name" : "network-interface-duplex",
      "name" : "eth0.13",
      "vs.id" : "2",
      "vs.name" : "lab-CP-VSXVSLS-1-R7730_lab-VS3"
    },
    "value" : {
      "value" : "full"
    }
  }, {
    "tags" : {
      "im.metric-type" : "runtime",
      "im.name" : "network-interface-duplex",
      "name" : "eth0.14",
      "vs.id" : "3",
      "vs.name" : "lab-CP-VSXVSLS-1-R7730_lab-VS4"
    },
    "value" : {
      "value" : "full"
    }
  }, {
    "tags" : {
      "im.metric-type" : "runtime",
      "im.name" : "network-interface-duplex",
      "name" : "eth1",
      "vs.id" : "0",
      "vs.name" : "lab-CP-VSXVSLS-1-R7730"
    },
    "value" : {
      "value" : "full"
    }
  }, {
    "tags" : {
      "im.metric-type" : "runtime",
      "im.name" : "network-interface-duplex",
      "name" : "eth2",
      "vs.id" : "1",
      "vs.name" : "lab-CP-VSXVSLS-1-R7730_VSW"
    },
    "value" : {
      "value" : "full"
    }
  }, {
    "tags" : {
      "im.metric-type" : "runtime",
      "im.name" : "network-interface-ipv4-address",
      "name" : "eth0.14",
      "vs.id" : "3",
      "vs.name" : "lab-CP-VSXVSLS-1-R7730_lab-VS4"
    },
    "value" : {
      "value" : "192.168.196.1"
    }
  }, {
    "tags" : {
      "im.metric-type" : "runtime",
      "im.name" : "network-interface-ipv4-address",
      "name" : "wrp0",
      "vs.id" : "0",
      "vs.name" : "lab-CP-VSXVSLS-1-R7730"
    },
    "value" : {
      "value" : "10.10.6.51"
    }
  }, {
    "tags" : {
      "im.metric-type" : "runtime",
      "im.name" : "network-interface-ipv4-address",
      "name" : "wrp128",
      "vs.id" : "2",
      "vs.name" : "lab-CP-VSXVSLS-1-R7730_lab-VS3"
    },
    "value" : {
      "value" : "192.168.196.17"
    }
  }, {
    "tags" : {
      "im.metric-type" : "runtime",
      "im.name" : "network-interface-ipv4-address",
      "name" : "wrp192",
      "vs.id" : "3",
      "vs.name" : "lab-CP-VSXVSLS-1-R7730_lab-VS4"
    },
    "value" : {
      "value" : "192.168.196.17"
    }
  }, {
    "tags" : {
      "im.metric-type" : "runtime",
      "im.name" : "network-interface-ipv4-subnet",
      "name" : "eth0.14",
      "vs.id" : "3",
      "vs.name" : "lab-CP-VSXVSLS-1-R7730_lab-VS4"
    },
    "value" : {
      "value" : "255.255.255.240"
    }
  }, {
    "tags" : {
      "im.metric-type" : "runtime",
      "im.name" : "network-interface-ipv4-subnet",
      "name" : "eth1",
      "vs.id" : "0",
      "vs.name" : "lab-CP-VSXVSLS-1-R7730"
    },
    "value" : {
      "value" : "255.255.255.0"
    }
  }, {
    "tags" : {
      "display-name" : "Network Interfaces - Enabled/Disabed",
      "im.dstype" : "gauge",
      "im.dstype.displaytype" : "state",
      "im.identity-tags" : "name",
      "im.metric-type" : "ts",
      "im.name" : "network-interface-admin-state",
      "im.step" : "60",
      "live-config" : "true",
      "name" : "eth2",
      "vs.id" : "1",
      "vs.name" : "lab-CP-VSXVSLS-1-R7730_VSW"
    },
    "value" : "1.0"
  }, {
    "tags" : {
      "display-name" : "Network Interfaces - Enabled/Disabed",
      "im.dstype" : "gauge",
      "im.dstype.displaytype" : "state",
      "im.identity-tags" : "name",
      "im.metric-type" : "ts",
      "im.name" : "network-interface-admin-state",
      "im.step" : "60",
      "live-config" : "true",
      "name" : "wrp0",
      "vs.id" : "0",
      "vs.name" : "lab-CP-VSXVSLS-1-R7730"
    },
    "value" : "1.0"
  }, {
    "tags" : {
      "display-name" : "Network Interfaces - Enabled/Disabed",
      "im.dstype" : "gauge",
      "im.dstype.displaytype" : "state",
      "im.identity-tags" : "name",
      "im.metric-type" : "ts",
      "im.name" : "network-interface-admin-state",
      "im.step" : "60",
      "live-config" : "true",
      "name" : "wrp128",
      "vs.id" : "2",
      "vs.name" : "lab-CP-VSXVSLS-1-R7730_lab-VS3"
    },
    "value" : "1.0"
  }, {
    "tags" : {
      "display-name" : "Network Interfaces - Enabled/Disabed",
      "im.dstype" : "gauge",
      "im.dstype.displaytype" : "state",
      "im.identity-tags" : "name",
      "im.metric-type" : "ts",
      "im.name" : "network-interface-admin-state",
      "im.step" : "60",
      "live-config" : "true",
      "name" : "wrpj0",
      "vs.id" : "1",
      "vs.name" : "lab-CP-VSXVSLS-1-R7730_VSW"
    },
    "value" : "1.0"
  }, {
    "tags" : {
      "display-name" : "Network Interfaces - Enabled/Disabed",
      "im.dstype" : "gauge",
      "im.dstype.displaytype" : "state",
      "im.identity-tags" : "name",
      "im.metric-type" : "ts",
      "im.name" : "network-interface-admin-state",
      "im.step" : "60",
      "live-config" : "true",
      "name" : "wrpj128",
      "vs.id" : "1",
      "vs.name" : "lab-CP-VSXVSLS-1-R7730_VSW"
    },
    "value" : "1.0"
  }, {
    "tags" : {
      "display-name" : "Network Interfaces - Enabled/Disabed",
      "im.dstype" : "gauge",
      "im.dstype.displaytype" : "state",
      "im.identity-tags" : "name",
      "im.metric-type" : "ts",
      "im.name" : "network-interface-admin-state",
      "im.step" : "60",
      "live-config" : "true",
      "name" : "wrpj192",
      "vs.id" : "1",
      "vs.name" : "lab-CP-VSXVSLS-1-R7730_VSW"
    },
    "value" : "1.0"
  }, {
    "tags" : {
      "display-name" : "Network Interfaces - Stats",
      "im.dstype" : "counter",
      "im.dstype.displaytype" : "number",
      "im.identity-tags" : "name",
      "im.metric-type" : "ts",
      "im.name" : "network-interface-rx-bytes",
      "im.step" : "60",
      "live-config" : "true",
      "name" : "br1",
      "vs.id" : "1",
      "vs.name" : "lab-CP-VSXVSLS-1-R7730_VSW"
    },
    "values" : ["1000", "2000", "3000", "4000", "5000"]
  }, {
    "tags" : {
      "display-name" : "Network Interfaces - Stats",
      "im.dstype" : "counter",
      "im.dstype.displaytype" : "number",
      "im.identity-tags" : "name",
      "im.metric-type" : "ts",
      "im.name" : "network-interface-rx-bytes",
      "im.step" : "60",
      "live-config" : "true",
      "name" : "eth0",
      "vs.id" : "0",
      "vs.name" : "lab-CP-VSXVSLS-1-R7730"
    },
    "values" : ["1000", "2000", "3000", "4000", "5000"]
  }, {
    "tags" : {
      "display-name" : "Network Interfaces - Stats",
      "im.dstype" : "counter",
      "im.dstype.displaytype" : "number",
      "im.identity-tags" : "name",
      "im.metric-type" : "ts",
      "im.name" : "network-interface-rx-bytes",
      "im.step" : "60",
      "live-config" : "true",
      "name" : "eth0.14",
      "vs.id" : "3",
      "vs.name" : "lab-CP-VSXVSLS-1-R7730_lab-VS4"
    },
    "values" : ["1000", "2000", "3000", "4000", "5000"]
  }, {
    "tags" : {
      "display-name" : "Network Interfaces - Stats",
      "im.dstype" : "counter",
      "im.dstype.displaytype" : "number",
      "im.identity-tags" : "name",
      "im.metric-type" : "ts",
      "im.name" : "network-interface-rx-bytes",
      "im.step" : "60",
      "live-config" : "true",
      "name" : "eth1",
      "vs.id" : "0",
      "vs.name" : "lab-CP-VSXVSLS-1-R7730"
    },
    "values" : ["1000", "2000", "3000", "4000", "5000"]
  }, {
    "tags" : {
      "display-name" : "Network Interfaces - Stats",
      "im.dstype" : "counter",
      "im.dstype.displaytype" : "number",
      "im.identity-tags" : "name",
      "im.metric-type" : "ts",
      "im.name" : "network-interface-rx-bytes",
      "im.step" : "60",
      "live-config" : "true",
      "name" : "eth2",
      "vs.id" : "1",
      "vs.name" : "lab-CP-VSXVSLS-1-R7730_VSW"
    },
    "values" : ["1000", "2000", "3000", "4000", "5000"]
  }, {
    "tags" : {
      "display-name" : "Network Interfaces - Stats",
      "im.dstype" : "counter",
      "im.dstype.displaytype" : "number",
      "im.identity-tags" : "name",
      "im.metric-type" : "ts",
      "im.name" : "network-interface-rx-bytes",
      "im.step" : "60",
      "live-config" : "true",
      "name" : "wrp0",
      "vs.id" : "0",
      "vs.name" : "lab-CP-VSXVSLS-1-R7730"
    },
    "values" : ["1000", "2000", "3000", "4000", "5000"]
  }, {
    "tags" : {
      "display-name" : "Network Interfaces - Stats",
      "im.dstype" : "counter",
      "im.dstype.displaytype" : "number",
      "im.identity-tags" : "name",
      "im.metric-type" : "ts",
      "im.name" : "network-interface-rx-bytes",
      "im.step" : "60",
      "live-config" : "true",
      "name" : "wrp128",
      "vs.id" : "2",
      "vs.name" : "lab-CP-VSXVSLS-1-R7730_lab-VS3"
    },
    "values" : ["1000", "2000", "3000", "4000", "5000"]
  }, {
    "tags" : {
      "display-name" : "Network Interfaces - Stats",
      "im.dstype" : "counter",
      "im.dstype.displaytype" : "number",
      "im.identity-tags" : "name",
      "im.metric-type" : "ts",
      "im.name" : "network-interface-rx-bytes",
      "im.step" : "60",
      "live-config" : "true",
      "name" : "wrp192",
      "vs.id" : "3",
      "vs.name" : "lab-CP-VSXVSLS-1-R7730_lab-VS4"
    },
    "values" : ["1000", "2000", "3000", "4000", "5000"]
  }, {
    "tags" : {
      "display-name" : "Network Interfaces - Stats",
      "im.dstype" : "counter",
      "im.dstype.displaytype" : "number",
      "im.identity-tags" : "name",
      "im.metric-type" : "ts",
      "im.name" : "network-interface-rx-bytes",
      "im.step" : "60",
      "live-config" : "true",
      "name" : "wrpj0",
      "vs.id" : "1",
      "vs.name" : "lab-CP-VSXVSLS-1-R7730_VSW"
    },
    "values" : ["1000", "2000", "3000", "4000", "5000"]
  }, {
    "tags" : {
      "display-name" : "Network Interfaces - Stats",
      "im.dstype" : "counter",
      "im.dstype.displaytype" : "number",
      "im.identity-tags" : "name",
      "im.metric-type" : "ts",
      "im.name" : "network-interface-rx-bytes",
      "im.step" : "60",
      "live-config" : "true",
      "name" : "wrpj128",
      "vs.id" : "1",
      "vs.name" : "lab-CP-VSXVSLS-1-R7730_VSW"
    },
    "values" : ["1000", "2000", "3000", "4000", "5000"]
  }, {
    "tags" : {
      "display-name" : "Network Interfaces - Up/Down",
      "im.dstype" : "gauge",
      "im.dstype.displaytype" : "state",
      "im.identity-tags" : "name",
      "im.metric-type" : "ts",
      "im.name" : "network-interface-state",
      "im.step" : "60",
      "live-config" : "true",
      "name" : "br1",
      "vs.id" : "1",
      "vs.name" : "lab-CP-VSXVSLS-1-R7730_VSW"
    },
    "value" : "1.0"
  }, {
    "tags" : {
      "display-name" : "Network Interfaces - Up/Down",
      "im.dstype" : "gauge",
      "im.dstype.displaytype" : "state",
      "im.identity-tags" : "name",
      "im.metric-type" : "ts",
      "im.name" : "network-interface-state",
      "im.step" : "60",
      "live-config" : "true",
      "name" : "eth0.13",
      "vs.id" : "2",
      "vs.name" : "lab-CP-VSXVSLS-1-R7730_lab-VS3"
    },
    "value" : "1.0"
  }, {
    "tags" : {
      "display-name" : "Network Interfaces - Up/Down",
      "im.dstype" : "gauge",
      "im.dstype.displaytype" : "state",
      "im.identity-tags" : "name",
      "im.metric-type" : "ts",
      "im.name" : "network-interface-state",
      "im.step" : "60",
      "live-config" : "true",
      "name" : "eth0.14",
      "vs.id" : "3",
      "vs.name" : "lab-CP-VSXVSLS-1-R7730_lab-VS4"
    },
    "value" : "1.0"
  }, {
    "tags" : {
      "display-name" : "Network Interfaces - Up/Down",
      "im.dstype" : "gauge",
      "im.dstype.displaytype" : "state",
      "im.identity-tags" : "name",
      "im.metric-type" : "ts",
      "im.name" : "network-interface-state",
      "im.step" : "60",
      "live-config" : "true",
      "name" : "eth1",
      "vs.id" : "0",
      "vs.name" : "lab-CP-VSXVSLS-1-R7730"
    },
    "value" : "1.0"
  }, {
    "tags" : {
      "display-name" : "Network Interfaces - Up/Down",
      "im.dstype" : "gauge",
      "im.dstype.displaytype" : "state",
      "im.identity-tags" : "name",
      "im.metric-type" : "ts",
      "im.name" : "network-interface-state",
      "im.step" : "60",
      "live-config" : "true",
      "name" : "eth2",
      "vs.id" : "1",
      "vs.name" : "lab-CP-VSXVSLS-1-R7730_VSW"
    },
    "value" : "1.0"
  }, {
    "tags" : {
      "im.metric-type" : "runtime",
      "im.name" : "network-interface-ipv4-address",
      "name" : "eth0.13",
      "vs.id" : "2",
      "vs.name" : "lab-CP-VSXVSLS-1-R7730_lab-VS3"
    },
    "value" : {
      "value" : "192.168.196.1"
    }
  }, {
    "tags" : {
      "im.metric-type" : "runtime",
      "im.name" : "network-interface-ipv4-address",
      "name" : "eth1",
      "vs.id" : "0",
      "vs.name" : "lab-CP-VSXVSLS-1-R7730"
    },
    "value" : {
      "value" : "10.11.2.21"
    }
  }, {
    "tags" : {
      "im.metric-type" : "runtime",
      "im.name" : "network-interface-ipv4-subnet",
      "name" : "eth0.13",
      "vs.id" : "2",
      "vs.name" : "lab-CP-VSXVSLS-1-R7730_lab-VS3"
    },
    "value" : {
      "value" : "255.255.255.240"
    }
  }, {
    "tags" : {
      "im.metric-type" : "runtime",
      "im.name" : "network-interface-ipv4-subnet",
      "name" : "wrp0",
      "vs.id" : "0",
      "vs.name" : "lab-CP-VSXVSLS-1-R7730"
    },
    "value" : {
      "value" : "255.255.255.0"
    }
  }, {
    "tags" : {
      "im.metric-type" : "runtime",
      "im.name" : "network-interface-ipv4-subnet",
      "name" : "wrp128",
      "vs.id" : "2",
      "vs.name" : "lab-CP-VSXVSLS-1-R7730_lab-VS3"
    },
    "value" : {
      "value" : "255.255.255.240"
    }
  }, {
    "tags" : {
      "im.metric-type" : "runtime",
      "im.name" : "network-interface-ipv4-subnet",
      "name" : "wrp192",
      "vs.id" : "3",
      "vs.name" : "lab-CP-VSXVSLS-1-R7730_lab-VS4"
    },
    "value" : {
      "value" : "255.255.255.240"
    }
  }, {
    "tags" : {
      "im.metric-type" : "runtime",
      "im.name" : "network-interface-mac",
      "name" : "br1",
      "vs.id" : "1",
      "vs.name" : "lab-CP-VSXVSLS-1-R7730_VSW"
    },
    "value" : {
      "value" : "00:0C:29:96:E7:96"
    }
  }, {
    "tags" : {
      "im.metric-type" : "runtime",
      "im.name" : "network-interface-mac",
      "name" : "eth0",
      "vs.id" : "0",
      "vs.name" : "lab-CP-VSXVSLS-1-R7730"
    },
    "value" : {
      "value" : "00:0C:29:96:E7:82"
    }
  }, {
    "tags" : {
      "im.metric-type" : "runtime",
      "im.name" : "network-interface-mac",
      "name" : "eth0.13",
      "vs.id" : "2",
      "vs.name" : "lab-CP-VSXVSLS-1-R7730_lab-VS3"
    },
    "value" : {
      "value" : "00:0C:29:96:E7:82"
    }
  }, {
    "tags" : {
      "im.metric-type" : "runtime",
      "im.name" : "network-interface-mac",
      "name" : "eth0.14",
      "vs.id" : "3",
      "vs.name" : "lab-CP-VSXVSLS-1-R7730_lab-VS4"
    },
    "value" : {
      "value" : "00:0C:29:96:E7:82"
    }
  }, {
    "tags" : {
      "im.metric-type" : "runtime",
      "im.name" : "network-interface-mac",
      "name" : "eth2",
      "vs.id" : "1",
      "vs.name" : "lab-CP-VSXVSLS-1-R7730_VSW"
    },
    "value" : {
      "value" : "00:0C:29:96:E7:96"
    }
  }, {
    "tags" : {
      "im.metric-type" : "runtime",
      "im.name" : "network-interface-mac",
      "name" : "wrp0",
      "vs.id" : "0",
      "vs.name" : "lab-CP-VSXVSLS-1-R7730"
    },
    "value" : {
      "value" : "00:12:C1:17:90:00"
    }
  }, {
    "tags" : {
      "im.metric-type" : "runtime",
      "im.name" : "network-interface-mac",
      "name" : "wrp128",
      "vs.id" : "2",
      "vs.name" : "lab-CP-VSXVSLS-1-R7730_lab-VS3"
    },
    "value" : {
      "value" : "00:12:C1:17:90:02"
    }
  }, {
    "tags" : {
      "im.metric-type" : "runtime",
      "im.name" : "network-interface-mac",
      "name" : "wrp192",
      "vs.id" : "3",
      "vs.name" : "lab-CP-VSXVSLS-1-R7730_lab-VS4"
    },
    "value" : {
      "value" : "00:12:C1:17:90:04"
    }
  }, {
    "tags" : {
      "im.metric-type" : "runtime",
      "im.name" : "network-interface-mac",
      "name" : "wrpj0",
      "vs.id" : "1",
      "vs.name" : "lab-CP-VSXVSLS-1-R7730_VSW"
    },
    "value" : {
      "value" : "00:12:C1:17:90:01"
    }
  }, {
    "tags" : {
      "im.metric-type" : "runtime",
      "im.name" : "network-interface-mac",
      "name" : "wrpj192",
      "vs.id" : "1",
      "vs.name" : "lab-CP-VSXVSLS-1-R7730_VSW"
    },
    "value" : {
      "value" : "00:12:C1:17:90:05"
    }
  }, {
    "tags" : {
      "im.metric-type" : "runtime",
      "im.name" : "network-interface-mtu",
      "name" : "eth0.14",
      "vs.id" : "3",
      "vs.name" : "lab-CP-VSXVSLS-1-R7730_lab-VS4"
    },
    "value" : {
      "value" : "1500"
    }
  }, {
    "tags" : {
      "im.metric-type" : "runtime",
      "im.name" : "network-interface-mtu",
      "name" : "eth1",
      "vs.id" : "0",
      "vs.name" : "lab-CP-VSXVSLS-1-R7730"
    },
    "value" : {
      "value" : "1500"
    }
  }, {
    "tags" : {
      "im.metric-type" : "runtime",
      "im.name" : "network-interface-mtu",
      "name" : "eth2",
      "vs.id" : "1",
      "vs.name" : "lab-CP-VSXVSLS-1-R7730_VSW"
    },
    "value" : {
      "value" : "1500"
    }
  }, {
    "tags" : {
      "im.metric-type" : "runtime",
      "im.name" : "network-interface-mtu",
      "name" : "wrp0",
      "vs.id" : "0",
      "vs.name" : "lab-CP-VSXVSLS-1-R7730"
    },
    "value" : {
      "value" : "1500"
    }
  }, {
    "tags" : {
      "im.metric-type" : "runtime",
      "im.name" : "network-interface-mtu",
      "name" : "wrp128",
      "vs.id" : "2",
      "vs.name" : "lab-CP-VSXVSLS-1-R7730_lab-VS3"
    },
    "value" : {
      "value" : "1500"
    }
  }, {
    "tags" : {
      "im.metric-type" : "runtime",
      "im.name" : "network-interface-mtu",
      "name" : "wrp192",
      "vs.id" : "3",
      "vs.name" : "lab-CP-VSXVSLS-1-R7730_lab-VS4"
    },
    "value" : {
      "value" : "1500"
    }
  }, {
    "tags" : {
      "im.metric-type" : "runtime",
      "im.name" : "network-interface-mtu",
      "name" : "wrpj0",
      "vs.id" : "1",
      "vs.name" : "lab-CP-VSXVSLS-1-R7730_VSW"
    },
    "value" : {
      "value" : "1500"
    }
  }, {
    "tags" : {
      "im.metric-type" : "runtime",
      "im.name" : "network-interface-mtu",
      "name" : "wrpj192",
      "vs.id" : "1",
      "vs.name" : "lab-CP-VSXVSLS-1-R7730_VSW"
    },
    "value" : {
      "value" : "1500"
    }
  }, {
    "tags" : {
      "im.metric-type" : "runtime",
      "im.name" : "network-interface-speed",
      "name" : "eth0.13",
      "vs.id" : "2",
      "vs.name" : "lab-CP-VSXVSLS-1-R7730_lab-VS3"
    },
    "value" : {
      "value" : "10M"
    }
  }, {
    "tags" : {
      "im.metric-type" : "runtime",
      "im.name" : "network-interface-speed",
      "name" : "eth1",
      "vs.id" : "0",
      "vs.name" : "lab-CP-VSXVSLS-1-R7730"
    },
    "value" : {
      "value" : "1000M"
    }
  }, {
    "tags" : {
      "im.metric-type" : "runtime",
      "im.name" : "network-interface-speed",
      "name" : "eth2",
      "vs.id" : "1",
      "vs.name" : "lab-CP-VSXVSLS-1-R7730_VSW"
    },
    "value" : {
      "value" : "1000M"
    }
  }, {
    "tags" : {
      "im.metric-type" : "runtime",
      "im.name" : "network-interface-type",
      "name" : "br1",
      "vs.id" : "1",
      "vs.name" : "lab-CP-VSXVSLS-1-R7730_VSW"
    },
    "value" : {
      "value" : "Ethernet"
    }
  }, {
    "tags" : {
      "im.metric-type" : "runtime",
      "im.name" : "network-interface-type",
      "name" : "eth0",
      "vs.id" : "0",
      "vs.name" : "lab-CP-VSXVSLS-1-R7730"
    },
    "value" : {
      "value" : "Ethernet"
    }
  }, {
    "tags" : {
      "im.metric-type" : "runtime",
      "im.name" : "network-interface-type",
      "name" : "eth0.13",
      "vs.id" : "2",
      "vs.name" : "lab-CP-VSXVSLS-1-R7730_lab-VS3"
    },
    "value" : {
      "value" : "Ethernet"
    }
  }, {
    "tags" : {
      "im.metric-type" : "runtime",
      "im.name" : "network-interface-type",
      "name" : "eth0.14",
      "vs.id" : "3",
      "vs.name" : "lab-CP-VSXVSLS-1-R7730_lab-VS4"
    },
    "value" : {
      "value" : "Ethernet"
    }
  }, {
    "tags" : {
      "im.metric-type" : "runtime",
      "im.name" : "network-interface-type",
      "name" : "eth1",
      "vs.id" : "0",
      "vs.name" : "lab-CP-VSXVSLS-1-R7730"
    },
    "value" : {
      "value" : "Ethernet"
    }
  }, {
    "tags" : {
      "im.metric-type" : "runtime",
      "im.name" : "network-interface-type",
      "name" : "eth2",
      "vs.id" : "1",
      "vs.name" : "lab-CP-VSXVSLS-1-R7730_VSW"
    },
    "value" : {
      "value" : "Ethernet"
    }
  }, {
    "tags" : {
      "im.metric-type" : "runtime",
      "im.name" : "network-interface-type",
      "name" : "wrp0",
      "vs.id" : "0",
      "vs.name" : "lab-CP-VSXVSLS-1-R7730"
    },
    "value" : {
      "value" : "Ethernet"
    }
  }, {
    "tags" : {
      "im.metric-type" : "runtime",
      "im.name" : "network-interface-type",
      "name" : "wrpj0",
      "vs.id" : "1",
      "vs.name" : "lab-CP-VSXVSLS-1-R7730_VSW"
    },
    "value" : {
      "value" : "Ethernet"
    }
  }, {
    "tags" : {
      "im.metric-type" : "runtime",
      "im.name" : "network-interface-type",
      "name" : "wrpj128",
      "vs.id" : "1",
      "vs.name" : "lab-CP-VSXVSLS-1-R7730_VSW"
    },
    "value" : {
      "value" : "Ethernet"
    }
  }, {
    "tags" : {
      "im.metric-type" : "runtime",
      "im.name" : "network-interface-type",
      "name" : "wrpj192",
      "vs.id" : "1",
      "vs.name" : "lab-CP-VSXVSLS-1-R7730_VSW"
    },
    "value" : {
      "value" : "Ethernet"
    }
  }, {
    "tags" : {
      "display-name" : "Network Interfaces - Enabled/Disabed",
      "im.dstype" : "gauge",
      "im.dstype.displaytype" : "state",
      "im.identity-tags" : "name",
      "im.metric-type" : "ts",
      "im.name" : "network-interface-admin-state",
      "im.step" : "60",
      "live-config" : "true",
      "name" : "eth0",
      "vs.id" : "0",
      "vs.name" : "lab-CP-VSXVSLS-1-R7730"
    },
    "value" : "1.0"
  }, {
    "tags" : {
      "display-name" : "Network Interfaces - Enabled/Disabed",
      "im.dstype" : "gauge",
      "im.dstype.displaytype" : "state",
      "im.identity-tags" : "name",
      "im.metric-type" : "ts",
      "im.name" : "network-interface-admin-state",
      "im.step" : "60",
      "live-config" : "true",
      "name" : "wrp192",
      "vs.id" : "3",
      "vs.name" : "lab-CP-VSXVSLS-1-R7730_lab-VS4"
    },
    "value" : "1.0"
  }, {
    "tags" : {
      "im.metric-type" : "runtime",
      "im.name" : "network-interfaces",
      "vs.id" : "0",
      "vs.name" : "lab-CP-VSXVSLS-1-R7730"
    },
    "value" : [ {
      "name" : "eth1",
      "auto-negotiation" : "on",
      "mtu" : "1500",
      "driver" : "e1000"
    }, {
      "name" : "eth0",
      "auto-negotiation" : "on",
      "mtu" : "1500",
      "driver" : "e1000"
    }, {
      "name" : "wrp0",
      "mtu" : "1500"
    } ]
  }, {
    "tags" : {
      "im.metric-type" : "runtime",
      "im.name" : "network-interfaces",
      "vs.id" : "2",
      "vs.name" : "lab-CP-VSXVSLS-1-R7730_lab-VS3"
    },
    "value" : [ {
      "mtu" : "1500",
      "driver" : "e1000",
      "auto-negotiation" : "on",
      "name" : "eth0.14"
    }, {
      "mtu" : "1500",
      "name" : "wrp192"
    } ]
  }, {
    "tags" : {
      "display-name" : "Network Interfaces - Stats",
      "im.dstype" : "counter",
      "im.dstype.displaytype" : "number",
      "im.identity-tags" : "name",
      "im.metric-type" : "ts",
      "im.name" : "network-interface-rx-bytes",
      "im.step" : "60",
      "live-config" : "true",
      "name" : "br1",
      "vs.id" : "1",
      "vs.name" : "lab-CP-VSXVSLS-1-R7730_VSW"
    },
    "value" : "0.0"
  }, {
    "tags" : {
      "display-name" : "Network Interfaces - Stats",
      "im.dstype" : "counter",
      "im.dstype.displaytype" : "number",
      "im.identity-tags" : "name",
      "im.metric-type" : "ts",
      "im.name" : "network-interface-rx-bytes",
      "im.step" : "60",
      "live-config" : "true",
      "name" : "eth0.13",
      "vs.id" : "2",
      "vs.name" : "lab-CP-VSXVSLS-1-R7730_lab-VS3"
    },
    "value" : "0.0"
  }, {
    "tags" : {
      "display-name" : "Network Interfaces - Stats",
      "im.dstype" : "counter",
      "im.dstype.displaytype" : "number",
      "im.identity-tags" : "name",
      "im.metric-type" : "ts",
      "im.name" : "network-interface-rx-bytes",
      "im.step" : "60",
      "live-config" : "true",
      "name" : "eth0.14",
      "vs.id" : "3",
      "vs.name" : "lab-CP-VSXVSLS-1-R7730_lab-VS4"
    },
    "values" : ["1000", "2000", "3000", "4000", "5000"]
  }, {
    "tags" : {
      "display-name" : "Network Interfaces - Stats",
      "im.dstype" : "counter",
      "im.dstype.displaytype" : "number",
      "im.identity-tags" : "name",
      "im.metric-type" : "ts",
      "im.name" : "network-interface-rx-bytes",
      "im.step" : "60",
      "live-config" : "true",
      "name" : "eth1",
      "vs.id" : "0",
      "vs.name" : "lab-CP-VSXVSLS-1-R7730"
    },
    "values" : ["1000", "2000", "3000", "4000", "5000"]
  }, {
    "tags" : {
      "display-name" : "Network Interfaces - Stats",
      "im.dstype" : "counter",
      "im.dstype.displaytype" : "number",
      "im.identity-tags" : "name",
      "im.metric-type" : "ts",
      "im.name" : "network-interface-rx-bytes",
      "im.step" : "60",
      "live-config" : "true",
      "name" : "eth2",
      "vs.id" : "1",
      "vs.name" : "lab-CP-VSXVSLS-1-R7730_VSW"
    },
    "values" : ["1000", "2000", "3000", "4000", "5000"]
  }, {
    "tags" : {
      "display-name" : "Network Interfaces - Stats",
      "im.dstype" : "counter",
      "im.dstype.displaytype" : "number",
      "im.identity-tags" : "name",
      "im.metric-type" : "ts",
      "im.name" : "network-interface-rx-bytes",
      "im.step" : "60",
      "live-config" : "true",
      "name" : "wrp0",
      "vs.id" : "0",
      "vs.name" : "lab-CP-VSXVSLS-1-R7730"
    },
    "values" : ["1000", "2000", "3000", "4000", "5000"]
  }, {
    "tags" : {
      "display-name" : "Network Interfaces - Stats",
      "im.dstype" : "counter",
      "im.dstype.displaytype" : "number",
      "im.identity-tags" : "name",
      "im.metric-type" : "ts",
      "im.name" : "network-interface-rx-bytes",
      "im.step" : "60",
      "live-config" : "true",
      "name" : "wrp128",
      "vs.id" : "2",
      "vs.name" : "lab-CP-VSXVSLS-1-R7730_lab-VS3"
    },
    "values" : ["1000", "2000", "3000", "4000", "5000"]
  }, {
    "tags" : {
      "display-name" : "Network Interfaces - Stats",
      "im.dstype" : "counter",
      "im.dstype.displaytype" : "number",
      "im.identity-tags" : "name",
      "im.metric-type" : "ts",
      "im.name" : "network-interface-rx-bytes",
      "im.step" : "60",
      "live-config" : "true",
      "name" : "wrpj0",
      "vs.id" : "1",
      "vs.name" : "lab-CP-VSXVSLS-1-R7730_VSW"
    },
    "values" : ["1000", "2000", "3000", "4000", "5000"]
  }, {
    "tags" : {
      "display-name" : "Network Interfaces - Stats",
      "im.dstype" : "counter",
      "im.dstype.displaytype" : "number",
      "im.identity-tags" : "name",
      "im.metric-type" : "ts",
      "im.name" : "network-interface-rx-bytes",
      "im.step" : "60",
      "live-config" : "true",
      "name" : "wrpj128",
      "vs.id" : "1",
      "vs.name" : "lab-CP-VSXVSLS-1-R7730_VSW"
    },
    "values" : ["1000", "2000", "3000", "4000", "5000"]
  }, {
    "tags" : {
      "display-name" : "Network Interfaces - Stats",
      "im.dstype" : "counter",
      "im.dstype.displaytype" : "number",
      "im.identity-tags" : "name",
      "im.metric-type" : "ts",
      "im.name" : "network-interface-rx-bytes",
      "im.step" : "60",
      "live-config" : "true",
      "name" : "wrpj192",
      "vs.id" : "1",
      "vs.name" : "lab-CP-VSXVSLS-1-R7730_VSW"
    },
    "values" : ["1000", "2000", "3000", "4000", "5000"]
  }, {
    "tags" : {
      "display-name" : "Network Interfaces - Up/Down",
      "im.dstype" : "gauge",
      "im.dstype.displaytype" : "state",
      "im.identity-tags" : "name",
      "im.metric-type" : "ts",
      "im.name" : "network-interface-state",
      "im.step" : "60",
      "live-config" : "true",
      "name" : "eth0",
      "vs.id" : "0",
      "vs.name" : "lab-CP-VSXVSLS-1-R7730"
    },
    "value" : "1.0"
  }, {
    "tags" : {
      "im.metric-type" : "runtime",
      "im.name" : "network-interface-mac",
      "name" : "eth1",
      "vs.id" : "0",
      "vs.name" : "lab-CP-VSXVSLS-1-R7730"
    },
    "value" : {
      "value" : "00:0C:29:96:E7:8C"
    }
  }, {
    "tags" : {
      "im.metric-type" : "runtime",
      "im.name" : "network-interface-mac",
      "name" : "wrpj128",
      "vs.id" : "1",
      "vs.name" : "lab-CP-VSXVSLS-1-R7730_VSW"
    },
    "value" : {
      "value" : "00:12:C1:17:90:03"
    }
  }, {
    "tags" : {
      "im.metric-type" : "runtime",
      "im.name" : "network-interface-mtu",
      "name" : "br1",
      "vs.id" : "1",
      "vs.name" : "lab-CP-VSXVSLS-1-R7730_VSW"
    },
    "value" : {
      "value" : "1500"
    }
  }, {
    "tags" : {
      "im.metric-type" : "runtime",
      "im.name" : "network-interface-mtu",
      "name" : "eth0",
      "vs.id" : "0",
      "vs.name" : "lab-CP-VSXVSLS-1-R7730"
    },
    "value" : {
      "value" : "1500"
    }
  }, {
    "tags" : {
      "im.metric-type" : "runtime",
      "im.name" : "network-interface-mtu",
      "name" : "eth0.13",
      "vs.id" : "2",
      "vs.name" : "lab-CP-VSXVSLS-1-R7730_lab-VS3"
    },
    "value" : {
      "value" : "1500"
    }
  }, {
    "tags" : {
      "im.metric-type" : "runtime",
      "im.name" : "network-interface-mtu",
      "name" : "wrpj128",
      "vs.id" : "1",
      "vs.name" : "lab-CP-VSXVSLS-1-R7730_VSW"
    },
    "value" : {
      "value" : "1500"
    }
  }, {
    "tags" : {
      "im.metric-type" : "runtime",
      "im.name" : "network-interface-speed",
      "name" : "eth0",
      "vs.id" : "0",
      "vs.name" : "lab-CP-VSXVSLS-1-R7730"
    },
    "value" : {
      "value" : "1000M"
    }
  }, {
    "tags" : {
      "im.metric-type" : "runtime",
      "im.name" : "network-interface-speed",
      "name" : "eth0.14",
      "vs.id" : "3",
      "vs.name" : "lab-CP-VSXVSLS-1-R7730_lab-VS4"
    },
    "value" : {
      "value" : "1000M"
    }
  }, {
    "tags" : {
      "im.metric-type" : "runtime",
      "im.name" : "network-interface-type",
      "name" : "wrp128",
      "vs.id" : "2",
      "vs.name" : "lab-CP-VSXVSLS-1-R7730_lab-VS3"
    },
    "value" : {
      "value" : "Ethernet"
    }
  }, {
    "tags" : {
      "im.metric-type" : "runtime",
      "im.name" : "network-interface-type",
      "name" : "wrp192",
      "vs.id" : "3",
      "vs.name" : "lab-CP-VSXVSLS-1-R7730_lab-VS4"
    },
    "value" : {
      "value" : "Ethernet"
    }
  } ]
}
