{
  "command" : "vpn_ipafile_check_vsx",
  "metrics" : [ {
    "tags" : {
      "im.metric-type" : "runtime",
      "im.name" : "ipassignment-conf-errors",
      "vs.id" : "0",
      "vs.name" : "lab-CP-VSXVSLS-1-R7730"
    },
    "value" : [ {
      "line" : "Invalid IP address specification in line 0057"
    }, {
      "line" : "Invalid IP address specification in line 0058"
    } ]
  } ]
}
