{
  "command" : "radware-mpCpuStatsUtil1Second",
  "metrics" : [ {
    "tags" : {
      "cpu-id" : "MP",
      "cpu-is-avg" : "false",
      "display-name" : "CPU Utilization",
      "im.dstype.displaytype" : "percentage",
      "im.identity-tags" : "cpu-id",
      "im.name" : "cpu-usage",
      "live-config" : "true",
      "resource-metric" : "true"
    },
    "value" : "2.0"
  } ]
}
