{
  "command" : "radware-stats-ntp",
  "metrics" : [ {
    "tags" : {
      "im.dstype" : "gauge",
      "im.metric-type" : "ts",
      "im.name" : "ntp-server-state"
    },
    "value" : "0.0"
  } ]
}
