{
  "command" : "cphaprob_list",
  "metrics" : [ {
    "tags" : {
      "display-name" : "ClusterXL Devices",
      "im.dstype" : "gauge",
      "im.dstype.displaytype" : "state",
      "im.identity-tags" : "name",
      "im.metric-type" : "ts",
      "im.name" : "clusterxl-pnote-state",
      "im.step" : "60",
      "live-config" : "true",
      "name" : "Filter"
    },
    "value" : "1.0"
  }, {
    "tags" : {
      "display-name" : "ClusterXL Devices",
      "im.dstype" : "gauge",
      "im.dstype.displaytype" : "state",
      "im.identity-tags" : "name",
      "im.metric-type" : "ts",
      "im.name" : "clusterxl-pnote-state",
      "im.step" : "60",
      "live-config" : "true",
      "name" : "Interface Active Check"
    },
    "value" : "0.0"
  }, {
    "tags" : {
      "display-name" : "ClusterXL Devices",
      "im.dstype" : "gauge",
      "im.dstype.displaytype" : "state",
      "im.identity-tags" : "name",
      "im.metric-type" : "ts",
      "im.name" : "clusterxl-pnote-state",
      "im.step" : "60",
      "live-config" : "true",
      "name" : "admin_down"
    },
    "value" : "0.0"
  }, {
    "tags" : {
      "display-name" : "ClusterXL Devices",
      "im.dstype" : "gauge",
      "im.dstype.displaytype" : "state",
      "im.identity-tags" : "name",
      "im.metric-type" : "ts",
      "im.name" : "clusterxl-pnote-state",
      "im.step" : "60",
      "live-config" : "true",
      "name" : "cphad"
    },
    "value" : "1.0"
  }, {
    "tags" : {
      "display-name" : "ClusterXL Devices",
      "im.dstype" : "gauge",
      "im.dstype.displaytype" : "state",
      "im.identity-tags" : "name",
      "im.metric-type" : "ts",
      "im.name" : "clusterxl-pnote-state",
      "im.step" : "60",
      "live-config" : "true",
      "name" : "fwd"
    },
    "value" : "1.0"
  } ]
}
