{
  "command" : "hw-sw-eos-check",
  "metrics" : [ {
    "tags" : {
      "display-name" : "Software End of Support",
      "im.dstype" : "gauge",
      "im.dstype.displaytype" : "date",
      "im.metric-type" : "ts",
      "im.name" : "software-eos-date",
      "im.step" : "3600",
      "live-config" : "true"
    },
    "value" : "1.556694E9"
  } ]
}
