{
  "command" : "policy-fingerprint",
  "metrics" : [ {
    "tags" : {
      "im.metric-type" : "runtime",
      "im.name" : "policy-installed-fingerprint"
    },
    "value" : {
      "value" : "TestPOlicy 0fabfcc5dded2edcb89fd63203d91144"
    }
  } ]
}
