{
  "command" : "vpn_ipafile_check_novsx",
  "metrics" : [ {
    "tags" : {
      "im.metric-type" : "runtime",
      "im.name" : "ipassignment-conf-errors"
    },
    "value" : [ {
      "line" : "Invalid IP address specification in line 0059"
    } ]
  } ]
}
