{
  "command" : "chkp-vsx-stat-l",
  "metrics" : [ {
    "tags" : {
      "display-name" : "Connections - Current",
      "im.dstype" : "gauge",
      "im.dstype.displaytype" : "number",
      "im.identity-tags" : "vs.id|vs.name",
      "im.metric-type" : "ts",
      "im.name" : "concurrent-connections",
      "im.step" : "60",
      "live-config" : "true",
      "vs.id" : "0",
      "vs.name" : "VSX-CXL1-Metal",
      "vs.type" : "VSX Gateway"
    },
    "value" : "2337.0"
  }, {
    "tags" : {
      "display-name" : "Connections - Capacity",
      "im.dstype" : "gauge",
      "im.dstype.displaytype" : "number",
      "im.identity-tags" : "vs.id|vs.name",
      "im.metric-type" : "ts",
      "im.name" : "concurrent-connections-limit",
      "im.step" : "60",
      "live-config" : "true",
      "vs.id" : "0",
      "vs.name" : "VSX-CXL1-Metal",
      "vs.type" : "VSX Gateway"
    },
    "value" : "14900.0"
  }, {
    "tags" : {
      "display-name" : "Connections - Capacity",
      "im.dstype" : "gauge",
      "im.dstype.displaytype" : "number",
      "im.identity-tags" : "vs.id|vs.name",
      "im.metric-type" : "ts",
      "im.name" : "concurrent-connections-limit",
      "im.step" : "60",
      "live-config" : "true",
      "vs.id" : "1",
      "vs.name" : "VSX-CXL1-Metal_VSW",
      "vs.type" : "Virtual Switch"
    },
    "value" : "900.0"
  }, {
    "tags" : {
      "display-name" : "Connections - Capacity",
      "im.dstype" : "gauge",
      "im.dstype.displaytype" : "number",
      "im.identity-tags" : "vs.id|vs.name",
      "im.metric-type" : "ts",
      "im.name" : "concurrent-connections-limit",
      "im.step" : "60",
      "live-config" : "true",
      "vs.id" : "3",
      "vs.name" : "VSX-CXL1-Metal_Ed",
      "vs.type" : "Virtual System in Bridge mode"
    },
    "value" : "14900.0"
  }, {
    "tags" : {
      "display-name" : "Connections - Current",
      "im.dstype" : "gauge",
      "im.dstype.displaytype" : "number",
      "im.identity-tags" : "vs.id|vs.name",
      "im.metric-type" : "ts",
      "im.name" : "concurrent-connections",
      "im.step" : "60",
      "live-config" : "true",
      "vs.id" : "1",
      "vs.name" : "VSX-CXL1-Metal_VSW",
      "vs.type" : "Virtual Switch"
    },
    "value" : "0.0"
  }, {
    "tags" : {
      "display-name" : "Connections - Current",
      "im.dstype" : "gauge",
      "im.dstype.displaytype" : "number",
      "im.identity-tags" : "vs.id|vs.name",
      "im.metric-type" : "ts",
      "im.name" : "concurrent-connections",
      "im.step" : "60",
      "live-config" : "true",
      "vs.id" : "2",
      "vs.name" : "VSX-CXL1-Metal_Solid_Snake",
      "vs.type" : "Virtual System"
    },
    "value" : "4.0"
  }, {
    "tags" : {
      "display-name" : "Connections - Current",
      "im.dstype" : "gauge",
      "im.dstype.displaytype" : "number",
      "im.identity-tags" : "vs.id|vs.name",
      "im.metric-type" : "ts",
      "im.name" : "concurrent-connections",
      "im.step" : "60",
      "live-config" : "true",
      "vs.id" : "3",
      "vs.name" : "VSX-CXL1-Metal_Ed",
      "vs.type" : "Virtual System in Bridge mode"
    },
    "value" : "0.0"
  } ]
}
