{
  "command" : "f5-tmsh-list-profile-client-ssl-recursive-ciphers",
  "metrics" : [ {
    "tags" : {
      "cipher" : "DES-CBC3",
      "im.dstype" : "gauge",
      "im.dstype.displaytype" : "state",
      "im.metric-type" : "ts",
      "im.name" : "ssl-weak-cipher",
      "im.step" : "3600",
      "name" : "/Common/randomprofilename",
      "type" : "Client SSL profile",
      "vulnerability" : "SWEET32"
    },
    "value" : "1.0"
  }, {
    "tags" : {
      "cipher" : "RC4",
      "im.dstype" : "gauge",
      "im.dstype.displaytype" : "state",
      "im.metric-type" : "ts",
      "im.name" : "ssl-weak-cipher",
      "im.step" : "3600",
      "name" : "/Common/MyInsecureClientSSLProfile",
      "type" : "Client SSL profile",
      "vulnerability" : "Bar Mitzvah"
    },
    "value" : "1.0"
  }, {
    "tags" : {
      "im.dstype" : "gauge",
      "im.dstype.displaytype" : "state",
      "im.metric-type" : "ts",
      "im.name" : "ssl-weak-protocol",
      "im.step" : "3600",
      "name" : "/Common/MyInsecureClientSSLProfile",
      "protocol" : "SSLv3",
      "type" : "Client SSL profile",
      "vulnerability" : "POODLE"
    },
    "value" : "1.0"
  }, {
    "tags" : {
      "im.dstype" : "gauge",
      "im.dstype.displaytype" : "state",
      "im.metric-type" : "ts",
      "im.name" : "ssl-weak-protocol",
      "im.step" : "3600",
      "name" : "/MyPartition/MyRC4Profile",
      "protocol" : "SSLv3",
      "type" : "Client SSL profile",
      "vulnerability" : "POODLE"
    },
    "value" : "1.0"
  }, {
    "tags" : {
      "im.dstype" : "gauge",
      "im.dstype.displaytype" : "state",
      "im.metric-type" : "ts",
      "im.name" : "ssl-weak-protocol",
      "im.step" : "3600",
      "name" : "/MyPartition/MySSLProfileWithCompatCiphers",
      "protocol" : "SSLv2",
      "type" : "Client SSL profile",
      "vulnerability" : "DROWN"
    },
    "value" : "1.0"
  }, {
    "tags" : {
      "im.dstype" : "gauge",
      "im.dstype.displaytype" : "state",
      "im.metric-type" : "ts",
      "im.name" : "ssl-weak-protocol",
      "im.step" : "3600",
      "name" : "/MyPartition/MySSLProfileWithCompatCiphers",
      "protocol" : "SSLv3",
      "type" : "Client SSL profile",
      "vulnerability" : "POODLE"
    },
    "value" : "1.0"
  }, {
    "tags" : {
      "cipher" : "RC4",
      "im.dstype" : "gauge",
      "im.dstype.displaytype" : "state",
      "im.metric-type" : "ts",
      "im.name" : "ssl-weak-cipher",
      "im.step" : "3600",
      "name" : "/MyPartition/MyRC4Profile",
      "type" : "Client SSL profile",
      "vulnerability" : "Bar Mitzvah"
    },
    "value" : "1.0"
  }, {
    "tags" : {
      "cipher" : "RC4",
      "im.dstype" : "gauge",
      "im.dstype.displaytype" : "state",
      "im.metric-type" : "ts",
      "im.name" : "ssl-weak-cipher",
      "im.step" : "3600",
      "name" : "/MyPartition/MySSLProfileWithCompatCiphers",
      "type" : "Client SSL profile",
      "vulnerability" : "Bar Mitzvah"
    },
    "value" : "1.0"
  } ]
}
