{
  "command" : "panos-request-support-info",
  "metrics" : [ {
    "tags" : {
      "display-name" : "Support Expiration",
      "im.dstype.displaytype" : "date",
      "im.identity-tags" : "name",
      "im.name" : "contract-expiration",
      "live-config" : "true",
      "name" : "Support"
    },
    "value" : "1483862396"
  } ]
}
