{
  "command" : "nexus-show-inventory",
  "metrics" : [ {
    "tags" : {
      "im.metric-type" : "runtime",
      "im.name" : "serial-numbers"
    },
    "value" : [ {
      "serial-number" : "DTM164601XC",
      "name" : "N9K-PAC-3000W"
    }, {
      "name" : "N9K-C9508-FAN",
      "serial-number" : "SAL171843HG"
    }, {
      "serial-number" : "SAL171843K2",
      "name" : "N9K-C9508-FAN"
    }, {
      "name" : "N9K-C9508-FAN",
      "serial-number" : "SAL171421SY"
    }, {
      "name" : "N9K-C9508",
      "serial-number" : "SAL17257PBN"
    }, {
      "serial-number" : "SAL17257AHD",
      "name" : "N9k-X9636PQ"
    }, {
      "serial-number" : "SAL17194HVX",
      "name" : "N9K-C9508-FM"
    }, {
      "name" : "N9K-C9508-FM",
      "serial-number" : "SAL17194HRK"
    }, {
      "serial-number" : "SAL17194HSR",
      "name" : "N9K-C9508-FM"
    }, {
      "name" : "N9K-SUP-A",
      "serial-number" : "SAL17184072"
    }, {
      "name" : "N9K-SUP-A",
      "serial-number" : "SAL1739DAUL"
    }, {
      "name" : "N9K-SC-A",
      "serial-number" : "SAL17225YFS"
    }, {
      "name" : "N9K-SC-A",
      "serial-number" : "SAL17225YG8"
    }, {
      "name" : "N9K-PAC-3000W-B",
      "serial-number" : "DTM1722000A"
    } ]
  } ]
}
