{
  "command" : "nexus-show-inventory",
  "metrics" : [ {
    "tags" : {
<<<<<<< HEAD
      "display-name" : "Serial Numbers",
      "im.metric-type" : "runtime",
      "im.name" : "serial-numbers",
      "live-config" : "true"
=======
      "im.metric-type" : "runtime",
      "im.name" : "serial-numbers"
>>>>>>> bf60604d3ecdfd05d33baa276b55f01311829132
    },
    "value" : [ {
      "name" : "N5K-C5020P-BF",
      "serial-number" : "SSI13390FZT"
    }, {
      "name" : "N5K-C5020P-BF",
      "serial-number" : "JAF1344BHNK"
    }, {
      "serial-number" : "JAB1228018M",
      "name" : "N5K-M1600"
    }, {
      "serial-number" : "JAB1231020C",
      "name" : "N5K-M1008"
    }, {
      "serial-number" : "DTM134200L5",
      "name" : "N5K-PAC-1200W"
    }, {
      "serial-number" : "DTM134200L4",
      "name" : "N5K-PAC-1200W"
    }, {
      "name" : "N2K-C2148T-1GE",
      "serial-number" : "FOX1252GQJR"
    }, {
      "name" : "N2K-C2148T-1GE",
      "serial-number" : "JAF1302ABDP"
    }, {
      "name" : "N2K-PAC-200W",
      "serial-number" : "PAC12493LQX"
    } ]
  } ]
}
