{
  "command" : "nexus-telnet-server",
  "metrics" : [ {
    "tags" : {
      "display-name" : "Telnet Enabled",
      "im.metric-type" : "runtime",
      "im.name" : "telnet-enabled",
      "live-config" : "true"
    },
    "value" : {
      "value" : "true"
    }
  } ]
}
