{
  "command" : "nexus-show-inventory",
  "metrics" : [ {
    "tags" : {
      "im.metric-type" : "runtime",
      "im.name" : "serial-numbers"
    },
    "value" : [ {
      "name" : "N9K-C93128TX",
      "serial-number" : "SAL"
    }, {
      "name" : "N9K-C93128TX",
      "serial-number" : "SAL"
    }, {
      "name" : "N9K-M12PQ",
      "serial-number" : "SAL"
    }, {
      "serial-number" : "DCH",
      "name" : "N9K-PAC-1200W"
    }, {
      "name" : "N9K-PAC-1200W",
      "serial-number" : "DCH"
    } ]
  } ]
}
