{
  "command" : "nexus-show-hsrp",
  "metrics" : [ {
    "tags" : {
      "display-name" : "HSRP - Cluster State",
      "group-vip" : "10.235.222.254",
      "im.dstype.displaytype" : "state",
      "im.identity-tags" : "name",
      "im.name" : "cluster-state",
      "live-config" : "true",
      "name" : "hsrp-Vlan2630-1:10.235.222.254"
    },
    "value" : "1.0"
  }, {
    "tags" : {
      "display-name" : "HSRP - Preemption",
      "group-vip" : "10.11.19.254",
      "im.dstype.displaytype" : "boolean",
      "im.identity-tags" : "name",
      "im.name" : "cluster-preemption-enabled",
      "live-config" : "true",
      "name" : "hsrp-Vlan19-1:10.11.19.254"
    },
    "value" : "1.0"
  }, {
    "tags" : {
      "display-name" : "HSRP - This Member State",
      "im.dstype.displaytype" : "state",
      "im.identity-tags" : "name",
      "im.name" : "cluster-member-active",
      "live-config" : "true",
      "name" : "hsrp-Vlan19-1:10.11.19.254"
    },
    "value" : "0.0"
  }, {
    "tags" : {
      "display-name" : "HSRP - This Member State",
      "im.dstype.displaytype" : "state",
      "im.identity-tags" : "name",
      "im.name" : "cluster-member-active",
      "live-config" : "true",
      "name" : "hsrp-Vlan2502-1:10.235.130.14"
    },
    "value" : "1.0"
  }, {
    "tags" : {
      "display-name" : "HSRP - Cluster State",
      "group-vip" : "10.31.136.254",
      "im.dstype.displaytype" : "state",
      "im.identity-tags" : "name",
      "im.name" : "cluster-state",
      "live-config" : "true",
      "name" : "hsrp-Vlan3136-3:10.31.136.254"
    },
    "value" : "1.0"
  }, {
    "tags" : {
      "display-name" : "HSRP - Cluster State",
      "group-vip" : "10.31.40.254",
      "im.dstype.displaytype" : "state",
      "im.identity-tags" : "name",
      "im.name" : "cluster-state",
      "live-config" : "true",
      "name" : "hsrp-Vlan3040-1:10.31.40.254"
    },
    "value" : "1.0"
  }, {
    "tags" : {
      "display-name" : "HSRP - Cluster State",
      "group-vip" : "10.31.8.254",
      "im.dstype.displaytype" : "state",
      "im.identity-tags" : "name",
      "im.name" : "cluster-state",
      "live-config" : "true",
      "name" : "hsrp-Vlan3008-3:10.31.8.254"
    },
    "value" : "1.0"
  }, {
    "tags" : {
      "display-name" : "HSRP - Cluster State",
      "group-vip" : "10.31.89.254",
      "im.dstype.displaytype" : "state",
      "im.identity-tags" : "name",
      "im.name" : "cluster-state",
      "live-config" : "true",
      "name" : "hsrp-Vlan3089-1:10.31.89.254"
    },
    "value" : "1.0"
  }, {
    "tags" : {
      "display-name" : "HSRP - Preemption",
      "group-vip" : "10.11.134.254",
      "im.dstype.displaytype" : "boolean",
      "im.identity-tags" : "name",
      "im.name" : "cluster-preemption-enabled",
      "live-config" : "true",
      "name" : "hsrp-Vlan134-1:10.11.134.254"
    },
    "value" : "1.0"
  }, {
    "tags" : {
      "display-name" : "HSRP - Cluster Groups",
      "im.identity-tags" : "name",
      "im.name" : "virtual-redundancy-groups",
      "live-config" : "true",
      "name" : "hsrp"
    },
    "value" : [ {
      "virtual-group" : "hsrp-Vlan3070-1:10.31.70.254"
    }, {
      "virtual-group" : "hsrp-Vlan3100-3:10.31.100.254"
    }, {
      "virtual-group" : "hsrp-Vlan3146-3:10.31.146.254"
    }, {
      "virtual-group" : "hsrp-Vlan3550-1:10.74.50.254"
    }, {
      "virtual-group" : "hsrp-Vlan3107-3:10.31.107.254"
    }, {
      "virtual-group" : "hsrp-Vlan3901-3:10.240.254.254"
    }, {
      "virtual-group" : "hsrp-Vlan2599-1:10.235.199.254"
    }, {
      "virtual-group" : "hsrp-Vlan3552-1:10.74.52.254"
    }, {
      "virtual-group" : "hsrp-Vlan3008-3:10.31.8.254"
    }, {
      "virtual-group" : "hsrp-Vlan3131-2:10.94.1.254"
    }, {
      "virtual-group" : "hsrp-Vlan3551-1:10.74.51.254"
    }, {
      "virtual-group" : "hsrp-Vlan3145-3:10.31.145.254"
    }, {
      "virtual-group" : "hsrp-Vlan3021-3:10.31.21.254"
    }, {
      "virtual-group" : "hsrp-Vlan80-1:10.31.80.254"
    }, {
      "virtual-group" : "hsrp-Vlan3130-3:10.31.130.254"
    }, {
      "virtual-group" : "hsrp-Vlan3239-1:10.31.239.254"
    }, {
      "virtual-group" : "hsrp-Vlan19-1:10.11.19.254"
    }, {
      "virtual-group" : "hsrp-Vlan3002-3:10.31.2.254"
    }, {
      "virtual-group" : "hsrp-Vlan2503-1:10.235.130.30"
    }, {
      "virtual-group" : "hsrp-Vlan3134-3:10.31.134.254"
    }, {
      "virtual-group" : "hsrp-Vlan3040-1:10.31.40.254"
    }, {
      "virtual-group" : "hsrp-Vlan3017-3:10.31.17.254"
    }, {
      "virtual-group" : "hsrp-Vlan26-26:10.11.26.254"
    }, {
      "virtual-group" : "hsrp-Vlan3018-1:10.31.18.254"
    }, {
      "virtual-group" : "hsrp-Vlan3144-3:10.31.144.254"
    }, {
      "virtual-group" : "hsrp-Vlan3820-3:10.219.252.254"
    }, {
      "virtual-group" : "hsrp-Vlan3041-1:10.31.41.254"
    }, {
      "virtual-group" : "hsrp-Vlan3557-1:10.74.57.254"
    }, {
      "virtual-group" : "hsrp-Vlan3147-3:10.31.147.254"
    }, {
      "virtual-group" : "hsrp-Vlan3558-1:10.74.58.254"
    }, {
      "virtual-group" : "hsrp-Vlan3089-1:10.31.89.254"
    }, {
      "virtual-group" : "hsrp-Vlan3020-3:10.31.20.254"
    }, {
      "virtual-group" : "hsrp-Vlan134-1:10.11.134.254"
    }, {
      "virtual-group" : "hsrp-Vlan2630-1:10.235.222.254"
    }, {
      "virtual-group" : "hsrp-Vlan3016-3:10.31.16.254"
    }, {
      "virtual-group" : "hsrp-Vlan3556-1:10.74.56.254"
    }, {
      "virtual-group" : "hsrp-Vlan3131-3:10.31.131.254"
    }, {
      "virtual-group" : "hsrp-Vlan3006-3:10.31.6.254"
    }, {
      "virtual-group" : "hsrp-Vlan2502-1:10.235.130.14"
    }, {
      "virtual-group" : "hsrp-Vlan82-1:10.11.82.254"
    }, {
      "virtual-group" : "hsrp-Vlan3136-3:10.31.136.254"
    }, {
      "virtual-group" : "hsrp-Vlan3003-3:10.31.3.254"
    }, {
      "virtual-group" : "hsrp-Vlan3559-1:10.74.59.254"
    } ]
  }, {
    "tags" : {
      "display-name" : "HSRP - Cluster State",
      "group-vip" : "10.11.19.254",
      "im.dstype.displaytype" : "state",
      "im.identity-tags" : "name",
      "im.name" : "cluster-state",
      "live-config" : "true",
      "name" : "hsrp-Vlan19-1:10.11.19.254"
    },
    "value" : "1.0"
  }, {
    "tags" : {
      "display-name" : "HSRP - This Member State",
      "im.dstype.displaytype" : "state",
      "im.identity-tags" : "name",
      "im.name" : "cluster-member-active",
      "live-config" : "true",
      "name" : "hsrp-Vlan2503-1:10.235.130.30"
    },
    "value" : "1.0"
  }, {
    "tags" : {
      "display-name" : "HSRP - This Member State",
      "im.dstype.displaytype" : "state",
      "im.identity-tags" : "name",
      "im.name" : "cluster-member-active",
      "live-config" : "true",
      "name" : "hsrp-Vlan26-26:10.11.26.254"
    },
    "value" : "1.0"
  }, {
    "tags" : {
      "display-name" : "HSRP - This Member State",
      "im.dstype.displaytype" : "state",
      "im.identity-tags" : "name",
      "im.name" : "cluster-member-active",
      "live-config" : "true",
      "name" : "hsrp-Vlan2630-1:10.235.222.254"
    },
    "value" : "1.0"
  }, {
    "tags" : {
      "display-name" : "HSRP - This Member State",
      "im.dstype.displaytype" : "state",
      "im.identity-tags" : "name",
      "im.name" : "cluster-member-active",
      "live-config" : "true",
      "name" : "hsrp-Vlan3003-3:10.31.3.254"
    },
    "value" : "1.0"
  }, {
    "tags" : {
      "display-name" : "HSRP - This Member State",
      "im.dstype.displaytype" : "state",
      "im.identity-tags" : "name",
      "im.name" : "cluster-member-active",
      "live-config" : "true",
      "name" : "hsrp-Vlan3006-3:10.31.6.254"
    },
    "value" : "1.0"
  }, {
    "tags" : {
      "display-name" : "HSRP - This Member State",
      "im.dstype.displaytype" : "state",
      "im.identity-tags" : "name",
      "im.name" : "cluster-member-active",
      "live-config" : "true",
      "name" : "hsrp-Vlan3008-3:10.31.8.254"
    },
    "value" : "1.0"
  }, {
    "tags" : {
      "display-name" : "HSRP - This Member State",
      "im.dstype.displaytype" : "state",
      "im.identity-tags" : "name",
      "im.name" : "cluster-member-active",
      "live-config" : "true",
      "name" : "hsrp-Vlan3016-3:10.31.16.254"
    },
    "value" : "1.0"
  }, {
    "tags" : {
      "display-name" : "HSRP - This Member State",
      "im.dstype.displaytype" : "state",
      "im.identity-tags" : "name",
      "im.name" : "cluster-member-active",
      "live-config" : "true",
      "name" : "hsrp-Vlan3017-3:10.31.17.254"
    },
    "value" : "1.0"
  }, {
    "tags" : {
      "display-name" : "HSRP - This Member State",
      "im.dstype.displaytype" : "state",
      "im.identity-tags" : "name",
      "im.name" : "cluster-member-active",
      "live-config" : "true",
      "name" : "hsrp-Vlan3020-3:10.31.20.254"
    },
    "value" : "1.0"
  }, {
    "tags" : {
      "display-name" : "HSRP - Preemption",
      "group-vip" : "10.11.26.254",
      "im.dstype.displaytype" : "boolean",
      "im.identity-tags" : "name",
      "im.name" : "cluster-preemption-enabled",
      "live-config" : "true",
      "name" : "hsrp-Vlan26-26:10.11.26.254"
    },
    "value" : "1.0"
  }, {
    "tags" : {
      "display-name" : "HSRP - Cluster State",
      "group-vip" : "10.11.82.254",
      "im.dstype.displaytype" : "state",
      "im.identity-tags" : "name",
      "im.name" : "cluster-state",
      "live-config" : "true",
      "name" : "hsrp-Vlan82-1:10.11.82.254"
    },
    "value" : "1.0"
  }, {
    "tags" : {
      "display-name" : "HSRP - Cluster State",
      "group-vip" : "10.219.252.254",
      "im.dstype.displaytype" : "state",
      "im.identity-tags" : "name",
      "im.name" : "cluster-state",
      "live-config" : "true",
      "name" : "hsrp-Vlan3820-3:10.219.252.254"
    },
    "value" : "1.0"
  }, {
    "tags" : {
      "display-name" : "HSRP - Cluster State",
      "group-vip" : "10.235.199.254",
      "im.dstype.displaytype" : "state",
      "im.identity-tags" : "name",
      "im.name" : "cluster-state",
      "live-config" : "true",
      "name" : "hsrp-Vlan2599-1:10.235.199.254"
    },
    "value" : "1.0"
  }, {
    "tags" : {
      "display-name" : "HSRP - Cluster State",
      "group-vip" : "10.31.130.254",
      "im.dstype.displaytype" : "state",
      "im.identity-tags" : "name",
      "im.name" : "cluster-state",
      "live-config" : "true",
      "name" : "hsrp-Vlan3130-3:10.31.130.254"
    },
    "value" : "1.0"
  }, {
    "tags" : {
      "display-name" : "HSRP - Cluster State",
      "group-vip" : "10.31.16.254",
      "im.dstype.displaytype" : "state",
      "im.identity-tags" : "name",
      "im.name" : "cluster-state",
      "live-config" : "true",
      "name" : "hsrp-Vlan3016-3:10.31.16.254"
    },
    "value" : "1.0"
  }, {
    "tags" : {
      "display-name" : "HSRP - Cluster State",
      "group-vip" : "10.31.80.254",
      "im.dstype.displaytype" : "state",
      "im.identity-tags" : "name",
      "im.name" : "cluster-state",
      "live-config" : "true",
      "name" : "hsrp-Vlan80-1:10.31.80.254"
    },
    "value" : "1.0"
  }, {
    "tags" : {
      "display-name" : "HSRP - Cluster State",
      "group-vip" : "10.74.56.254",
      "im.dstype.displaytype" : "state",
      "im.identity-tags" : "name",
      "im.name" : "cluster-state",
      "live-config" : "true",
      "name" : "hsrp-Vlan3556-1:10.74.56.254"
    },
    "value" : "1.0"
  }, {
    "tags" : {
      "display-name" : "HSRP - Cluster State",
      "group-vip" : "10.74.58.254",
      "im.dstype.displaytype" : "state",
      "im.identity-tags" : "name",
      "im.name" : "cluster-state",
      "live-config" : "true",
      "name" : "hsrp-Vlan3558-1:10.74.58.254"
    },
    "value" : "1.0"
  }, {
    "tags" : {
      "display-name" : "HSRP - This Member State",
      "im.dstype.displaytype" : "state",
      "im.identity-tags" : "name",
      "im.name" : "cluster-member-active",
      "live-config" : "true",
      "name" : "hsrp-Vlan3002-3:10.31.2.254"
    },
    "value" : "1.0"
  }, {
    "tags" : {
      "display-name" : "HSRP - Preemption",
      "group-vip" : "10.11.82.254",
      "im.dstype.displaytype" : "boolean",
      "im.identity-tags" : "name",
      "im.name" : "cluster-preemption-enabled",
      "live-config" : "true",
      "name" : "hsrp-Vlan82-1:10.11.82.254"
    },
    "value" : "1.0"
  }, {
    "tags" : {
      "display-name" : "HSRP - Preemption",
      "group-vip" : "10.219.252.254",
      "im.dstype.displaytype" : "boolean",
      "im.identity-tags" : "name",
      "im.name" : "cluster-preemption-enabled",
      "live-config" : "true",
      "name" : "hsrp-Vlan3820-3:10.219.252.254"
    },
    "value" : "1.0"
  }, {
    "tags" : {
      "display-name" : "HSRP - Preemption",
      "group-vip" : "10.235.130.14",
      "im.dstype.displaytype" : "boolean",
      "im.identity-tags" : "name",
      "im.name" : "cluster-preemption-enabled",
      "live-config" : "true",
      "name" : "hsrp-Vlan2502-1:10.235.130.14"
    },
    "value" : "1.0"
  }, {
    "tags" : {
      "display-name" : "HSRP - Preemption",
      "group-vip" : "10.235.130.30",
      "im.dstype.displaytype" : "boolean",
      "im.identity-tags" : "name",
      "im.name" : "cluster-preemption-enabled",
      "live-config" : "true",
      "name" : "hsrp-Vlan2503-1:10.235.130.30"
    },
    "value" : "1.0"
  }, {
    "tags" : {
      "display-name" : "HSRP - Preemption",
      "group-vip" : "10.235.199.254",
      "im.dstype.displaytype" : "boolean",
      "im.identity-tags" : "name",
      "im.name" : "cluster-preemption-enabled",
      "live-config" : "true",
      "name" : "hsrp-Vlan2599-1:10.235.199.254"
    },
    "value" : "1.0"
  }, {
    "tags" : {
      "display-name" : "HSRP - Preemption",
      "group-vip" : "10.235.222.254",
      "im.dstype.displaytype" : "boolean",
      "im.identity-tags" : "name",
      "im.name" : "cluster-preemption-enabled",
      "live-config" : "true",
      "name" : "hsrp-Vlan2630-1:10.235.222.254"
    },
    "value" : "1.0"
  }, {
    "tags" : {
      "display-name" : "HSRP - Preemption",
      "group-vip" : "10.240.254.254",
      "im.dstype.displaytype" : "boolean",
      "im.identity-tags" : "name",
      "im.name" : "cluster-preemption-enabled",
      "live-config" : "true",
      "name" : "hsrp-Vlan3901-3:10.240.254.254"
    },
    "value" : "1.0"
  }, {
    "tags" : {
      "display-name" : "HSRP - Preemption",
      "group-vip" : "10.31.100.254",
      "im.dstype.displaytype" : "boolean",
      "im.identity-tags" : "name",
      "im.name" : "cluster-preemption-enabled",
      "live-config" : "true",
      "name" : "hsrp-Vlan3100-3:10.31.100.254"
    },
    "value" : "1.0"
  }, {
    "tags" : {
      "display-name" : "HSRP - Preemption",
      "group-vip" : "10.31.107.254",
      "im.dstype.displaytype" : "boolean",
      "im.identity-tags" : "name",
      "im.name" : "cluster-preemption-enabled",
      "live-config" : "true",
      "name" : "hsrp-Vlan3107-3:10.31.107.254"
    },
    "value" : "1.0"
  }, {
    "tags" : {
      "display-name" : "HSRP - Preemption",
      "group-vip" : "10.31.134.254",
      "im.dstype.displaytype" : "boolean",
      "im.identity-tags" : "name",
      "im.name" : "cluster-preemption-enabled",
      "live-config" : "true",
      "name" : "hsrp-Vlan3134-3:10.31.134.254"
    },
    "value" : "1.0"
  }, {
    "tags" : {
      "display-name" : "HSRP - Preemption",
      "group-vip" : "10.31.144.254",
      "im.dstype.displaytype" : "boolean",
      "im.identity-tags" : "name",
      "im.name" : "cluster-preemption-enabled",
      "live-config" : "true",
      "name" : "hsrp-Vlan3144-3:10.31.144.254"
    },
    "value" : "1.0"
  }, {
    "tags" : {
      "display-name" : "HSRP - Preemption",
      "group-vip" : "10.31.145.254",
      "im.dstype.displaytype" : "boolean",
      "im.identity-tags" : "name",
      "im.name" : "cluster-preemption-enabled",
      "live-config" : "true",
      "name" : "hsrp-Vlan3145-3:10.31.145.254"
    },
    "value" : "1.0"
  }, {
    "tags" : {
      "display-name" : "HSRP - Preemption",
      "group-vip" : "10.31.146.254",
      "im.dstype.displaytype" : "boolean",
      "im.identity-tags" : "name",
      "im.name" : "cluster-preemption-enabled",
      "live-config" : "true",
      "name" : "hsrp-Vlan3146-3:10.31.146.254"
    },
    "value" : "1.0"
  }, {
    "tags" : {
      "display-name" : "HSRP - Preemption",
      "group-vip" : "10.31.147.254",
      "im.dstype.displaytype" : "boolean",
      "im.identity-tags" : "name",
      "im.name" : "cluster-preemption-enabled",
      "live-config" : "true",
      "name" : "hsrp-Vlan3147-3:10.31.147.254"
    },
    "value" : "1.0"
  }, {
    "tags" : {
      "display-name" : "HSRP - Preemption",
      "group-vip" : "10.31.17.254",
      "im.dstype.displaytype" : "boolean",
      "im.identity-tags" : "name",
      "im.name" : "cluster-preemption-enabled",
      "live-config" : "true",
      "name" : "hsrp-Vlan3017-3:10.31.17.254"
    },
    "value" : "1.0"
  }, {
    "tags" : {
      "display-name" : "HSRP - Preemption",
      "group-vip" : "10.31.18.254",
      "im.dstype.displaytype" : "boolean",
      "im.identity-tags" : "name",
      "im.name" : "cluster-preemption-enabled",
      "live-config" : "true",
      "name" : "hsrp-Vlan3018-1:10.31.18.254"
    },
    "value" : "1.0"
  }, {
    "tags" : {
      "display-name" : "HSRP - Preemption",
      "group-vip" : "10.31.2.254",
      "im.dstype.displaytype" : "boolean",
      "im.identity-tags" : "name",
      "im.name" : "cluster-preemption-enabled",
      "live-config" : "true",
      "name" : "hsrp-Vlan3002-3:10.31.2.254"
    },
    "value" : "1.0"
  }, {
    "tags" : {
      "display-name" : "HSRP - Preemption",
      "group-vip" : "10.31.20.254",
      "im.dstype.displaytype" : "boolean",
      "im.identity-tags" : "name",
      "im.name" : "cluster-preemption-enabled",
      "live-config" : "true",
      "name" : "hsrp-Vlan3020-3:10.31.20.254"
    },
    "value" : "1.0"
  }, {
    "tags" : {
      "display-name" : "HSRP - Preemption",
      "group-vip" : "10.31.21.254",
      "im.dstype.displaytype" : "boolean",
      "im.identity-tags" : "name",
      "im.name" : "cluster-preemption-enabled",
      "live-config" : "true",
      "name" : "hsrp-Vlan3021-3:10.31.21.254"
    },
    "value" : "1.0"
  }, {
    "tags" : {
      "display-name" : "HSRP - Preemption",
      "group-vip" : "10.31.239.254",
      "im.dstype.displaytype" : "boolean",
      "im.identity-tags" : "name",
      "im.name" : "cluster-preemption-enabled",
      "live-config" : "true",
      "name" : "hsrp-Vlan3239-1:10.31.239.254"
    },
    "value" : "1.0"
  }, {
    "tags" : {
      "display-name" : "HSRP - Preemption",
      "group-vip" : "10.31.3.254",
      "im.dstype.displaytype" : "boolean",
      "im.identity-tags" : "name",
      "im.name" : "cluster-preemption-enabled",
      "live-config" : "true",
      "name" : "hsrp-Vlan3003-3:10.31.3.254"
    },
    "value" : "1.0"
  }, {
    "tags" : {
      "display-name" : "HSRP - Preemption",
      "group-vip" : "10.31.40.254",
      "im.dstype.displaytype" : "boolean",
      "im.identity-tags" : "name",
      "im.name" : "cluster-preemption-enabled",
      "live-config" : "true",
      "name" : "hsrp-Vlan3040-1:10.31.40.254"
    },
    "value" : "1.0"
  }, {
    "tags" : {
      "display-name" : "HSRP - Preemption",
      "group-vip" : "10.31.41.254",
      "im.dstype.displaytype" : "boolean",
      "im.identity-tags" : "name",
      "im.name" : "cluster-preemption-enabled",
      "live-config" : "true",
      "name" : "hsrp-Vlan3041-1:10.31.41.254"
    },
    "value" : "1.0"
  }, {
    "tags" : {
      "display-name" : "HSRP - Preemption",
      "group-vip" : "10.31.6.254",
      "im.dstype.displaytype" : "boolean",
      "im.identity-tags" : "name",
      "im.name" : "cluster-preemption-enabled",
      "live-config" : "true",
      "name" : "hsrp-Vlan3006-3:10.31.6.254"
    },
    "value" : "1.0"
  }, {
    "tags" : {
      "display-name" : "HSRP - Preemption",
      "group-vip" : "10.31.70.254",
      "im.dstype.displaytype" : "boolean",
      "im.identity-tags" : "name",
      "im.name" : "cluster-preemption-enabled",
      "live-config" : "true",
      "name" : "hsrp-Vlan3070-1:10.31.70.254"
    },
    "value" : "1.0"
  }, {
    "tags" : {
      "display-name" : "HSRP - Preemption",
      "group-vip" : "10.31.8.254",
      "im.dstype.displaytype" : "boolean",
      "im.identity-tags" : "name",
      "im.name" : "cluster-preemption-enabled",
      "live-config" : "true",
      "name" : "hsrp-Vlan3008-3:10.31.8.254"
    },
    "value" : "1.0"
  }, {
    "tags" : {
      "display-name" : "HSRP - Preemption",
      "group-vip" : "10.31.80.254",
      "im.dstype.displaytype" : "boolean",
      "im.identity-tags" : "name",
      "im.name" : "cluster-preemption-enabled",
      "live-config" : "true",
      "name" : "hsrp-Vlan80-1:10.31.80.254"
    },
    "value" : "1.0"
  }, {
    "tags" : {
      "display-name" : "HSRP - Preemption",
      "group-vip" : "10.31.89.254",
      "im.dstype.displaytype" : "boolean",
      "im.identity-tags" : "name",
      "im.name" : "cluster-preemption-enabled",
      "live-config" : "true",
      "name" : "hsrp-Vlan3089-1:10.31.89.254"
    },
    "value" : "1.0"
  }, {
    "tags" : {
      "display-name" : "HSRP - Preemption",
      "group-vip" : "10.74.51.254",
      "im.dstype.displaytype" : "boolean",
      "im.identity-tags" : "name",
      "im.name" : "cluster-preemption-enabled",
      "live-config" : "true",
      "name" : "hsrp-Vlan3551-1:10.74.51.254"
    },
    "value" : "1.0"
  }, {
    "tags" : {
      "display-name" : "HSRP - Preemption",
      "group-vip" : "10.74.52.254",
      "im.dstype.displaytype" : "boolean",
      "im.identity-tags" : "name",
      "im.name" : "cluster-preemption-enabled",
      "live-config" : "true",
      "name" : "hsrp-Vlan3552-1:10.74.52.254"
    },
    "value" : "1.0"
  }, {
    "tags" : {
      "display-name" : "HSRP - Preemption",
      "group-vip" : "10.74.56.254",
      "im.dstype.displaytype" : "boolean",
      "im.identity-tags" : "name",
      "im.name" : "cluster-preemption-enabled",
      "live-config" : "true",
      "name" : "hsrp-Vlan3556-1:10.74.56.254"
    },
    "value" : "1.0"
  }, {
    "tags" : {
      "display-name" : "HSRP - Preemption",
      "group-vip" : "10.74.57.254",
      "im.dstype.displaytype" : "boolean",
      "im.identity-tags" : "name",
      "im.name" : "cluster-preemption-enabled",
      "live-config" : "true",
      "name" : "hsrp-Vlan3557-1:10.74.57.254"
    },
    "value" : "1.0"
  }, {
    "tags" : {
      "display-name" : "HSRP - Preemption",
      "group-vip" : "10.74.59.254",
      "im.dstype.displaytype" : "boolean",
      "im.identity-tags" : "name",
      "im.name" : "cluster-preemption-enabled",
      "live-config" : "true",
      "name" : "hsrp-Vlan3559-1:10.74.59.254"
    },
    "value" : "1.0"
  }, {
    "tags" : {
      "display-name" : "HSRP - This Member State",
      "im.dstype.displaytype" : "state",
      "im.identity-tags" : "name",
      "im.name" : "cluster-member-active",
      "live-config" : "true",
      "name" : "hsrp-Vlan134-1:10.11.134.254"
    },
    "value" : "1.0"
  }, {
    "tags" : {
      "display-name" : "HSRP - Preemption",
      "group-vip" : "10.31.131.254",
      "im.dstype.displaytype" : "boolean",
      "im.identity-tags" : "name",
      "im.name" : "cluster-preemption-enabled",
      "live-config" : "true",
      "name" : "hsrp-Vlan3131-3:10.31.131.254"
    },
    "value" : "1.0"
  }, {
    "tags" : {
      "display-name" : "HSRP - Cluster State",
      "group-vip" : "10.11.26.254",
      "im.dstype.displaytype" : "state",
      "im.identity-tags" : "name",
      "im.name" : "cluster-state",
      "live-config" : "true",
      "name" : "hsrp-Vlan26-26:10.11.26.254"
    },
    "value" : "1.0"
  }, {
    "tags" : {
      "display-name" : "HSRP - Cluster State",
      "group-vip" : "10.235.130.14",
      "im.dstype.displaytype" : "state",
      "im.identity-tags" : "name",
      "im.name" : "cluster-state",
      "live-config" : "true",
      "name" : "hsrp-Vlan2502-1:10.235.130.14"
    },
    "value" : "1.0"
  }, {
    "tags" : {
      "display-name" : "HSRP - Cluster State",
      "group-vip" : "10.235.130.30",
      "im.dstype.displaytype" : "state",
      "im.identity-tags" : "name",
      "im.name" : "cluster-state",
      "live-config" : "true",
      "name" : "hsrp-Vlan2503-1:10.235.130.30"
    },
    "value" : "1.0"
  }, {
    "tags" : {
      "display-name" : "HSRP - Cluster State",
      "group-vip" : "10.240.254.254",
      "im.dstype.displaytype" : "state",
      "im.identity-tags" : "name",
      "im.name" : "cluster-state",
      "live-config" : "true",
      "name" : "hsrp-Vlan3901-3:10.240.254.254"
    },
    "value" : "1.0"
  }, {
    "tags" : {
      "display-name" : "HSRP - Cluster State",
      "group-vip" : "10.31.100.254",
      "im.dstype.displaytype" : "state",
      "im.identity-tags" : "name",
      "im.name" : "cluster-state",
      "live-config" : "true",
      "name" : "hsrp-Vlan3100-3:10.31.100.254"
    },
    "value" : "1.0"
  }, {
    "tags" : {
      "display-name" : "HSRP - Cluster State",
      "group-vip" : "10.31.145.254",
      "im.dstype.displaytype" : "state",
      "im.identity-tags" : "name",
      "im.name" : "cluster-state",
      "live-config" : "true",
      "name" : "hsrp-Vlan3145-3:10.31.145.254"
    },
    "value" : "1.0"
  }, {
    "tags" : {
      "display-name" : "HSRP - Cluster State",
      "group-vip" : "10.31.146.254",
      "im.dstype.displaytype" : "state",
      "im.identity-tags" : "name",
      "im.name" : "cluster-state",
      "live-config" : "true",
      "name" : "hsrp-Vlan3146-3:10.31.146.254"
    },
    "value" : "1.0"
  }, {
    "tags" : {
      "display-name" : "HSRP - Cluster State",
      "group-vip" : "10.31.21.254",
      "im.dstype.displaytype" : "state",
      "im.identity-tags" : "name",
      "im.name" : "cluster-state",
      "live-config" : "true",
      "name" : "hsrp-Vlan3021-3:10.31.21.254"
    },
    "value" : "1.0"
  }, {
    "tags" : {
      "display-name" : "HSRP - Cluster State",
      "group-vip" : "10.31.41.254",
      "im.dstype.displaytype" : "state",
      "im.identity-tags" : "name",
      "im.name" : "cluster-state",
      "live-config" : "true",
      "name" : "hsrp-Vlan3041-1:10.31.41.254"
    },
    "value" : "1.0"
  }, {
    "tags" : {
      "display-name" : "HSRP - Cluster State",
      "group-vip" : "10.31.6.254",
      "im.dstype.displaytype" : "state",
      "im.identity-tags" : "name",
      "im.name" : "cluster-state",
      "live-config" : "true",
      "name" : "hsrp-Vlan3006-3:10.31.6.254"
    },
    "value" : "1.0"
  }, {
    "tags" : {
      "display-name" : "HSRP - Cluster State",
      "group-vip" : "10.31.70.254",
      "im.dstype.displaytype" : "state",
      "im.identity-tags" : "name",
      "im.name" : "cluster-state",
      "live-config" : "true",
      "name" : "hsrp-Vlan3070-1:10.31.70.254"
    },
    "value" : "1.0"
  }, {
    "tags" : {
      "display-name" : "HSRP - Preemption",
      "group-vip" : "10.31.16.254",
      "im.dstype.displaytype" : "boolean",
      "im.identity-tags" : "name",
      "im.name" : "cluster-preemption-enabled",
      "live-config" : "true",
      "name" : "hsrp-Vlan3016-3:10.31.16.254"
    },
    "value" : "1.0"
  }, {
    "tags" : {
      "display-name" : "HSRP - Preemption",
      "group-vip" : "10.74.58.254",
      "im.dstype.displaytype" : "boolean",
      "im.identity-tags" : "name",
      "im.name" : "cluster-preemption-enabled",
      "live-config" : "true",
      "name" : "hsrp-Vlan3558-1:10.74.58.254"
    },
    "value" : "1.0"
  }, {
    "tags" : {
      "display-name" : "HSRP - This Member State",
      "im.dstype.displaytype" : "state",
      "im.identity-tags" : "name",
      "im.name" : "cluster-member-active",
      "live-config" : "true",
      "name" : "hsrp-Vlan3018-1:10.31.18.254"
    },
    "value" : "1.0"
  }, {
    "tags" : {
      "display-name" : "HSRP - This Member State",
      "im.dstype.displaytype" : "state",
      "im.identity-tags" : "name",
      "im.name" : "cluster-member-active",
      "live-config" : "true",
      "name" : "hsrp-Vlan3021-3:10.31.21.254"
    },
    "value" : "1.0"
  }, {
    "tags" : {
      "display-name" : "HSRP - This Member State",
      "im.dstype.displaytype" : "state",
      "im.identity-tags" : "name",
      "im.name" : "cluster-member-active",
      "live-config" : "true",
      "name" : "hsrp-Vlan3040-1:10.31.40.254"
    },
    "value" : "1.0"
  }, {
    "tags" : {
      "display-name" : "HSRP - This Member State",
      "im.dstype.displaytype" : "state",
      "im.identity-tags" : "name",
      "im.name" : "cluster-member-active",
      "live-config" : "true",
      "name" : "hsrp-Vlan3041-1:10.31.41.254"
    },
    "value" : "1.0"
  }, {
    "tags" : {
      "display-name" : "HSRP - This Member State",
      "im.dstype.displaytype" : "state",
      "im.identity-tags" : "name",
      "im.name" : "cluster-member-active",
      "live-config" : "true",
      "name" : "hsrp-Vlan3070-1:10.31.70.254"
    },
    "value" : "1.0"
  }, {
    "tags" : {
      "display-name" : "HSRP - This Member State",
      "im.dstype.displaytype" : "state",
      "im.identity-tags" : "name",
      "im.name" : "cluster-member-active",
      "live-config" : "true",
      "name" : "hsrp-Vlan3089-1:10.31.89.254"
    },
    "value" : "1.0"
  }, {
    "tags" : {
      "display-name" : "HSRP - This Member State",
      "im.dstype.displaytype" : "state",
      "im.identity-tags" : "name",
      "im.name" : "cluster-member-active",
      "live-config" : "true",
      "name" : "hsrp-Vlan3100-3:10.31.100.254"
    },
    "value" : "1.0"
  }, {
    "tags" : {
      "display-name" : "HSRP - Cluster State",
      "group-vip" : "10.11.134.254",
      "im.dstype.displaytype" : "state",
      "im.identity-tags" : "name",
      "im.name" : "cluster-state",
      "live-config" : "true",
      "name" : "hsrp-Vlan134-1:10.11.134.254"
    },
    "value" : "1.0"
  }, {
    "tags" : {
      "display-name" : "HSRP - Cluster State",
      "group-vip" : "10.31.107.254",
      "im.dstype.displaytype" : "state",
      "im.identity-tags" : "name",
      "im.name" : "cluster-state",
      "live-config" : "true",
      "name" : "hsrp-Vlan3107-3:10.31.107.254"
    },
    "value" : "1.0"
  }, {
    "tags" : {
      "display-name" : "HSRP - This Member State",
      "im.dstype.displaytype" : "state",
      "im.identity-tags" : "name",
      "im.name" : "cluster-member-active",
      "live-config" : "true",
      "name" : "hsrp-Vlan3107-3:10.31.107.254"
    },
    "value" : "1.0"
  }, {
    "tags" : {
      "display-name" : "HSRP - This Member State",
      "im.dstype.displaytype" : "state",
      "im.identity-tags" : "name",
      "im.name" : "cluster-member-active",
      "live-config" : "true",
      "name" : "hsrp-Vlan3130-3:10.31.130.254"
    },
    "value" : "1.0"
  }, {
    "tags" : {
      "display-name" : "HSRP - This Member State",
      "im.dstype.displaytype" : "state",
      "im.identity-tags" : "name",
      "im.name" : "cluster-member-active",
      "live-config" : "true",
      "name" : "hsrp-Vlan3131-2:10.94.1.254"
    },
    "value" : "1.0"
  }, {
    "tags" : {
      "display-name" : "HSRP - This Member State",
      "im.dstype.displaytype" : "state",
      "im.identity-tags" : "name",
      "im.name" : "cluster-member-active",
      "live-config" : "true",
      "name" : "hsrp-Vlan3131-3:10.31.131.254"
    },
    "value" : "1.0"
  }, {
    "tags" : {
      "display-name" : "HSRP - This Member State",
      "im.dstype.displaytype" : "state",
      "im.identity-tags" : "name",
      "im.name" : "cluster-member-active",
      "live-config" : "true",
      "name" : "hsrp-Vlan3134-3:10.31.134.254"
    },
    "value" : "1.0"
  }, {
    "tags" : {
      "display-name" : "HSRP - This Member State",
      "im.dstype.displaytype" : "state",
      "im.identity-tags" : "name",
      "im.name" : "cluster-member-active",
      "live-config" : "true",
      "name" : "hsrp-Vlan3136-3:10.31.136.254"
    },
    "value" : "1.0"
  }, {
    "tags" : {
      "display-name" : "HSRP - This Member State",
      "im.dstype.displaytype" : "state",
      "im.identity-tags" : "name",
      "im.name" : "cluster-member-active",
      "live-config" : "true",
      "name" : "hsrp-Vlan3145-3:10.31.145.254"
    },
    "value" : "1.0"
  }, {
    "tags" : {
      "display-name" : "HSRP - This Member State",
      "im.dstype.displaytype" : "state",
      "im.identity-tags" : "name",
      "im.name" : "cluster-member-active",
      "live-config" : "true",
      "name" : "hsrp-Vlan3146-3:10.31.146.254"
    },
    "value" : "1.0"
  }, {
    "tags" : {
      "display-name" : "HSRP - This Member State",
      "im.dstype.displaytype" : "state",
      "im.identity-tags" : "name",
      "im.name" : "cluster-member-active",
      "live-config" : "true",
      "name" : "hsrp-Vlan3147-3:10.31.147.254"
    },
    "value" : "1.0"
  }, {
    "tags" : {
      "display-name" : "HSRP - This Member State",
      "im.dstype.displaytype" : "state",
      "im.identity-tags" : "name",
      "im.name" : "cluster-member-active",
      "live-config" : "true",
      "name" : "hsrp-Vlan3550-1:10.74.50.254"
    },
    "value" : "1.0"
  }, {
    "tags" : {
      "display-name" : "HSRP - This Member State",
      "im.dstype.displaytype" : "state",
      "im.identity-tags" : "name",
      "im.name" : "cluster-member-active",
      "live-config" : "true",
      "name" : "hsrp-Vlan3551-1:10.74.51.254"
    },
    "value" : "1.0"
  }, {
    "tags" : {
      "display-name" : "HSRP - This Member State",
      "im.dstype.displaytype" : "state",
      "im.identity-tags" : "name",
      "im.name" : "cluster-member-active",
      "live-config" : "true",
      "name" : "hsrp-Vlan3552-1:10.74.52.254"
    },
    "value" : "0.0"
  }, {
    "tags" : {
      "display-name" : "HSRP - This Member State",
      "im.dstype.displaytype" : "state",
      "im.identity-tags" : "name",
      "im.name" : "cluster-member-active",
      "live-config" : "true",
      "name" : "hsrp-Vlan3556-1:10.74.56.254"
    },
    "value" : "0.0"
  }, {
    "tags" : {
      "display-name" : "HSRP - This Member State",
      "im.dstype.displaytype" : "state",
      "im.identity-tags" : "name",
      "im.name" : "cluster-member-active",
      "live-config" : "true",
      "name" : "hsrp-Vlan3557-1:10.74.57.254"
    },
    "value" : "1.0"
  }, {
    "tags" : {
      "display-name" : "HSRP - This Member State",
      "im.dstype.displaytype" : "state",
      "im.identity-tags" : "name",
      "im.name" : "cluster-member-active",
      "live-config" : "true",
      "name" : "hsrp-Vlan3558-1:10.74.58.254"
    },
    "value" : "1.0"
  }, {
    "tags" : {
      "display-name" : "HSRP - This Member State",
      "im.dstype.displaytype" : "state",
      "im.identity-tags" : "name",
      "im.name" : "cluster-member-active",
      "live-config" : "true",
      "name" : "hsrp-Vlan3559-1:10.74.59.254"
    },
    "value" : "1.0"
  }, {
    "tags" : {
      "display-name" : "HSRP - This Member State",
      "im.dstype.displaytype" : "state",
      "im.identity-tags" : "name",
      "im.name" : "cluster-member-active",
      "live-config" : "true",
      "name" : "hsrp-Vlan3820-3:10.219.252.254"
    },
    "value" : "1.0"
  }, {
    "tags" : {
      "display-name" : "HSRP - This Member State",
      "im.dstype.displaytype" : "state",
      "im.identity-tags" : "name",
      "im.name" : "cluster-member-active",
      "live-config" : "true",
      "name" : "hsrp-Vlan3901-3:10.240.254.254"
    },
    "value" : "1.0"
  }, {
    "tags" : {
      "display-name" : "HSRP - This Member State",
      "im.dstype.displaytype" : "state",
      "im.identity-tags" : "name",
      "im.name" : "cluster-member-active",
      "live-config" : "true",
      "name" : "hsrp-Vlan80-1:10.31.80.254"
    },
    "value" : "1.0"
  }, {
    "tags" : {
      "display-name" : "HSRP - This Member State",
      "im.dstype.displaytype" : "state",
      "im.identity-tags" : "name",
      "im.name" : "cluster-member-active",
      "live-config" : "true",
      "name" : "hsrp-Vlan82-1:10.11.82.254"
    },
    "value" : "1.0"
  }, {
    "tags" : {
      "display-name" : "HSRP - Cluster State",
      "group-vip" : "10.31.131.254",
      "im.dstype.displaytype" : "state",
      "im.identity-tags" : "name",
      "im.name" : "cluster-state",
      "live-config" : "true",
      "name" : "hsrp-Vlan3131-3:10.31.131.254"
    },
    "value" : "1.0"
  }, {
    "tags" : {
      "display-name" : "HSRP - Cluster State",
      "group-vip" : "10.31.134.254",
      "im.dstype.displaytype" : "state",
      "im.identity-tags" : "name",
      "im.name" : "cluster-state",
      "live-config" : "true",
      "name" : "hsrp-Vlan3134-3:10.31.134.254"
    },
    "value" : "1.0"
  }, {
    "tags" : {
      "display-name" : "HSRP - Cluster State",
      "group-vip" : "10.31.147.254",
      "im.dstype.displaytype" : "state",
      "im.identity-tags" : "name",
      "im.name" : "cluster-state",
      "live-config" : "true",
      "name" : "hsrp-Vlan3147-3:10.31.147.254"
    },
    "value" : "1.0"
  }, {
    "tags" : {
      "display-name" : "HSRP - Cluster State",
      "group-vip" : "10.31.17.254",
      "im.dstype.displaytype" : "state",
      "im.identity-tags" : "name",
      "im.name" : "cluster-state",
      "live-config" : "true",
      "name" : "hsrp-Vlan3017-3:10.31.17.254"
    },
    "value" : "1.0"
  }, {
    "tags" : {
      "display-name" : "HSRP - Cluster State",
      "group-vip" : "10.31.18.254",
      "im.dstype.displaytype" : "state",
      "im.identity-tags" : "name",
      "im.name" : "cluster-state",
      "live-config" : "true",
      "name" : "hsrp-Vlan3018-1:10.31.18.254"
    },
    "value" : "1.0"
  }, {
    "tags" : {
      "display-name" : "HSRP - Cluster State",
      "group-vip" : "10.31.2.254",
      "im.dstype.displaytype" : "state",
      "im.identity-tags" : "name",
      "im.name" : "cluster-state",
      "live-config" : "true",
      "name" : "hsrp-Vlan3002-3:10.31.2.254"
    },
    "value" : "1.0"
  }, {
    "tags" : {
      "display-name" : "HSRP - Cluster State",
      "group-vip" : "10.31.239.254",
      "im.dstype.displaytype" : "state",
      "im.identity-tags" : "name",
      "im.name" : "cluster-state",
      "live-config" : "true",
      "name" : "hsrp-Vlan3239-1:10.31.239.254"
    },
    "value" : "1.0"
  }, {
    "tags" : {
      "display-name" : "HSRP - Cluster State",
      "group-vip" : "10.31.3.254",
      "im.dstype.displaytype" : "state",
      "im.identity-tags" : "name",
      "im.name" : "cluster-state",
      "live-config" : "true",
      "name" : "hsrp-Vlan3003-3:10.31.3.254"
    },
    "value" : "1.0"
  }, {
    "tags" : {
      "display-name" : "HSRP - Preemption",
      "group-vip" : "10.31.130.254",
      "im.dstype.displaytype" : "boolean",
      "im.identity-tags" : "name",
      "im.name" : "cluster-preemption-enabled",
      "live-config" : "true",
      "name" : "hsrp-Vlan3130-3:10.31.130.254"
    },
    "value" : "1.0"
  }, {
    "tags" : {
      "display-name" : "HSRP - This Member State",
      "im.dstype.displaytype" : "state",
      "im.identity-tags" : "name",
      "im.name" : "cluster-member-active",
      "live-config" : "true",
      "name" : "hsrp-Vlan3144-3:10.31.144.254"
    },
    "value" : "1.0"
  }, {
    "tags" : {
      "display-name" : "HSRP - Cluster State",
      "group-vip" : "10.74.50.254",
      "im.dstype.displaytype" : "state",
      "im.identity-tags" : "name",
      "im.name" : "cluster-state",
      "live-config" : "true",
      "name" : "hsrp-Vlan3550-1:10.74.50.254"
    },
    "value" : "1.0"
  }, {
    "tags" : {
      "display-name" : "HSRP - Cluster State",
      "group-vip" : "10.74.51.254",
      "im.dstype.displaytype" : "state",
      "im.identity-tags" : "name",
      "im.name" : "cluster-state",
      "live-config" : "true",
      "name" : "hsrp-Vlan3551-1:10.74.51.254"
    },
    "value" : "1.0"
  }, {
    "tags" : {
      "display-name" : "HSRP - Cluster State",
      "group-vip" : "10.74.57.254",
      "im.dstype.displaytype" : "state",
      "im.identity-tags" : "name",
      "im.name" : "cluster-state",
      "live-config" : "true",
      "name" : "hsrp-Vlan3557-1:10.74.57.254"
    },
    "value" : "1.0"
  }, {
    "tags" : {
      "display-name" : "HSRP - Cluster State",
      "group-vip" : "10.74.59.254",
      "im.dstype.displaytype" : "state",
      "im.identity-tags" : "name",
      "im.name" : "cluster-state",
      "live-config" : "true",
      "name" : "hsrp-Vlan3559-1:10.74.59.254"
    },
    "value" : "1.0"
  }, {
    "tags" : {
      "display-name" : "HSRP - Cluster State",
      "group-vip" : "10.94.1.254",
      "im.dstype.displaytype" : "state",
      "im.identity-tags" : "name",
      "im.name" : "cluster-state",
      "live-config" : "true",
      "name" : "hsrp-Vlan3131-2:10.94.1.254"
    },
    "value" : "1.0"
  }, {
    "tags" : {
      "display-name" : "HSRP - Preemption",
      "group-vip" : "10.31.136.254",
      "im.dstype.displaytype" : "boolean",
      "im.identity-tags" : "name",
      "im.name" : "cluster-preemption-enabled",
      "live-config" : "true",
      "name" : "hsrp-Vlan3136-3:10.31.136.254"
    },
    "value" : "1.0"
  }, {
    "tags" : {
      "display-name" : "HSRP - Preemption",
      "group-vip" : "10.94.1.254",
      "im.dstype.displaytype" : "boolean",
      "im.identity-tags" : "name",
      "im.name" : "cluster-preemption-enabled",
      "live-config" : "true",
      "name" : "hsrp-Vlan3131-2:10.94.1.254"
    },
    "value" : "1.0"
  }, {
    "tags" : {
      "display-name" : "HSRP - This Member State",
      "im.dstype.displaytype" : "state",
      "im.identity-tags" : "name",
      "im.name" : "cluster-member-active",
      "live-config" : "true",
      "name" : "hsrp-Vlan2599-1:10.235.199.254"
    },
    "value" : "1.0"
  }, {
    "tags" : {
      "display-name" : "HSRP - This Member State",
      "im.dstype.displaytype" : "state",
      "im.identity-tags" : "name",
      "im.name" : "cluster-member-active",
      "live-config" : "true",
      "name" : "hsrp-Vlan3239-1:10.31.239.254"
    },
    "value" : "1.0"
  }, {
    "tags" : {
      "display-name" : "HSRP - Preemption",
      "group-vip" : "10.74.50.254",
      "im.dstype.displaytype" : "boolean",
      "im.identity-tags" : "name",
      "im.name" : "cluster-preemption-enabled",
      "live-config" : "true",
      "name" : "hsrp-Vlan3550-1:10.74.50.254"
    },
    "value" : "1.0"
  }, {
    "tags" : {
      "display-name" : "HSRP - Cluster State",
      "group-vip" : "10.31.144.254",
      "im.dstype.displaytype" : "state",
      "im.identity-tags" : "name",
      "im.name" : "cluster-state",
      "live-config" : "true",
      "name" : "hsrp-Vlan3144-3:10.31.144.254"
    },
    "value" : "1.0"
  }, {
    "tags" : {
      "display-name" : "HSRP - Cluster State",
      "group-vip" : "10.31.20.254",
      "im.dstype.displaytype" : "state",
      "im.identity-tags" : "name",
      "im.name" : "cluster-state",
      "live-config" : "true",
      "name" : "hsrp-Vlan3020-3:10.31.20.254"
    },
    "value" : "1.0"
  }, {
    "tags" : {
      "display-name" : "HSRP - Cluster State",
      "group-vip" : "10.74.52.254",
      "im.dstype.displaytype" : "state",
      "im.identity-tags" : "name",
      "im.name" : "cluster-state",
      "live-config" : "true",
      "name" : "hsrp-Vlan3552-1:10.74.52.254"
    },
    "value" : "1.0"
  } ]
}
