{
  "command" : "indeni-awslinux-webserver-foobb",
  "metrics" : [ {
    "tags" : {
      "im.dstype" : "gauge",
      "im.metric-type" : "ts",
      "im.name" : "foobb-a",
      "name" : "aba"
    },
    "value" : "6679.0"
  }, {
    "tags" : {
      "im.dstype" : "gauge",
      "im.metric-type" : "ts",
      "im.name" : "foobb-a",
      "name" : "bai"
    },
    "value" : "13424.0"
  }, {
    "tags" : {
      "im.dstype" : "gauge",
      "im.metric-type" : "ts",
      "im.name" : "foobb-a",
      "name" : "bis"
    },
    "value" : "9751.0"
  }, {
    "tags" : {
      "im.dstype" : "gauge",
      "im.metric-type" : "ts",
      "im.name" : "foobb-a",
      "name" : "bit"
    },
    "value" : "27506.0"
  }, {
    "tags" : {
      "im.dstype" : "gauge",
      "im.metric-type" : "ts",
      "im.name" : "foobb-a",
      "name" : "boh"
    },
    "value" : "27213.0"
  }, {
    "tags" : {
      "im.dstype" : "gauge",
      "im.metric-type" : "ts",
      "im.name" : "foobb-a",
      "name" : "caw"
    },
    "value" : "11290.0"
  }, {
    "tags" : {
      "im.dstype" : "gauge",
      "im.metric-type" : "ts",
      "im.name" : "foobb-a",
      "name" : "cfi"
    },
    "value" : "23894.0"
  }, {
    "tags" : {
      "im.dstype" : "gauge",
      "im.metric-type" : "ts",
      "im.name" : "foobb-a",
      "name" : "cgm"
    },
    "value" : "23627.0"
  }, {
    "tags" : {
      "im.dstype" : "gauge",
      "im.metric-type" : "ts",
      "im.name" : "foobb-a",
      "name" : "cob"
    },
    "value" : "17344.0"
  }, {
    "tags" : {
      "im.dstype" : "gauge",
      "im.metric-type" : "ts",
      "im.name" : "foobb-a",
      "name" : "cps"
    },
    "value" : "8833.0"
  }, {
    "tags" : {
      "im.dstype" : "gauge",
      "im.metric-type" : "ts",
      "im.name" : "foobb-a",
      "name" : "csm"
    },
    "value" : "27252.0"
  }, {
    "tags" : {
      "im.dstype" : "gauge",
      "im.metric-type" : "ts",
      "im.name" : "foobb-a",
      "name" : "cva"
    },
    "value" : "6672.0"
  }, {
    "tags" : {
      "im.dstype" : "gauge",
      "im.metric-type" : "ts",
      "im.name" : "foobb-a",
      "name" : "cwt"
    },
    "value" : "17368.0"
  }, {
    "tags" : {
      "im.dstype" : "gauge",
      "im.metric-type" : "ts",
      "im.name" : "foobb-a",
      "name" : "dcl"
    },
    "value" : "10128.0"
  }, {
    "tags" : {
      "im.dstype" : "gauge",
      "im.metric-type" : "ts",
      "im.name" : "foobb-a",
      "name" : "dig"
    },
    "value" : "31310.0"
  }, {
    "tags" : {
      "im.dstype" : "gauge",
      "im.metric-type" : "ts",
      "im.name" : "foobb-a",
      "name" : "dom"
    },
    "value" : "7636.0"
  }, {
    "tags" : {
      "im.dstype" : "gauge",
      "im.metric-type" : "ts",
      "im.name" : "foobb-a",
      "name" : "don"
    },
    "value" : "5598.0"
  }, {
    "tags" : {
      "im.dstype" : "gauge",
      "im.metric-type" : "ts",
      "im.name" : "foobb-a",
      "name" : "dpw"
    },
    "value" : "20310.0"
  }, {
    "tags" : {
      "im.dstype" : "gauge",
      "im.metric-type" : "ts",
      "im.name" : "foobb-a",
      "name" : "eat"
    },
    "value" : "18061.0"
  }, {
    "tags" : {
      "im.dstype" : "gauge",
      "im.metric-type" : "ts",
      "im.name" : "foobb-a",
      "name" : "eau"
    },
    "value" : "11694.0"
  }, {
    "tags" : {
      "im.dstype" : "gauge",
      "im.metric-type" : "ts",
      "im.name" : "foobb-a",
      "name" : "eda"
    },
    "value" : "22272.0"
  }, {
    "tags" : {
      "im.dstype" : "gauge",
      "im.metric-type" : "ts",
      "im.name" : "foobb-a",
      "name" : "ehf"
    },
    "value" : "429.0"
  }, {
    "tags" : {
      "im.dstype" : "gauge",
      "im.metric-type" : "ts",
      "im.name" : "foobb-a",
      "name" : "ely"
    },
    "value" : "17676.0"
  }, {
    "tags" : {
      "im.dstype" : "gauge",
      "im.metric-type" : "ts",
      "im.name" : "foobb-a",
      "name" : "ers"
    },
    "value" : "10768.0"
  }, {
    "tags" : {
      "im.dstype" : "gauge",
      "im.metric-type" : "ts",
      "im.name" : "foobb-a",
      "name" : "eth"
    },
    "value" : "24271.0"
  }, {
    "tags" : {
      "im.dstype" : "gauge",
      "im.metric-type" : "ts",
      "im.name" : "foobb-a",
      "name" : "for"
    },
    "value" : "12558.0"
  }, {
    "tags" : {
      "im.dstype" : "gauge",
      "im.metric-type" : "ts",
      "im.name" : "foobb-a",
      "name" : "fry"
    },
    "value" : "30635.0"
  }, {
    "tags" : {
      "im.dstype" : "gauge",
      "im.metric-type" : "ts",
      "im.name" : "foobb-a",
      "name" : "fsk"
    },
    "value" : "25937.0"
  }, {
    "tags" : {
      "im.dstype" : "gauge",
      "im.metric-type" : "ts",
      "im.name" : "foobb-a",
      "name" : "ghq"
    },
    "value" : "26740.0"
  }, {
    "tags" : {
      "im.dstype" : "gauge",
      "im.metric-type" : "ts",
      "im.name" : "foobb-a",
      "name" : "gpo"
    },
    "value" : "27334.0"
  }, {
    "tags" : {
      "im.dstype" : "gauge",
      "im.metric-type" : "ts",
      "im.name" : "foobb-a",
      "name" : "gpu"
    },
    "value" : "22252.0"
  }, {
    "tags" : {
      "im.dstype" : "gauge",
      "im.metric-type" : "ts",
      "im.name" : "foobb-a",
      "name" : "had"
    },
    "value" : "28926.0"
  }, {
    "tags" : {
      "im.dstype" : "gauge",
      "im.metric-type" : "ts",
      "im.name" : "foobb-a",
      "name" : "ham"
    },
    "value" : "16315.0"
  }, {
    "tags" : {
      "im.dstype" : "gauge",
      "im.metric-type" : "ts",
      "im.name" : "foobb-a",
      "name" : "hus"
    },
    "value" : "13470.0"
  }, {
    "tags" : {
      "im.dstype" : "gauge",
      "im.metric-type" : "ts",
      "im.name" : "foobb-a",
      "name" : "hut"
    },
    "value" : "305.0"
  }, {
    "tags" : {
      "im.dstype" : "gauge",
      "im.metric-type" : "ts",
      "im.name" : "foobb-a",
      "name" : "idb"
    },
    "value" : "28835.0"
  }, {
    "tags" : {
      "im.dstype" : "gauge",
      "im.metric-type" : "ts",
      "im.name" : "foobb-a",
      "name" : "ira"
    },
    "value" : "32169.0"
  }, {
    "tags" : {
      "im.dstype" : "gauge",
      "im.metric-type" : "ts",
      "im.name" : "foobb-a",
      "name" : "jct"
    },
    "value" : "28073.0"
  }, {
    "tags" : {
      "im.dstype" : "gauge",
      "im.metric-type" : "ts",
      "im.name" : "foobb-a",
      "name" : "ker"
    },
    "value" : "13458.0"
  }, {
    "tags" : {
      "im.dstype" : "gauge",
      "im.metric-type" : "ts",
      "im.name" : "foobb-a",
      "name" : "kif"
    },
    "value" : "3742.0"
  }, {
    "tags" : {
      "im.dstype" : "gauge",
      "im.metric-type" : "ts",
      "im.name" : "foobb-a",
      "name" : "lam"
    },
    "value" : "23532.0"
  }, {
    "tags" : {
      "im.dstype" : "gauge",
      "im.metric-type" : "ts",
      "im.name" : "foobb-a",
      "name" : "lan"
    },
    "value" : "1752.0"
  }, {
    "tags" : {
      "im.dstype" : "gauge",
      "im.metric-type" : "ts",
      "im.name" : "foobb-a",
      "name" : "lat"
    },
    "value" : "30155.0"
  }, {
    "tags" : {
      "im.dstype" : "gauge",
      "im.metric-type" : "ts",
      "im.name" : "foobb-a",
      "name" : "lei"
    },
    "value" : "24632.0"
  }, {
    "tags" : {
      "im.dstype" : "gauge",
      "im.metric-type" : "ts",
      "im.name" : "foobb-a",
      "name" : "lev"
    },
    "value" : "22299.0"
  }, {
    "tags" : {
      "im.dstype" : "gauge",
      "im.metric-type" : "ts",
      "im.name" : "foobb-a",
      "name" : "lhd"
    },
    "value" : "7607.0"
  }, {
    "tags" : {
      "im.dstype" : "gauge",
      "im.metric-type" : "ts",
      "im.name" : "foobb-a",
      "name" : "lit"
    },
    "value" : "9026.0"
  }, {
    "tags" : {
      "im.dstype" : "gauge",
      "im.metric-type" : "ts",
      "im.name" : "foobb-a",
      "name" : "lsi"
    },
    "value" : "8492.0"
  }, {
    "tags" : {
      "im.dstype" : "gauge",
      "im.metric-type" : "ts",
      "im.name" : "foobb-a",
      "name" : "mel"
    },
    "value" : "27861.0"
  }, {
    "tags" : {
      "im.dstype" : "gauge",
      "im.metric-type" : "ts",
      "im.name" : "foobb-a",
      "name" : "mev"
    },
    "value" : "25231.0"
  }, {
    "tags" : {
      "im.dstype" : "gauge",
      "im.metric-type" : "ts",
      "im.name" : "foobb-a",
      "name" : "mfh"
    },
    "value" : "30563.0"
  }, {
    "tags" : {
      "im.dstype" : "gauge",
      "im.metric-type" : "ts",
      "im.name" : "foobb-a",
      "name" : "mi5"
    },
    "value" : "22357.0"
  }, {
    "tags" : {
      "im.dstype" : "gauge",
      "im.metric-type" : "ts",
      "im.name" : "foobb-a",
      "name" : "mig"
    },
    "value" : "9364.0"
  }, {
    "tags" : {
      "im.dstype" : "gauge",
      "im.metric-type" : "ts",
      "im.name" : "foobb-a",
      "name" : "mir"
    },
    "value" : "12741.0"
  }, {
    "tags" : {
      "im.dstype" : "gauge",
      "im.metric-type" : "ts",
      "im.name" : "foobb-a",
      "name" : "mog"
    },
    "value" : "18451.0"
  }, {
    "tags" : {
      "im.dstype" : "gauge",
      "im.metric-type" : "ts",
      "im.name" : "foobb-a",
      "name" : "mra"
    },
    "value" : "18926.0"
  }, {
    "tags" : {
      "im.dstype" : "gauge",
      "im.metric-type" : "ts",
      "im.name" : "foobb-a",
      "name" : "mzi"
    },
    "value" : "24578.0"
  }, {
    "tags" : {
      "im.dstype" : "gauge",
      "im.metric-type" : "ts",
      "im.name" : "foobb-a",
      "name" : "nas"
    },
    "value" : "8912.0"
  }, {
    "tags" : {
      "im.dstype" : "gauge",
      "im.metric-type" : "ts",
      "im.name" : "foobb-a",
      "name" : "nek"
    },
    "value" : "24230.0"
  }, {
    "tags" : {
      "im.dstype" : "gauge",
      "im.metric-type" : "ts",
      "im.name" : "foobb-a",
      "name" : "nsw"
    },
    "value" : "2482.0"
  }, {
    "tags" : {
      "im.dstype" : "gauge",
      "im.metric-type" : "ts",
      "im.name" : "foobb-a",
      "name" : "off"
    },
    "value" : "19518.0"
  }, {
    "tags" : {
      "im.dstype" : "gauge",
      "im.metric-type" : "ts",
      "im.name" : "foobb-a",
      "name" : "olg"
    },
    "value" : "4390.0"
  }, {
    "tags" : {
      "im.dstype" : "gauge",
      "im.metric-type" : "ts",
      "im.name" : "foobb-a",
      "name" : "oof"
    },
    "value" : "30189.0"
  }, {
    "tags" : {
      "im.dstype" : "gauge",
      "im.metric-type" : "ts",
      "im.name" : "foobb-a",
      "name" : "orb"
    },
    "value" : "29492.0"
  }, {
    "tags" : {
      "im.dstype" : "gauge",
      "im.metric-type" : "ts",
      "im.name" : "foobb-a",
      "name" : "plr"
    },
    "value" : "3347.0"
  }, {
    "tags" : {
      "im.dstype" : "gauge",
      "im.metric-type" : "ts",
      "im.name" : "foobb-a",
      "name" : "plu"
    },
    "value" : "31895.0"
  }, {
    "tags" : {
      "im.dstype" : "gauge",
      "im.metric-type" : "ts",
      "im.name" : "foobb-a",
      "name" : "pos"
    },
    "value" : "26733.0"
  }, {
    "tags" : {
      "im.dstype" : "gauge",
      "im.metric-type" : "ts",
      "im.name" : "foobb-a",
      "name" : "pps"
    },
    "value" : "32225.0"
  }, {
    "tags" : {
      "im.dstype" : "gauge",
      "im.metric-type" : "ts",
      "im.name" : "foobb-a",
      "name" : "pto"
    },
    "value" : "19062.0"
  }, {
    "tags" : {
      "im.dstype" : "gauge",
      "im.metric-type" : "ts",
      "im.name" : "foobb-a",
      "name" : "qty"
    },
    "value" : "18754.0"
  }, {
    "tags" : {
      "im.dstype" : "gauge",
      "im.metric-type" : "ts",
      "im.name" : "foobb-a",
      "name" : "rip"
    },
    "value" : "79.0"
  }, {
    "tags" : {
      "im.dstype" : "gauge",
      "im.metric-type" : "ts",
      "im.name" : "foobb-a",
      "name" : "rot"
    },
    "value" : "13726.0"
  }, {
    "tags" : {
      "im.dstype" : "gauge",
      "im.metric-type" : "ts",
      "im.name" : "foobb-a",
      "name" : "sea"
    },
    "value" : "6692.0"
  }, {
    "tags" : {
      "im.dstype" : "gauge",
      "im.metric-type" : "ts",
      "im.name" : "foobb-a",
      "name" : "sgt"
    },
    "value" : "24572.0"
  }, {
    "tags" : {
      "im.dstype" : "gauge",
      "im.metric-type" : "ts",
      "im.name" : "foobb-a",
      "name" : "sin"
    },
    "value" : "7790.0"
  }, {
    "tags" : {
      "im.dstype" : "gauge",
      "im.metric-type" : "ts",
      "im.name" : "foobb-a",
      "name" : "sip"
    },
    "value" : "12103.0"
  }, {
    "tags" : {
      "im.dstype" : "gauge",
      "im.metric-type" : "ts",
      "im.name" : "foobb-a",
      "name" : "sqq"
    },
    "value" : "3873.0"
  }, {
    "tags" : {
      "im.dstype" : "gauge",
      "im.metric-type" : "ts",
      "im.name" : "foobb-a",
      "name" : "stg"
    },
    "value" : "26503.0"
  }, {
    "tags" : {
      "im.dstype" : "gauge",
      "im.metric-type" : "ts",
      "im.name" : "foobb-a",
      "name" : "sym"
    },
    "value" : "31483.0"
  }, {
    "tags" : {
      "im.dstype" : "gauge",
      "im.metric-type" : "ts",
      "im.name" : "foobb-a",
      "name" : "tad"
    },
    "value" : "31746.0"
  }, {
    "tags" : {
      "im.dstype" : "gauge",
      "im.metric-type" : "ts",
      "im.name" : "foobb-a",
      "name" : "tas"
    },
    "value" : "13040.0"
  }, {
    "tags" : {
      "im.dstype" : "gauge",
      "im.metric-type" : "ts",
      "im.name" : "foobb-a",
      "name" : "ted"
    },
    "value" : "27886.0"
  }, {
    "tags" : {
      "im.dstype" : "gauge",
      "im.metric-type" : "ts",
      "im.name" : "foobb-a",
      "name" : "tie"
    },
    "value" : "18919.0"
  }, {
    "tags" : {
      "im.dstype" : "gauge",
      "im.metric-type" : "ts",
      "im.name" : "foobb-a",
      "name" : "too"
    },
    "value" : "18608.0"
  }, {
    "tags" : {
      "im.dstype" : "gauge",
      "im.metric-type" : "ts",
      "im.name" : "foobb-a",
      "name" : "tpr"
    },
    "value" : "4694.0"
  }, {
    "tags" : {
      "im.dstype" : "gauge",
      "im.metric-type" : "ts",
      "im.name" : "foobb-a",
      "name" : "try"
    },
    "value" : "24591.0"
  }, {
    "tags" : {
      "im.dstype" : "gauge",
      "im.metric-type" : "ts",
      "im.name" : "foobb-a",
      "name" : "tsh"
    },
    "value" : "21671.0"
  }, {
    "tags" : {
      "im.dstype" : "gauge",
      "im.metric-type" : "ts",
      "im.name" : "foobb-a",
      "name" : "twp"
    },
    "value" : "22119.0"
  }, {
    "tags" : {
      "im.dstype" : "gauge",
      "im.metric-type" : "ts",
      "im.name" : "foobb-a",
      "name" : "tyr"
    },
    "value" : "2687.0"
  }, {
    "tags" : {
      "im.dstype" : "gauge",
      "im.metric-type" : "ts",
      "im.name" : "foobb-a",
      "name" : "uar"
    },
    "value" : "11524.0"
  }, {
    "tags" : {
      "im.dstype" : "gauge",
      "im.metric-type" : "ts",
      "im.name" : "foobb-a",
      "name" : "uni"
    },
    "value" : "29149.0"
  }, {
    "tags" : {
      "im.dstype" : "gauge",
      "im.metric-type" : "ts",
      "im.name" : "foobb-a",
      "name" : "vzi"
    },
    "value" : "32006.0"
  }, {
    "tags" : {
      "im.dstype" : "gauge",
      "im.metric-type" : "ts",
      "im.name" : "foobb-a",
      "name" : "who"
    },
    "value" : "19162.0"
  }, {
    "tags" : {
      "im.dstype" : "gauge",
      "im.metric-type" : "ts",
      "im.name" : "foobb-a",
      "name" : "wot"
    },
    "value" : "5649.0"
  }, {
    "tags" : {
      "im.dstype" : "gauge",
      "im.metric-type" : "ts",
      "im.name" : "foobb-a",
      "name" : "wsw"
    },
    "value" : "7251.0"
  }, {
    "tags" : {
      "im.dstype" : "gauge",
      "im.metric-type" : "ts",
      "im.name" : "foobb-a",
      "name" : "yarr"
    },
    "value" : "5718.0"
  }, {
    "tags" : {
      "im.dstype" : "gauge",
      "im.metric-type" : "ts",
      "im.name" : "foobb-a",
      "name" : "yea"
    },
    "value" : "9778.0"
  }, {
    "tags" : {
      "im.dstype" : "gauge",
      "im.metric-type" : "ts",
      "im.name" : "foobb-a",
      "name" : "yon"
    },
    "value" : "30879.0"
  }, {
    "tags" : {
      "im.dstype" : "gauge",
      "im.metric-type" : "ts",
      "im.name" : "foobb-a",
      "name" : "zho"
    },
    "value" : "31694.0"
  }, {
    "tags" : {
      "im.dstype" : "gauge",
      "im.metric-type" : "ts",
      "im.name" : "foobb-b",
      "name" : "aba"
    },
    "value" : "6679.0"
  }, {
    "tags" : {
      "im.dstype" : "gauge",
      "im.metric-type" : "ts",
      "im.name" : "foobb-b",
      "name" : "bai"
    },
    "value" : "13424.0"
  }, {
    "tags" : {
      "im.dstype" : "gauge",
      "im.metric-type" : "ts",
      "im.name" : "foobb-b",
      "name" : "bis"
    },
    "value" : "9751.0"
  }, {
    "tags" : {
      "im.dstype" : "gauge",
      "im.metric-type" : "ts",
      "im.name" : "foobb-b",
      "name" : "bit"
    },
    "value" : "27506.0"
  }, {
    "tags" : {
      "im.dstype" : "gauge",
      "im.metric-type" : "ts",
      "im.name" : "foobb-b",
      "name" : "boh"
    },
    "value" : "27213.0"
  }, {
    "tags" : {
      "im.dstype" : "gauge",
      "im.metric-type" : "ts",
      "im.name" : "foobb-b",
      "name" : "caw"
    },
    "value" : "11290.0"
  }, {
    "tags" : {
      "im.dstype" : "gauge",
      "im.metric-type" : "ts",
      "im.name" : "foobb-b",
      "name" : "cfi"
    },
    "value" : "23894.0"
  }, {
    "tags" : {
      "im.dstype" : "gauge",
      "im.metric-type" : "ts",
      "im.name" : "foobb-b",
      "name" : "cgm"
    },
    "value" : "23627.0"
  }, {
    "tags" : {
      "im.dstype" : "gauge",
      "im.metric-type" : "ts",
      "im.name" : "foobb-b",
      "name" : "cob"
    },
    "value" : "17344.0"
  }, {
    "tags" : {
      "im.dstype" : "gauge",
      "im.metric-type" : "ts",
      "im.name" : "foobb-b",
      "name" : "cps"
    },
    "value" : "8833.0"
  }, {
    "tags" : {
      "im.dstype" : "gauge",
      "im.metric-type" : "ts",
      "im.name" : "foobb-b",
      "name" : "csm"
    },
    "value" : "27252.0"
  }, {
    "tags" : {
      "im.dstype" : "gauge",
      "im.metric-type" : "ts",
      "im.name" : "foobb-b",
      "name" : "cva"
    },
    "value" : "6672.0"
  }, {
    "tags" : {
      "im.dstype" : "gauge",
      "im.metric-type" : "ts",
      "im.name" : "foobb-b",
      "name" : "cwt"
    },
    "value" : "17368.0"
  }, {
    "tags" : {
      "im.dstype" : "gauge",
      "im.metric-type" : "ts",
      "im.name" : "foobb-b",
      "name" : "dcl"
    },
    "value" : "10128.0"
  }, {
    "tags" : {
      "im.dstype" : "gauge",
      "im.metric-type" : "ts",
      "im.name" : "foobb-b",
      "name" : "dig"
    },
    "value" : "31310.0"
  }, {
    "tags" : {
      "im.dstype" : "gauge",
      "im.metric-type" : "ts",
      "im.name" : "foobb-b",
      "name" : "dom"
    },
    "value" : "7636.0"
  }, {
    "tags" : {
      "im.dstype" : "gauge",
      "im.metric-type" : "ts",
      "im.name" : "foobb-b",
      "name" : "don"
    },
    "value" : "5598.0"
  }, {
    "tags" : {
      "im.dstype" : "gauge",
      "im.metric-type" : "ts",
      "im.name" : "foobb-b",
      "name" : "dpw"
    },
    "value" : "20310.0"
  }, {
    "tags" : {
      "im.dstype" : "gauge",
      "im.metric-type" : "ts",
      "im.name" : "foobb-b",
      "name" : "eat"
    },
    "value" : "18061.0"
  }, {
    "tags" : {
      "im.dstype" : "gauge",
      "im.metric-type" : "ts",
      "im.name" : "foobb-b",
      "name" : "eau"
    },
    "value" : "11694.0"
  }, {
    "tags" : {
      "im.dstype" : "gauge",
      "im.metric-type" : "ts",
      "im.name" : "foobb-b",
      "name" : "eda"
    },
    "value" : "22272.0"
  }, {
    "tags" : {
      "im.dstype" : "gauge",
      "im.metric-type" : "ts",
      "im.name" : "foobb-b",
      "name" : "ehf"
    },
    "value" : "429.0"
  }, {
    "tags" : {
      "im.dstype" : "gauge",
      "im.metric-type" : "ts",
      "im.name" : "foobb-b",
      "name" : "ely"
    },
    "value" : "17676.0"
  }, {
    "tags" : {
      "im.dstype" : "gauge",
      "im.metric-type" : "ts",
      "im.name" : "foobb-b",
      "name" : "ers"
    },
    "value" : "10768.0"
  }, {
    "tags" : {
      "im.dstype" : "gauge",
      "im.metric-type" : "ts",
      "im.name" : "foobb-b",
      "name" : "eth"
    },
    "value" : "24271.0"
  }, {
    "tags" : {
      "im.dstype" : "gauge",
      "im.metric-type" : "ts",
      "im.name" : "foobb-b",
      "name" : "for"
    },
    "value" : "12558.0"
  }, {
    "tags" : {
      "im.dstype" : "gauge",
      "im.metric-type" : "ts",
      "im.name" : "foobb-b",
      "name" : "fry"
    },
    "value" : "30635.0"
  }, {
    "tags" : {
      "im.dstype" : "gauge",
      "im.metric-type" : "ts",
      "im.name" : "foobb-b",
      "name" : "fsk"
    },
    "value" : "25937.0"
  }, {
    "tags" : {
      "im.dstype" : "gauge",
      "im.metric-type" : "ts",
      "im.name" : "foobb-b",
      "name" : "ghq"
    },
    "value" : "26740.0"
  }, {
    "tags" : {
      "im.dstype" : "gauge",
      "im.metric-type" : "ts",
      "im.name" : "foobb-b",
      "name" : "gpo"
    },
    "value" : "27334.0"
  }, {
    "tags" : {
      "im.dstype" : "gauge",
      "im.metric-type" : "ts",
      "im.name" : "foobb-b",
      "name" : "gpu"
    },
    "value" : "22252.0"
  }, {
    "tags" : {
      "im.dstype" : "gauge",
      "im.metric-type" : "ts",
      "im.name" : "foobb-b",
      "name" : "had"
    },
    "value" : "28926.0"
  }, {
    "tags" : {
      "im.dstype" : "gauge",
      "im.metric-type" : "ts",
      "im.name" : "foobb-b",
      "name" : "ham"
    },
    "value" : "16315.0"
  }, {
    "tags" : {
      "im.dstype" : "gauge",
      "im.metric-type" : "ts",
      "im.name" : "foobb-b",
      "name" : "hus"
    },
    "value" : "13470.0"
  }, {
    "tags" : {
      "im.dstype" : "gauge",
      "im.metric-type" : "ts",
      "im.name" : "foobb-b",
      "name" : "hut"
    },
    "value" : "305.0"
  }, {
    "tags" : {
      "im.dstype" : "gauge",
      "im.metric-type" : "ts",
      "im.name" : "foobb-b",
      "name" : "idb"
    },
    "value" : "28835.0"
  }, {
    "tags" : {
      "im.dstype" : "gauge",
      "im.metric-type" : "ts",
      "im.name" : "foobb-b",
      "name" : "ira"
    },
    "value" : "32169.0"
  }, {
    "tags" : {
      "im.dstype" : "gauge",
      "im.metric-type" : "ts",
      "im.name" : "foobb-b",
      "name" : "jct"
    },
    "value" : "28073.0"
  }, {
    "tags" : {
      "im.dstype" : "gauge",
      "im.metric-type" : "ts",
      "im.name" : "foobb-b",
      "name" : "ker"
    },
    "value" : "13458.0"
  }, {
    "tags" : {
      "im.dstype" : "gauge",
      "im.metric-type" : "ts",
      "im.name" : "foobb-b",
      "name" : "kif"
    },
    "value" : "3742.0"
  }, {
    "tags" : {
      "im.dstype" : "gauge",
      "im.metric-type" : "ts",
      "im.name" : "foobb-b",
      "name" : "lam"
    },
    "value" : "23532.0"
  }, {
    "tags" : {
      "im.dstype" : "gauge",
      "im.metric-type" : "ts",
      "im.name" : "foobb-b",
      "name" : "lan"
    },
    "value" : "1752.0"
  }, {
    "tags" : {
      "im.dstype" : "gauge",
      "im.metric-type" : "ts",
      "im.name" : "foobb-b",
      "name" : "lat"
    },
    "value" : "30155.0"
  }, {
    "tags" : {
      "im.dstype" : "gauge",
      "im.metric-type" : "ts",
      "im.name" : "foobb-b",
      "name" : "lei"
    },
    "value" : "24632.0"
  }, {
    "tags" : {
      "im.dstype" : "gauge",
      "im.metric-type" : "ts",
      "im.name" : "foobb-b",
      "name" : "lev"
    },
    "value" : "22299.0"
  }, {
    "tags" : {
      "im.dstype" : "gauge",
      "im.metric-type" : "ts",
      "im.name" : "foobb-b",
      "name" : "lhd"
    },
    "value" : "7607.0"
  }, {
    "tags" : {
      "im.dstype" : "gauge",
      "im.metric-type" : "ts",
      "im.name" : "foobb-b",
      "name" : "lit"
    },
    "value" : "9026.0"
  }, {
    "tags" : {
      "im.dstype" : "gauge",
      "im.metric-type" : "ts",
      "im.name" : "foobb-b",
      "name" : "lsi"
    },
    "value" : "8492.0"
  }, {
    "tags" : {
      "im.dstype" : "gauge",
      "im.metric-type" : "ts",
      "im.name" : "foobb-b",
      "name" : "mel"
    },
    "value" : "27861.0"
  }, {
    "tags" : {
      "im.dstype" : "gauge",
      "im.metric-type" : "ts",
      "im.name" : "foobb-b",
      "name" : "mev"
    },
    "value" : "25231.0"
  }, {
    "tags" : {
      "im.dstype" : "gauge",
      "im.metric-type" : "ts",
      "im.name" : "foobb-b",
      "name" : "mfh"
    },
    "value" : "30563.0"
  }, {
    "tags" : {
      "im.dstype" : "gauge",
      "im.metric-type" : "ts",
      "im.name" : "foobb-b",
      "name" : "mi5"
    },
    "value" : "22357.0"
  }, {
    "tags" : {
      "im.dstype" : "gauge",
      "im.metric-type" : "ts",
      "im.name" : "foobb-b",
      "name" : "mig"
    },
    "value" : "9364.0"
  }, {
    "tags" : {
      "im.dstype" : "gauge",
      "im.metric-type" : "ts",
      "im.name" : "foobb-b",
      "name" : "mir"
    },
    "value" : "12741.0"
  }, {
    "tags" : {
      "im.dstype" : "gauge",
      "im.metric-type" : "ts",
      "im.name" : "foobb-b",
      "name" : "mog"
    },
    "value" : "18451.0"
  }, {
    "tags" : {
      "im.dstype" : "gauge",
      "im.metric-type" : "ts",
      "im.name" : "foobb-b",
      "name" : "mra"
    },
    "value" : "18926.0"
  }, {
    "tags" : {
      "im.dstype" : "gauge",
      "im.metric-type" : "ts",
      "im.name" : "foobb-b",
      "name" : "mzi"
    },
    "value" : "24578.0"
  }, {
    "tags" : {
      "im.dstype" : "gauge",
      "im.metric-type" : "ts",
      "im.name" : "foobb-b",
      "name" : "nas"
    },
    "value" : "8912.0"
  }, {
    "tags" : {
      "im.dstype" : "gauge",
      "im.metric-type" : "ts",
      "im.name" : "foobb-b",
      "name" : "nek"
    },
    "value" : "24230.0"
  }, {
    "tags" : {
      "im.dstype" : "gauge",
      "im.metric-type" : "ts",
      "im.name" : "foobb-b",
      "name" : "nsw"
    },
    "value" : "2482.0"
  }, {
    "tags" : {
      "im.dstype" : "gauge",
      "im.metric-type" : "ts",
      "im.name" : "foobb-b",
      "name" : "off"
    },
    "value" : "19518.0"
  }, {
    "tags" : {
      "im.dstype" : "gauge",
      "im.metric-type" : "ts",
      "im.name" : "foobb-b",
      "name" : "olg"
    },
    "value" : "4390.0"
  }, {
    "tags" : {
      "im.dstype" : "gauge",
      "im.metric-type" : "ts",
      "im.name" : "foobb-b",
      "name" : "oof"
    },
    "value" : "30189.0"
  }, {
    "tags" : {
      "im.dstype" : "gauge",
      "im.metric-type" : "ts",
      "im.name" : "foobb-b",
      "name" : "orb"
    },
    "value" : "29492.0"
  }, {
    "tags" : {
      "im.dstype" : "gauge",
      "im.metric-type" : "ts",
      "im.name" : "foobb-b",
      "name" : "plr"
    },
    "value" : "3347.0"
  }, {
    "tags" : {
      "im.dstype" : "gauge",
      "im.metric-type" : "ts",
      "im.name" : "foobb-b",
      "name" : "plu"
    },
    "value" : "31895.0"
  }, {
    "tags" : {
      "im.dstype" : "gauge",
      "im.metric-type" : "ts",
      "im.name" : "foobb-b",
      "name" : "pos"
    },
    "value" : "26733.0"
  }, {
    "tags" : {
      "im.dstype" : "gauge",
      "im.metric-type" : "ts",
      "im.name" : "foobb-b",
      "name" : "pps"
    },
    "value" : "32225.0"
  }, {
    "tags" : {
      "im.dstype" : "gauge",
      "im.metric-type" : "ts",
      "im.name" : "foobb-b",
      "name" : "pto"
    },
    "value" : "19062.0"
  }, {
    "tags" : {
      "im.dstype" : "gauge",
      "im.metric-type" : "ts",
      "im.name" : "foobb-b",
      "name" : "qty"
    },
    "value" : "18754.0"
  }, {
    "tags" : {
      "im.dstype" : "gauge",
      "im.metric-type" : "ts",
      "im.name" : "foobb-b",
      "name" : "rip"
    },
    "value" : "79.0"
  }, {
    "tags" : {
      "im.dstype" : "gauge",
      "im.metric-type" : "ts",
      "im.name" : "foobb-b",
      "name" : "rot"
    },
    "value" : "13726.0"
  }, {
    "tags" : {
      "im.dstype" : "gauge",
      "im.metric-type" : "ts",
      "im.name" : "foobb-b",
      "name" : "sea"
    },
    "value" : "6692.0"
  }, {
    "tags" : {
      "im.dstype" : "gauge",
      "im.metric-type" : "ts",
      "im.name" : "foobb-b",
      "name" : "sgt"
    },
    "value" : "24572.0"
  }, {
    "tags" : {
      "im.dstype" : "gauge",
      "im.metric-type" : "ts",
      "im.name" : "foobb-b",
      "name" : "sin"
    },
    "value" : "7790.0"
  }, {
    "tags" : {
      "im.dstype" : "gauge",
      "im.metric-type" : "ts",
      "im.name" : "foobb-b",
      "name" : "sip"
    },
    "value" : "12103.0"
  }, {
    "tags" : {
      "im.dstype" : "gauge",
      "im.metric-type" : "ts",
      "im.name" : "foobb-b",
      "name" : "sqq"
    },
    "value" : "3873.0"
  }, {
    "tags" : {
      "im.dstype" : "gauge",
      "im.metric-type" : "ts",
      "im.name" : "foobb-b",
      "name" : "stg"
    },
    "value" : "26503.0"
  }, {
    "tags" : {
      "im.dstype" : "gauge",
      "im.metric-type" : "ts",
      "im.name" : "foobb-b",
      "name" : "sym"
    },
    "value" : "31483.0"
  }, {
    "tags" : {
      "im.dstype" : "gauge",
      "im.metric-type" : "ts",
      "im.name" : "foobb-b",
      "name" : "tad"
    },
    "value" : "31746.0"
  }, {
    "tags" : {
      "im.dstype" : "gauge",
      "im.metric-type" : "ts",
      "im.name" : "foobb-b",
      "name" : "tas"
    },
    "value" : "13040.0"
  }, {
    "tags" : {
      "im.dstype" : "gauge",
      "im.metric-type" : "ts",
      "im.name" : "foobb-b",
      "name" : "ted"
    },
    "value" : "27886.0"
  }, {
    "tags" : {
      "im.dstype" : "gauge",
      "im.metric-type" : "ts",
      "im.name" : "foobb-b",
      "name" : "tie"
    },
    "value" : "18919.0"
  }, {
    "tags" : {
      "im.dstype" : "gauge",
      "im.metric-type" : "ts",
      "im.name" : "foobb-b",
      "name" : "too"
    },
    "value" : "18608.0"
  }, {
    "tags" : {
      "im.dstype" : "gauge",
      "im.metric-type" : "ts",
      "im.name" : "foobb-b",
      "name" : "tpr"
    },
    "value" : "4694.0"
  }, {
    "tags" : {
      "im.dstype" : "gauge",
      "im.metric-type" : "ts",
      "im.name" : "foobb-b",
      "name" : "try"
    },
    "value" : "24591.0"
  }, {
    "tags" : {
      "im.dstype" : "gauge",
      "im.metric-type" : "ts",
      "im.name" : "foobb-b",
      "name" : "tsh"
    },
    "value" : "21671.0"
  }, {
    "tags" : {
      "im.dstype" : "gauge",
      "im.metric-type" : "ts",
      "im.name" : "foobb-b",
      "name" : "twp"
    },
    "value" : "22119.0"
  }, {
    "tags" : {
      "im.dstype" : "gauge",
      "im.metric-type" : "ts",
      "im.name" : "foobb-b",
      "name" : "tyr"
    },
    "value" : "2687.0"
  }, {
    "tags" : {
      "im.dstype" : "gauge",
      "im.metric-type" : "ts",
      "im.name" : "foobb-b",
      "name" : "uar"
    },
    "value" : "11524.0"
  }, {
    "tags" : {
      "im.dstype" : "gauge",
      "im.metric-type" : "ts",
      "im.name" : "foobb-b",
      "name" : "uni"
    },
    "value" : "29149.0"
  }, {
    "tags" : {
      "im.dstype" : "gauge",
      "im.metric-type" : "ts",
      "im.name" : "foobb-b",
      "name" : "vzi"
    },
    "value" : "32006.0"
  }, {
    "tags" : {
      "im.dstype" : "gauge",
      "im.metric-type" : "ts",
      "im.name" : "foobb-b",
      "name" : "who"
    },
    "value" : "19162.0"
  }, {
    "tags" : {
      "im.dstype" : "gauge",
      "im.metric-type" : "ts",
      "im.name" : "foobb-b",
      "name" : "wot"
    },
    "value" : "5649.0"
  }, {
    "tags" : {
      "im.dstype" : "gauge",
      "im.metric-type" : "ts",
      "im.name" : "foobb-b",
      "name" : "wsw"
    },
    "value" : "7251.0"
  }, {
    "tags" : {
      "im.dstype" : "gauge",
      "im.metric-type" : "ts",
      "im.name" : "foobb-b",
      "name" : "yarr"
    },
    "value" : "5718.0"
  }, {
    "tags" : {
      "im.dstype" : "gauge",
      "im.metric-type" : "ts",
      "im.name" : "foobb-b",
      "name" : "yea"
    },
    "value" : "9778.0"
  }, {
    "tags" : {
      "im.dstype" : "gauge",
      "im.metric-type" : "ts",
      "im.name" : "foobb-b",
      "name" : "yon"
    },
    "value" : "30879.0"
  }, {
    "tags" : {
      "im.dstype" : "gauge",
      "im.metric-type" : "ts",
      "im.name" : "foobb-b",
      "name" : "zho"
    },
    "value" : "31694.0"
  }, {
    "tags" : {
      "im.dstype" : "gauge",
      "im.metric-type" : "ts",
      "im.name" : "foobb-c",
      "name" : "aba"
    },
    "value" : "6679.0"
  }, {
    "tags" : {
      "im.dstype" : "gauge",
      "im.metric-type" : "ts",
      "im.name" : "foobb-c",
      "name" : "bai"
    },
    "value" : "13424.0"
  }, {
    "tags" : {
      "im.dstype" : "gauge",
      "im.metric-type" : "ts",
      "im.name" : "foobb-c",
      "name" : "bis"
    },
    "value" : "9751.0"
  }, {
    "tags" : {
      "im.dstype" : "gauge",
      "im.metric-type" : "ts",
      "im.name" : "foobb-c",
      "name" : "bit"
    },
    "value" : "27506.0"
  }, {
    "tags" : {
      "im.dstype" : "gauge",
      "im.metric-type" : "ts",
      "im.name" : "foobb-c",
      "name" : "boh"
    },
    "value" : "27213.0"
  }, {
    "tags" : {
      "im.dstype" : "gauge",
      "im.metric-type" : "ts",
      "im.name" : "foobb-c",
      "name" : "caw"
    },
    "value" : "11290.0"
  }, {
    "tags" : {
      "im.dstype" : "gauge",
      "im.metric-type" : "ts",
      "im.name" : "foobb-c",
      "name" : "cfi"
    },
    "value" : "23894.0"
  }, {
    "tags" : {
      "im.dstype" : "gauge",
      "im.metric-type" : "ts",
      "im.name" : "foobb-c",
      "name" : "cgm"
    },
    "value" : "23627.0"
  }, {
    "tags" : {
      "im.dstype" : "gauge",
      "im.metric-type" : "ts",
      "im.name" : "foobb-c",
      "name" : "cob"
    },
    "value" : "17344.0"
  }, {
    "tags" : {
      "im.dstype" : "gauge",
      "im.metric-type" : "ts",
      "im.name" : "foobb-c",
      "name" : "cps"
    },
    "value" : "8833.0"
  }, {
    "tags" : {
      "im.dstype" : "gauge",
      "im.metric-type" : "ts",
      "im.name" : "foobb-c",
      "name" : "csm"
    },
    "value" : "27252.0"
  }, {
    "tags" : {
      "im.dstype" : "gauge",
      "im.metric-type" : "ts",
      "im.name" : "foobb-c",
      "name" : "cva"
    },
    "value" : "6672.0"
  }, {
    "tags" : {
      "im.dstype" : "gauge",
      "im.metric-type" : "ts",
      "im.name" : "foobb-c",
      "name" : "cwt"
    },
    "value" : "17368.0"
  }, {
    "tags" : {
      "im.dstype" : "gauge",
      "im.metric-type" : "ts",
      "im.name" : "foobb-c",
      "name" : "dcl"
    },
    "value" : "10128.0"
  }, {
    "tags" : {
      "im.dstype" : "gauge",
      "im.metric-type" : "ts",
      "im.name" : "foobb-c",
      "name" : "dig"
    },
    "value" : "31310.0"
  }, {
    "tags" : {
      "im.dstype" : "gauge",
      "im.metric-type" : "ts",
      "im.name" : "foobb-c",
      "name" : "dom"
    },
    "value" : "7636.0"
  }, {
    "tags" : {
      "im.dstype" : "gauge",
      "im.metric-type" : "ts",
      "im.name" : "foobb-c",
      "name" : "don"
    },
    "value" : "5598.0"
  }, {
    "tags" : {
      "im.dstype" : "gauge",
      "im.metric-type" : "ts",
      "im.name" : "foobb-c",
      "name" : "dpw"
    },
    "value" : "20310.0"
  }, {
    "tags" : {
      "im.dstype" : "gauge",
      "im.metric-type" : "ts",
      "im.name" : "foobb-c",
      "name" : "eat"
    },
    "value" : "18061.0"
  }, {
    "tags" : {
      "im.dstype" : "gauge",
      "im.metric-type" : "ts",
      "im.name" : "foobb-c",
      "name" : "eau"
    },
    "value" : "11694.0"
  }, {
    "tags" : {
      "im.dstype" : "gauge",
      "im.metric-type" : "ts",
      "im.name" : "foobb-c",
      "name" : "eda"
    },
    "value" : "22272.0"
  }, {
    "tags" : {
      "im.dstype" : "gauge",
      "im.metric-type" : "ts",
      "im.name" : "foobb-c",
      "name" : "ehf"
    },
    "value" : "429.0"
  }, {
    "tags" : {
      "im.dstype" : "gauge",
      "im.metric-type" : "ts",
      "im.name" : "foobb-c",
      "name" : "ely"
    },
    "value" : "17676.0"
  }, {
    "tags" : {
      "im.dstype" : "gauge",
      "im.metric-type" : "ts",
      "im.name" : "foobb-c",
      "name" : "ers"
    },
    "value" : "10768.0"
  }, {
    "tags" : {
      "im.dstype" : "gauge",
      "im.metric-type" : "ts",
      "im.name" : "foobb-c",
      "name" : "eth"
    },
    "value" : "24271.0"
  }, {
    "tags" : {
      "im.dstype" : "gauge",
      "im.metric-type" : "ts",
      "im.name" : "foobb-c",
      "name" : "for"
    },
    "value" : "12558.0"
  }, {
    "tags" : {
      "im.dstype" : "gauge",
      "im.metric-type" : "ts",
      "im.name" : "foobb-c",
      "name" : "fry"
    },
    "value" : "30635.0"
  }, {
    "tags" : {
      "im.dstype" : "gauge",
      "im.metric-type" : "ts",
      "im.name" : "foobb-c",
      "name" : "fsk"
    },
    "value" : "25937.0"
  }, {
    "tags" : {
      "im.dstype" : "gauge",
      "im.metric-type" : "ts",
      "im.name" : "foobb-c",
      "name" : "ghq"
    },
    "value" : "26740.0"
  }, {
    "tags" : {
      "im.dstype" : "gauge",
      "im.metric-type" : "ts",
      "im.name" : "foobb-c",
      "name" : "gpo"
    },
    "value" : "27334.0"
  }, {
    "tags" : {
      "im.dstype" : "gauge",
      "im.metric-type" : "ts",
      "im.name" : "foobb-c",
      "name" : "gpu"
    },
    "value" : "22252.0"
  }, {
    "tags" : {
      "im.dstype" : "gauge",
      "im.metric-type" : "ts",
      "im.name" : "foobb-c",
      "name" : "had"
    },
    "value" : "28926.0"
  }, {
    "tags" : {
      "im.dstype" : "gauge",
      "im.metric-type" : "ts",
      "im.name" : "foobb-c",
      "name" : "ham"
    },
    "value" : "16315.0"
  }, {
    "tags" : {
      "im.dstype" : "gauge",
      "im.metric-type" : "ts",
      "im.name" : "foobb-c",
      "name" : "hus"
    },
    "value" : "13470.0"
  }, {
    "tags" : {
      "im.dstype" : "gauge",
      "im.metric-type" : "ts",
      "im.name" : "foobb-c",
      "name" : "hut"
    },
    "value" : "305.0"
  }, {
    "tags" : {
      "im.dstype" : "gauge",
      "im.metric-type" : "ts",
      "im.name" : "foobb-c",
      "name" : "idb"
    },
    "value" : "28835.0"
  }, {
    "tags" : {
      "im.dstype" : "gauge",
      "im.metric-type" : "ts",
      "im.name" : "foobb-c",
      "name" : "ira"
    },
    "value" : "32169.0"
  }, {
    "tags" : {
      "im.dstype" : "gauge",
      "im.metric-type" : "ts",
      "im.name" : "foobb-c",
      "name" : "jct"
    },
    "value" : "28073.0"
  }, {
    "tags" : {
      "im.dstype" : "gauge",
      "im.metric-type" : "ts",
      "im.name" : "foobb-c",
      "name" : "ker"
    },
    "value" : "13458.0"
  }, {
    "tags" : {
      "im.dstype" : "gauge",
      "im.metric-type" : "ts",
      "im.name" : "foobb-c",
      "name" : "kif"
    },
    "value" : "3742.0"
  }, {
    "tags" : {
      "im.dstype" : "gauge",
      "im.metric-type" : "ts",
      "im.name" : "foobb-c",
      "name" : "lam"
    },
    "value" : "23532.0"
  }, {
    "tags" : {
      "im.dstype" : "gauge",
      "im.metric-type" : "ts",
      "im.name" : "foobb-c",
      "name" : "lan"
    },
    "value" : "1752.0"
  }, {
    "tags" : {
      "im.dstype" : "gauge",
      "im.metric-type" : "ts",
      "im.name" : "foobb-c",
      "name" : "lat"
    },
    "value" : "30155.0"
  }, {
    "tags" : {
      "im.dstype" : "gauge",
      "im.metric-type" : "ts",
      "im.name" : "foobb-c",
      "name" : "lei"
    },
    "value" : "24632.0"
  }, {
    "tags" : {
      "im.dstype" : "gauge",
      "im.metric-type" : "ts",
      "im.name" : "foobb-c",
      "name" : "lev"
    },
    "value" : "22299.0"
  }, {
    "tags" : {
      "im.dstype" : "gauge",
      "im.metric-type" : "ts",
      "im.name" : "foobb-c",
      "name" : "lhd"
    },
    "value" : "7607.0"
  }, {
    "tags" : {
      "im.dstype" : "gauge",
      "im.metric-type" : "ts",
      "im.name" : "foobb-c",
      "name" : "lit"
    },
    "value" : "9026.0"
  }, {
    "tags" : {
      "im.dstype" : "gauge",
      "im.metric-type" : "ts",
      "im.name" : "foobb-c",
      "name" : "lsi"
    },
    "value" : "8492.0"
  }, {
    "tags" : {
      "im.dstype" : "gauge",
      "im.metric-type" : "ts",
      "im.name" : "foobb-c",
      "name" : "mel"
    },
    "value" : "27861.0"
  }, {
    "tags" : {
      "im.dstype" : "gauge",
      "im.metric-type" : "ts",
      "im.name" : "foobb-c",
      "name" : "mev"
    },
    "value" : "25231.0"
  }, {
    "tags" : {
      "im.dstype" : "gauge",
      "im.metric-type" : "ts",
      "im.name" : "foobb-c",
      "name" : "mfh"
    },
    "value" : "30563.0"
  }, {
    "tags" : {
      "im.dstype" : "gauge",
      "im.metric-type" : "ts",
      "im.name" : "foobb-c",
      "name" : "mi5"
    },
    "value" : "22357.0"
  }, {
    "tags" : {
      "im.dstype" : "gauge",
      "im.metric-type" : "ts",
      "im.name" : "foobb-c",
      "name" : "mig"
    },
    "value" : "9364.0"
  }, {
    "tags" : {
      "im.dstype" : "gauge",
      "im.metric-type" : "ts",
      "im.name" : "foobb-c",
      "name" : "mir"
    },
    "value" : "12741.0"
  }, {
    "tags" : {
      "im.dstype" : "gauge",
      "im.metric-type" : "ts",
      "im.name" : "foobb-c",
      "name" : "mog"
    },
    "value" : "18451.0"
  }, {
    "tags" : {
      "im.dstype" : "gauge",
      "im.metric-type" : "ts",
      "im.name" : "foobb-c",
      "name" : "mra"
    },
    "value" : "18926.0"
  }, {
    "tags" : {
      "im.dstype" : "gauge",
      "im.metric-type" : "ts",
      "im.name" : "foobb-c",
      "name" : "mzi"
    },
    "value" : "24578.0"
  }, {
    "tags" : {
      "im.dstype" : "gauge",
      "im.metric-type" : "ts",
      "im.name" : "foobb-c",
      "name" : "nas"
    },
    "value" : "8912.0"
  }, {
    "tags" : {
      "im.dstype" : "gauge",
      "im.metric-type" : "ts",
      "im.name" : "foobb-c",
      "name" : "nek"
    },
    "value" : "24230.0"
  }, {
    "tags" : {
      "im.dstype" : "gauge",
      "im.metric-type" : "ts",
      "im.name" : "foobb-c",
      "name" : "nsw"
    },
    "value" : "2482.0"
  }, {
    "tags" : {
      "im.dstype" : "gauge",
      "im.metric-type" : "ts",
      "im.name" : "foobb-c",
      "name" : "off"
    },
    "value" : "19518.0"
  }, {
    "tags" : {
      "im.dstype" : "gauge",
      "im.metric-type" : "ts",
      "im.name" : "foobb-c",
      "name" : "olg"
    },
    "value" : "4390.0"
  }, {
    "tags" : {
      "im.dstype" : "gauge",
      "im.metric-type" : "ts",
      "im.name" : "foobb-c",
      "name" : "oof"
    },
    "value" : "30189.0"
  }, {
    "tags" : {
      "im.dstype" : "gauge",
      "im.metric-type" : "ts",
      "im.name" : "foobb-c",
      "name" : "orb"
    },
    "value" : "29492.0"
  }, {
    "tags" : {
      "im.dstype" : "gauge",
      "im.metric-type" : "ts",
      "im.name" : "foobb-c",
      "name" : "plr"
    },
    "value" : "3347.0"
  }, {
    "tags" : {
      "im.dstype" : "gauge",
      "im.metric-type" : "ts",
      "im.name" : "foobb-c",
      "name" : "plu"
    },
    "value" : "31895.0"
  }, {
    "tags" : {
      "im.dstype" : "gauge",
      "im.metric-type" : "ts",
      "im.name" : "foobb-c",
      "name" : "pos"
    },
    "value" : "26733.0"
  }, {
    "tags" : {
      "im.dstype" : "gauge",
      "im.metric-type" : "ts",
      "im.name" : "foobb-c",
      "name" : "pps"
    },
    "value" : "32225.0"
  }, {
    "tags" : {
      "im.dstype" : "gauge",
      "im.metric-type" : "ts",
      "im.name" : "foobb-c",
      "name" : "pto"
    },
    "value" : "13213.0"
  }, {
    "tags" : {
      "im.dstype" : "gauge",
      "im.metric-type" : "ts",
      "im.name" : "foobb-c",
      "name" : "qty"
    },
    "value" : "18754.0"
  }, {
    "tags" : {
      "im.dstype" : "gauge",
      "im.metric-type" : "ts",
      "im.name" : "foobb-c",
      "name" : "rip"
    },
    "value" : "79.0"
  }, {
    "tags" : {
      "im.dstype" : "gauge",
      "im.metric-type" : "ts",
      "im.name" : "foobb-c",
      "name" : "rot"
    },
    "value" : "13726.0"
  }, {
    "tags" : {
      "im.dstype" : "gauge",
      "im.metric-type" : "ts",
      "im.name" : "foobb-c",
      "name" : "sea"
    },
    "value" : "6692.0"
  }, {
    "tags" : {
      "im.dstype" : "gauge",
      "im.metric-type" : "ts",
      "im.name" : "foobb-c",
      "name" : "sgt"
    },
    "value" : "24572.0"
  }, {
    "tags" : {
      "im.dstype" : "gauge",
      "im.metric-type" : "ts",
      "im.name" : "foobb-c",
      "name" : "sin"
    },
    "value" : "7790.0"
  }, {
    "tags" : {
      "im.dstype" : "gauge",
      "im.metric-type" : "ts",
      "im.name" : "foobb-c",
      "name" : "sip"
    },
    "value" : "12103.0"
  }, {
    "tags" : {
      "im.dstype" : "gauge",
      "im.metric-type" : "ts",
      "im.name" : "foobb-c",
      "name" : "sqq"
    },
    "value" : "3873.0"
  }, {
    "tags" : {
      "im.dstype" : "gauge",
      "im.metric-type" : "ts",
      "im.name" : "foobb-c",
      "name" : "stg"
    },
    "value" : "26503.0"
  }, {
    "tags" : {
      "im.dstype" : "gauge",
      "im.metric-type" : "ts",
      "im.name" : "foobb-c",
      "name" : "sym"
    },
    "value" : "31483.0"
  }, {
    "tags" : {
      "im.dstype" : "gauge",
      "im.metric-type" : "ts",
      "im.name" : "foobb-c",
      "name" : "tad"
    },
    "value" : "31746.0"
  }, {
    "tags" : {
      "im.dstype" : "gauge",
      "im.metric-type" : "ts",
      "im.name" : "foobb-c",
      "name" : "tas"
    },
    "value" : "13040.0"
  }, {
    "tags" : {
      "im.dstype" : "gauge",
      "im.metric-type" : "ts",
      "im.name" : "foobb-c",
      "name" : "ted"
    },
    "value" : "27886.0"
  }, {
    "tags" : {
      "im.dstype" : "gauge",
      "im.metric-type" : "ts",
      "im.name" : "foobb-c",
      "name" : "tie"
    },
    "value" : "18919.0"
  }, {
    "tags" : {
      "im.dstype" : "gauge",
      "im.metric-type" : "ts",
      "im.name" : "foobb-c",
      "name" : "too"
    },
    "value" : "18608.0"
  }, {
    "tags" : {
      "im.dstype" : "gauge",
      "im.metric-type" : "ts",
      "im.name" : "foobb-c",
      "name" : "tpr"
    },
    "value" : "4694.0"
  }, {
    "tags" : {
      "im.dstype" : "gauge",
      "im.metric-type" : "ts",
      "im.name" : "foobb-c",
      "name" : "try"
    },
    "value" : "24591.0"
  }, {
    "tags" : {
      "im.dstype" : "gauge",
      "im.metric-type" : "ts",
      "im.name" : "foobb-c",
      "name" : "tsh"
    },
    "value" : "21671.0"
  }, {
    "tags" : {
      "im.dstype" : "gauge",
      "im.metric-type" : "ts",
      "im.name" : "foobb-c",
      "name" : "twp"
    },
    "value" : "22119.0"
  }, {
    "tags" : {
      "im.dstype" : "gauge",
      "im.metric-type" : "ts",
      "im.name" : "foobb-c",
      "name" : "tyr"
    },
    "value" : "2687.0"
  }, {
    "tags" : {
      "im.dstype" : "gauge",
      "im.metric-type" : "ts",
      "im.name" : "foobb-c",
      "name" : "uar"
    },
    "value" : "11524.0"
  }, {
    "tags" : {
      "im.dstype" : "gauge",
      "im.metric-type" : "ts",
      "im.name" : "foobb-c",
      "name" : "uni"
    },
    "value" : "29149.0"
  }, {
    "tags" : {
      "im.dstype" : "gauge",
      "im.metric-type" : "ts",
      "im.name" : "foobb-c",
      "name" : "vzi"
    },
    "value" : "32006.0"
  }, {
    "tags" : {
      "im.dstype" : "gauge",
      "im.metric-type" : "ts",
      "im.name" : "foobb-c",
      "name" : "who"
    },
    "value" : "19162.0"
  }, {
    "tags" : {
      "im.dstype" : "gauge",
      "im.metric-type" : "ts",
      "im.name" : "foobb-c",
      "name" : "wot"
    },
    "value" : "5649.0"
  }, {
    "tags" : {
      "im.dstype" : "gauge",
      "im.metric-type" : "ts",
      "im.name" : "foobb-c",
      "name" : "wsw"
    },
    "value" : "7251.0"
  }, {
    "tags" : {
      "im.dstype" : "gauge",
      "im.metric-type" : "ts",
      "im.name" : "foobb-c",
      "name" : "yarr"
    },
    "value" : "5718.0"
  }, {
    "tags" : {
      "im.dstype" : "gauge",
      "im.metric-type" : "ts",
      "im.name" : "foobb-c",
      "name" : "yea"
    },
    "value" : "9778.0"
  }, {
    "tags" : {
      "im.dstype" : "gauge",
      "im.metric-type" : "ts",
      "im.name" : "foobb-c",
      "name" : "yon"
    },
    "value" : "30879.0"
  }, {
    "tags" : {
      "im.dstype" : "gauge",
      "im.metric-type" : "ts",
      "im.name" : "foobb-c",
      "name" : "zho"
    },
    "value" : "31694.0"
  }, {
    "tags" : {
      "im.dstype" : "gauge",
      "im.metric-type" : "ts",
      "im.name" : "foobb-d",
      "name" : "aba"
    },
    "value" : "6679.0"
  }, {
    "tags" : {
      "im.dstype" : "gauge",
      "im.metric-type" : "ts",
      "im.name" : "foobb-d",
      "name" : "bai"
    },
    "value" : "13424.0"
  }, {
    "tags" : {
      "im.dstype" : "gauge",
      "im.metric-type" : "ts",
      "im.name" : "foobb-d",
      "name" : "bis"
    },
    "value" : "9751.0"
  }, {
    "tags" : {
      "im.dstype" : "gauge",
      "im.metric-type" : "ts",
      "im.name" : "foobb-d",
      "name" : "bit"
    },
    "value" : "27506.0"
  }, {
    "tags" : {
      "im.dstype" : "gauge",
      "im.metric-type" : "ts",
      "im.name" : "foobb-d",
      "name" : "boh"
    },
    "value" : "27213.0"
  }, {
    "tags" : {
      "im.dstype" : "gauge",
      "im.metric-type" : "ts",
      "im.name" : "foobb-d",
      "name" : "caw"
    },
    "value" : "11290.0"
  }, {
    "tags" : {
      "im.dstype" : "gauge",
      "im.metric-type" : "ts",
      "im.name" : "foobb-d",
      "name" : "cfi"
    },
    "value" : "23894.0"
  }, {
    "tags" : {
      "im.dstype" : "gauge",
      "im.metric-type" : "ts",
      "im.name" : "foobb-d",
      "name" : "cgm"
    },
    "value" : "23627.0"
  }, {
    "tags" : {
      "im.dstype" : "gauge",
      "im.metric-type" : "ts",
      "im.name" : "foobb-d",
      "name" : "cob"
    },
    "value" : "17344.0"
  }, {
    "tags" : {
      "im.dstype" : "gauge",
      "im.metric-type" : "ts",
      "im.name" : "foobb-d",
      "name" : "cps"
    },
    "value" : "8833.0"
  }, {
    "tags" : {
      "im.dstype" : "gauge",
      "im.metric-type" : "ts",
      "im.name" : "foobb-d",
      "name" : "csm"
    },
    "value" : "27252.0"
  }, {
    "tags" : {
      "im.dstype" : "gauge",
      "im.metric-type" : "ts",
      "im.name" : "foobb-d",
      "name" : "cva"
    },
    "value" : "6672.0"
  }, {
    "tags" : {
      "im.dstype" : "gauge",
      "im.metric-type" : "ts",
      "im.name" : "foobb-d",
      "name" : "cwt"
    },
    "value" : "17368.0"
  }, {
    "tags" : {
      "im.dstype" : "gauge",
      "im.metric-type" : "ts",
      "im.name" : "foobb-d",
      "name" : "dcl"
    },
    "value" : "10128.0"
  }, {
    "tags" : {
      "im.dstype" : "gauge",
      "im.metric-type" : "ts",
      "im.name" : "foobb-d",
      "name" : "dig"
    },
    "value" : "31310.0"
  }, {
    "tags" : {
      "im.dstype" : "gauge",
      "im.metric-type" : "ts",
      "im.name" : "foobb-d",
      "name" : "dom"
    },
    "value" : "7636.0"
  }, {
    "tags" : {
      "im.dstype" : "gauge",
      "im.metric-type" : "ts",
      "im.name" : "foobb-d",
      "name" : "don"
    },
    "value" : "5598.0"
  }, {
    "tags" : {
      "im.dstype" : "gauge",
      "im.metric-type" : "ts",
      "im.name" : "foobb-d",
      "name" : "dpw"
    },
    "value" : "20310.0"
  }, {
    "tags" : {
      "im.dstype" : "gauge",
      "im.metric-type" : "ts",
      "im.name" : "foobb-d",
      "name" : "eat"
    },
    "value" : "18061.0"
  }, {
    "tags" : {
      "im.dstype" : "gauge",
      "im.metric-type" : "ts",
      "im.name" : "foobb-d",
      "name" : "eau"
    },
    "value" : "11694.0"
  }, {
    "tags" : {
      "im.dstype" : "gauge",
      "im.metric-type" : "ts",
      "im.name" : "foobb-d",
      "name" : "eda"
    },
    "value" : "22272.0"
  }, {
    "tags" : {
      "im.dstype" : "gauge",
      "im.metric-type" : "ts",
      "im.name" : "foobb-d",
      "name" : "ehf"
    },
    "value" : "429.0"
  }, {
    "tags" : {
      "im.dstype" : "gauge",
      "im.metric-type" : "ts",
      "im.name" : "foobb-d",
      "name" : "ely"
    },
    "value" : "17676.0"
  }, {
    "tags" : {
      "im.dstype" : "gauge",
      "im.metric-type" : "ts",
      "im.name" : "foobb-d",
      "name" : "ers"
    },
    "value" : "10768.0"
  }, {
    "tags" : {
      "im.dstype" : "gauge",
      "im.metric-type" : "ts",
      "im.name" : "foobb-d",
      "name" : "eth"
    },
    "value" : "24271.0"
  }, {
    "tags" : {
      "im.dstype" : "gauge",
      "im.metric-type" : "ts",
      "im.name" : "foobb-d",
      "name" : "for"
    },
    "value" : "12558.0"
  }, {
    "tags" : {
      "im.dstype" : "gauge",
      "im.metric-type" : "ts",
      "im.name" : "foobb-d",
      "name" : "fry"
    },
    "value" : "30635.0"
  }, {
    "tags" : {
      "im.dstype" : "gauge",
      "im.metric-type" : "ts",
      "im.name" : "foobb-d",
      "name" : "fsk"
    },
    "value" : "25937.0"
  }, {
    "tags" : {
      "im.dstype" : "gauge",
      "im.metric-type" : "ts",
      "im.name" : "foobb-d",
      "name" : "ghq"
    },
    "value" : "26740.0"
  }, {
    "tags" : {
      "im.dstype" : "gauge",
      "im.metric-type" : "ts",
      "im.name" : "foobb-d",
      "name" : "gpo"
    },
    "value" : "27334.0"
  }, {
    "tags" : {
      "im.dstype" : "gauge",
      "im.metric-type" : "ts",
      "im.name" : "foobb-d",
      "name" : "gpu"
    },
    "value" : "22252.0"
  }, {
    "tags" : {
      "im.dstype" : "gauge",
      "im.metric-type" : "ts",
      "im.name" : "foobb-d",
      "name" : "had"
    },
    "value" : "28926.0"
  }, {
    "tags" : {
      "im.dstype" : "gauge",
      "im.metric-type" : "ts",
      "im.name" : "foobb-d",
      "name" : "ham"
    },
    "value" : "16315.0"
  }, {
    "tags" : {
      "im.dstype" : "gauge",
      "im.metric-type" : "ts",
      "im.name" : "foobb-d",
      "name" : "hus"
    },
    "value" : "13470.0"
  }, {
    "tags" : {
      "im.dstype" : "gauge",
      "im.metric-type" : "ts",
      "im.name" : "foobb-d",
      "name" : "hut"
    },
    "value" : "305.0"
  }, {
    "tags" : {
      "im.dstype" : "gauge",
      "im.metric-type" : "ts",
      "im.name" : "foobb-d",
      "name" : "idb"
    },
    "value" : "28835.0"
  }, {
    "tags" : {
      "im.dstype" : "gauge",
      "im.metric-type" : "ts",
      "im.name" : "foobb-d",
      "name" : "ira"
    },
    "value" : "32169.0"
  }, {
    "tags" : {
      "im.dstype" : "gauge",
      "im.metric-type" : "ts",
      "im.name" : "foobb-d",
      "name" : "jct"
    },
    "value" : "28073.0"
  }, {
    "tags" : {
      "im.dstype" : "gauge",
      "im.metric-type" : "ts",
      "im.name" : "foobb-d",
      "name" : "ker"
    },
    "value" : "13458.0"
  }, {
    "tags" : {
      "im.dstype" : "gauge",
      "im.metric-type" : "ts",
      "im.name" : "foobb-d",
      "name" : "kif"
    },
    "value" : "3742.0"
  }, {
    "tags" : {
      "im.dstype" : "gauge",
      "im.metric-type" : "ts",
      "im.name" : "foobb-d",
      "name" : "lam"
    },
    "value" : "23532.0"
  }, {
    "tags" : {
      "im.dstype" : "gauge",
      "im.metric-type" : "ts",
      "im.name" : "foobb-d",
      "name" : "lan"
    },
    "value" : "1752.0"
  }, {
    "tags" : {
      "im.dstype" : "gauge",
      "im.metric-type" : "ts",
      "im.name" : "foobb-d",
      "name" : "lat"
    },
    "value" : "30155.0"
  }, {
    "tags" : {
      "im.dstype" : "gauge",
      "im.metric-type" : "ts",
      "im.name" : "foobb-d",
      "name" : "lei"
    },
    "value" : "24632.0"
  }, {
    "tags" : {
      "im.dstype" : "gauge",
      "im.metric-type" : "ts",
      "im.name" : "foobb-d",
      "name" : "lev"
    },
    "value" : "22299.0"
  }, {
    "tags" : {
      "im.dstype" : "gauge",
      "im.metric-type" : "ts",
      "im.name" : "foobb-d",
      "name" : "lhd"
    },
    "value" : "7607.0"
  }, {
    "tags" : {
      "im.dstype" : "gauge",
      "im.metric-type" : "ts",
      "im.name" : "foobb-d",
      "name" : "lit"
    },
    "value" : "9026.0"
  }, {
    "tags" : {
      "im.dstype" : "gauge",
      "im.metric-type" : "ts",
      "im.name" : "foobb-d",
      "name" : "lsi"
    },
    "value" : "8492.0"
  }, {
    "tags" : {
      "im.dstype" : "gauge",
      "im.metric-type" : "ts",
      "im.name" : "foobb-d",
      "name" : "mel"
    },
    "value" : "27861.0"
  }, {
    "tags" : {
      "im.dstype" : "gauge",
      "im.metric-type" : "ts",
      "im.name" : "foobb-d",
      "name" : "mev"
    },
    "value" : "25231.0"
  }, {
    "tags" : {
      "im.dstype" : "gauge",
      "im.metric-type" : "ts",
      "im.name" : "foobb-d",
      "name" : "mfh"
    },
    "value" : "30563.0"
  }, {
    "tags" : {
      "im.dstype" : "gauge",
      "im.metric-type" : "ts",
      "im.name" : "foobb-d",
      "name" : "mi5"
    },
    "value" : "22357.0"
  }, {
    "tags" : {
      "im.dstype" : "gauge",
      "im.metric-type" : "ts",
      "im.name" : "foobb-d",
      "name" : "mig"
    },
    "value" : "9364.0"
  }, {
    "tags" : {
      "im.dstype" : "gauge",
      "im.metric-type" : "ts",
      "im.name" : "foobb-d",
      "name" : "mir"
    },
    "value" : "12741.0"
  }, {
    "tags" : {
      "im.dstype" : "gauge",
      "im.metric-type" : "ts",
      "im.name" : "foobb-d",
      "name" : "mog"
    },
    "value" : "18451.0"
  }, {
    "tags" : {
      "im.dstype" : "gauge",
      "im.metric-type" : "ts",
      "im.name" : "foobb-d",
      "name" : "mra"
    },
    "value" : "18926.0"
  }, {
    "tags" : {
      "im.dstype" : "gauge",
      "im.metric-type" : "ts",
      "im.name" : "foobb-d",
      "name" : "mzi"
    },
    "value" : "24578.0"
  }, {
    "tags" : {
      "im.dstype" : "gauge",
      "im.metric-type" : "ts",
      "im.name" : "foobb-d",
      "name" : "nas"
    },
    "value" : "8912.0"
  }, {
    "tags" : {
      "im.dstype" : "gauge",
      "im.metric-type" : "ts",
      "im.name" : "foobb-d",
      "name" : "nek"
    },
    "value" : "24230.0"
  }, {
    "tags" : {
      "im.dstype" : "gauge",
      "im.metric-type" : "ts",
      "im.name" : "foobb-d",
      "name" : "nsw"
    },
    "value" : "2482.0"
  }, {
    "tags" : {
      "im.dstype" : "gauge",
      "im.metric-type" : "ts",
      "im.name" : "foobb-d",
      "name" : "off"
    },
    "value" : "19518.0"
  }, {
    "tags" : {
      "im.dstype" : "gauge",
      "im.metric-type" : "ts",
      "im.name" : "foobb-d",
      "name" : "olg"
    },
    "value" : "4390.0"
  }, {
    "tags" : {
      "im.dstype" : "gauge",
      "im.metric-type" : "ts",
      "im.name" : "foobb-d",
      "name" : "oof"
    },
    "value" : "30189.0"
  }, {
    "tags" : {
      "im.dstype" : "gauge",
      "im.metric-type" : "ts",
      "im.name" : "foobb-d",
      "name" : "orb"
    },
    "value" : "29492.0"
  }, {
    "tags" : {
      "im.dstype" : "gauge",
      "im.metric-type" : "ts",
      "im.name" : "foobb-d",
      "name" : "plr"
    },
    "value" : "3347.0"
  }, {
    "tags" : {
      "im.dstype" : "gauge",
      "im.metric-type" : "ts",
      "im.name" : "foobb-d",
      "name" : "plu"
    },
    "value" : "31895.0"
  }, {
    "tags" : {
      "im.dstype" : "gauge",
      "im.metric-type" : "ts",
      "im.name" : "foobb-d",
      "name" : "pos"
    },
    "value" : "26733.0"
  }, {
    "tags" : {
      "im.dstype" : "gauge",
      "im.metric-type" : "ts",
      "im.name" : "foobb-d",
      "name" : "pps"
    },
    "value" : "32225.0"
  }, {
    "tags" : {
      "im.dstype" : "gauge",
      "im.metric-type" : "ts",
      "im.name" : "foobb-d",
      "name" : "pto"
    },
    "value" : "13213.0"
  }, {
    "tags" : {
      "im.dstype" : "gauge",
      "im.metric-type" : "ts",
      "im.name" : "foobb-d",
      "name" : "qty"
    },
    "value" : "18754.0"
  }, {
    "tags" : {
      "im.dstype" : "gauge",
      "im.metric-type" : "ts",
      "im.name" : "foobb-d",
      "name" : "rip"
    },
    "value" : "79.0"
  }, {
    "tags" : {
      "im.dstype" : "gauge",
      "im.metric-type" : "ts",
      "im.name" : "foobb-d",
      "name" : "rot"
    },
    "value" : "13726.0"
  }, {
    "tags" : {
      "im.dstype" : "gauge",
      "im.metric-type" : "ts",
      "im.name" : "foobb-d",
      "name" : "sea"
    },
    "value" : "6692.0"
  }, {
    "tags" : {
      "im.dstype" : "gauge",
      "im.metric-type" : "ts",
      "im.name" : "foobb-d",
      "name" : "sgt"
    },
    "value" : "24572.0"
  }, {
    "tags" : {
      "im.dstype" : "gauge",
      "im.metric-type" : "ts",
      "im.name" : "foobb-d",
      "name" : "sin"
    },
    "value" : "7790.0"
  }, {
    "tags" : {
      "im.dstype" : "gauge",
      "im.metric-type" : "ts",
      "im.name" : "foobb-d",
      "name" : "sip"
    },
    "value" : "12103.0"
  }, {
    "tags" : {
      "im.dstype" : "gauge",
      "im.metric-type" : "ts",
      "im.name" : "foobb-d",
      "name" : "sqq"
    },
    "value" : "3873.0"
  }, {
    "tags" : {
      "im.dstype" : "gauge",
      "im.metric-type" : "ts",
      "im.name" : "foobb-d",
      "name" : "stg"
    },
    "value" : "26503.0"
  }, {
    "tags" : {
      "im.dstype" : "gauge",
      "im.metric-type" : "ts",
      "im.name" : "foobb-d",
      "name" : "sym"
    },
    "value" : "31483.0"
  }, {
    "tags" : {
      "im.dstype" : "gauge",
      "im.metric-type" : "ts",
      "im.name" : "foobb-d",
      "name" : "tad"
    },
    "value" : "31746.0"
  }, {
    "tags" : {
      "im.dstype" : "gauge",
      "im.metric-type" : "ts",
      "im.name" : "foobb-d",
      "name" : "tas"
    },
    "value" : "13040.0"
  }, {
    "tags" : {
      "im.dstype" : "gauge",
      "im.metric-type" : "ts",
      "im.name" : "foobb-d",
      "name" : "ted"
    },
    "value" : "27886.0"
  }, {
    "tags" : {
      "im.dstype" : "gauge",
      "im.metric-type" : "ts",
      "im.name" : "foobb-d",
      "name" : "tie"
    },
    "value" : "18919.0"
  }, {
    "tags" : {
      "im.dstype" : "gauge",
      "im.metric-type" : "ts",
      "im.name" : "foobb-d",
      "name" : "too"
    },
    "value" : "18608.0"
  }, {
    "tags" : {
      "im.dstype" : "gauge",
      "im.metric-type" : "ts",
      "im.name" : "foobb-d",
      "name" : "tpr"
    },
    "value" : "4694.0"
  }, {
    "tags" : {
      "im.dstype" : "gauge",
      "im.metric-type" : "ts",
      "im.name" : "foobb-d",
      "name" : "try"
    },
    "value" : "24591.0"
  }, {
    "tags" : {
      "im.dstype" : "gauge",
      "im.metric-type" : "ts",
      "im.name" : "foobb-d",
      "name" : "tsh"
    },
    "value" : "21671.0"
  }, {
    "tags" : {
      "im.dstype" : "gauge",
      "im.metric-type" : "ts",
      "im.name" : "foobb-d",
      "name" : "twp"
    },
    "value" : "22119.0"
  }, {
    "tags" : {
      "im.dstype" : "gauge",
      "im.metric-type" : "ts",
      "im.name" : "foobb-d",
      "name" : "tyr"
    },
    "value" : "2687.0"
  }, {
    "tags" : {
      "im.dstype" : "gauge",
      "im.metric-type" : "ts",
      "im.name" : "foobb-d",
      "name" : "uar"
    },
    "value" : "11524.0"
  }, {
    "tags" : {
      "im.dstype" : "gauge",
      "im.metric-type" : "ts",
      "im.name" : "foobb-d",
      "name" : "uni"
    },
    "value" : "29149.0"
  }, {
    "tags" : {
      "im.dstype" : "gauge",
      "im.metric-type" : "ts",
      "im.name" : "foobb-d",
      "name" : "vzi"
    },
    "value" : "32006.0"
  }, {
    "tags" : {
      "im.dstype" : "gauge",
      "im.metric-type" : "ts",
      "im.name" : "foobb-d",
      "name" : "who"
    },
    "value" : "19162.0"
  }, {
    "tags" : {
      "im.dstype" : "gauge",
      "im.metric-type" : "ts",
      "im.name" : "foobb-d",
      "name" : "wot"
    },
    "value" : "5649.0"
  }, {
    "tags" : {
      "im.dstype" : "gauge",
      "im.metric-type" : "ts",
      "im.name" : "foobb-d",
      "name" : "wsw"
    },
    "value" : "7251.0"
  }, {
    "tags" : {
      "im.dstype" : "gauge",
      "im.metric-type" : "ts",
      "im.name" : "foobb-d",
      "name" : "yarr"
    },
    "value" : "5718.0"
  }, {
    "tags" : {
      "im.dstype" : "gauge",
      "im.metric-type" : "ts",
      "im.name" : "foobb-d",
      "name" : "yea"
    },
    "value" : "9778.0"
  }, {
    "tags" : {
      "im.dstype" : "gauge",
      "im.metric-type" : "ts",
      "im.name" : "foobb-d",
      "name" : "yon"
    },
    "value" : "30879.0"
  }, {
    "tags" : {
      "im.dstype" : "gauge",
      "im.metric-type" : "ts",
      "im.name" : "foobb-d",
      "name" : "zho"
    },
    "value" : "31694.0"
  }, {
    "tags" : {
      "im.dstype" : "gauge",
      "im.metric-type" : "ts",
      "im.name" : "foobb-e",
      "name" : "aba"
    },
    "value" : "6679.0"
  }, {
    "tags" : {
      "im.dstype" : "gauge",
      "im.metric-type" : "ts",
      "im.name" : "foobb-e",
      "name" : "bai"
    },
    "value" : "13424.0"
  }, {
    "tags" : {
      "im.dstype" : "gauge",
      "im.metric-type" : "ts",
      "im.name" : "foobb-e",
      "name" : "bis"
    },
    "value" : "9751.0"
  }, {
    "tags" : {
      "im.dstype" : "gauge",
      "im.metric-type" : "ts",
      "im.name" : "foobb-e",
      "name" : "bit"
    },
    "value" : "27506.0"
  }, {
    "tags" : {
      "im.dstype" : "gauge",
      "im.metric-type" : "ts",
      "im.name" : "foobb-e",
      "name" : "boh"
    },
    "value" : "27213.0"
  }, {
    "tags" : {
      "im.dstype" : "gauge",
      "im.metric-type" : "ts",
      "im.name" : "foobb-e",
      "name" : "caw"
    },
    "value" : "11290.0"
  }, {
    "tags" : {
      "im.dstype" : "gauge",
      "im.metric-type" : "ts",
      "im.name" : "foobb-e",
      "name" : "cfi"
    },
    "value" : "23894.0"
  }, {
    "tags" : {
      "im.dstype" : "gauge",
      "im.metric-type" : "ts",
      "im.name" : "foobb-e",
      "name" : "cgm"
    },
    "value" : "23627.0"
  }, {
    "tags" : {
      "im.dstype" : "gauge",
      "im.metric-type" : "ts",
      "im.name" : "foobb-e",
      "name" : "cob"
    },
    "value" : "17344.0"
  }, {
    "tags" : {
      "im.dstype" : "gauge",
      "im.metric-type" : "ts",
      "im.name" : "foobb-e",
      "name" : "cps"
    },
    "value" : "8833.0"
  }, {
    "tags" : {
      "im.dstype" : "gauge",
      "im.metric-type" : "ts",
      "im.name" : "foobb-e",
      "name" : "csm"
    },
    "value" : "27252.0"
  }, {
    "tags" : {
      "im.dstype" : "gauge",
      "im.metric-type" : "ts",
      "im.name" : "foobb-e",
      "name" : "cva"
    },
    "value" : "6672.0"
  }, {
    "tags" : {
      "im.dstype" : "gauge",
      "im.metric-type" : "ts",
      "im.name" : "foobb-e",
      "name" : "cwt"
    },
    "value" : "17368.0"
  }, {
    "tags" : {
      "im.dstype" : "gauge",
      "im.metric-type" : "ts",
      "im.name" : "foobb-e",
      "name" : "dcl"
    },
    "value" : "10128.0"
  }, {
    "tags" : {
      "im.dstype" : "gauge",
      "im.metric-type" : "ts",
      "im.name" : "foobb-e",
      "name" : "dig"
    },
    "value" : "31310.0"
  }, {
    "tags" : {
      "im.dstype" : "gauge",
      "im.metric-type" : "ts",
      "im.name" : "foobb-e",
      "name" : "dom"
    },
    "value" : "7636.0"
  }, {
    "tags" : {
      "im.dstype" : "gauge",
      "im.metric-type" : "ts",
      "im.name" : "foobb-e",
      "name" : "don"
    },
    "value" : "5598.0"
  }, {
    "tags" : {
      "im.dstype" : "gauge",
      "im.metric-type" : "ts",
      "im.name" : "foobb-e",
      "name" : "dpw"
    },
    "value" : "20310.0"
  }, {
    "tags" : {
      "im.dstype" : "gauge",
      "im.metric-type" : "ts",
      "im.name" : "foobb-e",
      "name" : "eat"
    },
    "value" : "18061.0"
  }, {
    "tags" : {
      "im.dstype" : "gauge",
      "im.metric-type" : "ts",
      "im.name" : "foobb-e",
      "name" : "eau"
    },
    "value" : "11694.0"
  }, {
    "tags" : {
      "im.dstype" : "gauge",
      "im.metric-type" : "ts",
      "im.name" : "foobb-e",
      "name" : "eda"
    },
    "value" : "22272.0"
  }, {
    "tags" : {
      "im.dstype" : "gauge",
      "im.metric-type" : "ts",
      "im.name" : "foobb-e",
      "name" : "ehf"
    },
    "value" : "429.0"
  }, {
    "tags" : {
      "im.dstype" : "gauge",
      "im.metric-type" : "ts",
      "im.name" : "foobb-e",
      "name" : "ely"
    },
    "value" : "17676.0"
  }, {
    "tags" : {
      "im.dstype" : "gauge",
      "im.metric-type" : "ts",
      "im.name" : "foobb-e",
      "name" : "ers"
    },
    "value" : "10768.0"
  }, {
    "tags" : {
      "im.dstype" : "gauge",
      "im.metric-type" : "ts",
      "im.name" : "foobb-e",
      "name" : "eth"
    },
    "value" : "24271.0"
  }, {
    "tags" : {
      "im.dstype" : "gauge",
      "im.metric-type" : "ts",
      "im.name" : "foobb-e",
      "name" : "for"
    },
    "value" : "12558.0"
  }, {
    "tags" : {
      "im.dstype" : "gauge",
      "im.metric-type" : "ts",
      "im.name" : "foobb-e",
      "name" : "fry"
    },
    "value" : "30635.0"
  }, {
    "tags" : {
      "im.dstype" : "gauge",
      "im.metric-type" : "ts",
      "im.name" : "foobb-e",
      "name" : "fsk"
    },
    "value" : "25937.0"
  }, {
    "tags" : {
      "im.dstype" : "gauge",
      "im.metric-type" : "ts",
      "im.name" : "foobb-e",
      "name" : "ghq"
    },
    "value" : "26740.0"
  }, {
    "tags" : {
      "im.dstype" : "gauge",
      "im.metric-type" : "ts",
      "im.name" : "foobb-e",
      "name" : "gpo"
    },
    "value" : "27334.0"
  }, {
    "tags" : {
      "im.dstype" : "gauge",
      "im.metric-type" : "ts",
      "im.name" : "foobb-e",
      "name" : "gpu"
    },
    "value" : "22252.0"
  }, {
    "tags" : {
      "im.dstype" : "gauge",
      "im.metric-type" : "ts",
      "im.name" : "foobb-e",
      "name" : "had"
    },
    "value" : "28926.0"
  }, {
    "tags" : {
      "im.dstype" : "gauge",
      "im.metric-type" : "ts",
      "im.name" : "foobb-e",
      "name" : "ham"
    },
    "value" : "16315.0"
  }, {
    "tags" : {
      "im.dstype" : "gauge",
      "im.metric-type" : "ts",
      "im.name" : "foobb-e",
      "name" : "hus"
    },
    "value" : "13470.0"
  }, {
    "tags" : {
      "im.dstype" : "gauge",
      "im.metric-type" : "ts",
      "im.name" : "foobb-e",
      "name" : "hut"
    },
    "value" : "305.0"
  }, {
    "tags" : {
      "im.dstype" : "gauge",
      "im.metric-type" : "ts",
      "im.name" : "foobb-e",
      "name" : "idb"
    },
    "value" : "28835.0"
  }, {
    "tags" : {
      "im.dstype" : "gauge",
      "im.metric-type" : "ts",
      "im.name" : "foobb-e",
      "name" : "ira"
    },
    "value" : "32169.0"
  }, {
    "tags" : {
      "im.dstype" : "gauge",
      "im.metric-type" : "ts",
      "im.name" : "foobb-e",
      "name" : "jct"
    },
    "value" : "28073.0"
  }, {
    "tags" : {
      "im.dstype" : "gauge",
      "im.metric-type" : "ts",
      "im.name" : "foobb-e",
      "name" : "ker"
    },
    "value" : "13458.0"
  }, {
    "tags" : {
      "im.dstype" : "gauge",
      "im.metric-type" : "ts",
      "im.name" : "foobb-e",
      "name" : "kif"
    },
    "value" : "3742.0"
  }, {
    "tags" : {
      "im.dstype" : "gauge",
      "im.metric-type" : "ts",
      "im.name" : "foobb-e",
      "name" : "lam"
    },
    "value" : "23532.0"
  }, {
    "tags" : {
      "im.dstype" : "gauge",
      "im.metric-type" : "ts",
      "im.name" : "foobb-e",
      "name" : "lan"
    },
    "value" : "1752.0"
  }, {
    "tags" : {
      "im.dstype" : "gauge",
      "im.metric-type" : "ts",
      "im.name" : "foobb-e",
      "name" : "lat"
    },
    "value" : "30155.0"
  }, {
    "tags" : {
      "im.dstype" : "gauge",
      "im.metric-type" : "ts",
      "im.name" : "foobb-e",
      "name" : "lei"
    },
    "value" : "24632.0"
  }, {
    "tags" : {
      "im.dstype" : "gauge",
      "im.metric-type" : "ts",
      "im.name" : "foobb-e",
      "name" : "lev"
    },
    "value" : "22299.0"
  }, {
    "tags" : {
      "im.dstype" : "gauge",
      "im.metric-type" : "ts",
      "im.name" : "foobb-e",
      "name" : "lhd"
    },
    "value" : "7607.0"
  }, {
    "tags" : {
      "im.dstype" : "gauge",
      "im.metric-type" : "ts",
      "im.name" : "foobb-e",
      "name" : "lit"
    },
    "value" : "9026.0"
  }, {
    "tags" : {
      "im.dstype" : "gauge",
      "im.metric-type" : "ts",
      "im.name" : "foobb-e",
      "name" : "lsi"
    },
    "value" : "8492.0"
  }, {
    "tags" : {
      "im.dstype" : "gauge",
      "im.metric-type" : "ts",
      "im.name" : "foobb-e",
      "name" : "mel"
    },
    "value" : "27861.0"
  }, {
    "tags" : {
      "im.dstype" : "gauge",
      "im.metric-type" : "ts",
      "im.name" : "foobb-e",
      "name" : "mev"
    },
    "value" : "25231.0"
  }, {
    "tags" : {
      "im.dstype" : "gauge",
      "im.metric-type" : "ts",
      "im.name" : "foobb-e",
      "name" : "mfh"
    },
    "value" : "30563.0"
  }, {
    "tags" : {
      "im.dstype" : "gauge",
      "im.metric-type" : "ts",
      "im.name" : "foobb-e",
      "name" : "mi5"
    },
    "value" : "22357.0"
  }, {
    "tags" : {
      "im.dstype" : "gauge",
      "im.metric-type" : "ts",
      "im.name" : "foobb-e",
      "name" : "mig"
    },
    "value" : "9364.0"
  }, {
    "tags" : {
      "im.dstype" : "gauge",
      "im.metric-type" : "ts",
      "im.name" : "foobb-e",
      "name" : "mir"
    },
    "value" : "12741.0"
  }, {
    "tags" : {
      "im.dstype" : "gauge",
      "im.metric-type" : "ts",
      "im.name" : "foobb-e",
      "name" : "mog"
    },
    "value" : "18451.0"
  }, {
    "tags" : {
      "im.dstype" : "gauge",
      "im.metric-type" : "ts",
      "im.name" : "foobb-e",
      "name" : "mra"
    },
    "value" : "18926.0"
  }, {
    "tags" : {
      "im.dstype" : "gauge",
      "im.metric-type" : "ts",
      "im.name" : "foobb-e",
      "name" : "mzi"
    },
    "value" : "24578.0"
  }, {
    "tags" : {
      "im.dstype" : "gauge",
      "im.metric-type" : "ts",
      "im.name" : "foobb-e",
      "name" : "nas"
    },
    "value" : "8912.0"
  }, {
    "tags" : {
      "im.dstype" : "gauge",
      "im.metric-type" : "ts",
      "im.name" : "foobb-e",
      "name" : "nek"
    },
    "value" : "24230.0"
  }, {
    "tags" : {
      "im.dstype" : "gauge",
      "im.metric-type" : "ts",
      "im.name" : "foobb-e",
      "name" : "nsw"
    },
    "value" : "2482.0"
  }, {
    "tags" : {
      "im.dstype" : "gauge",
      "im.metric-type" : "ts",
      "im.name" : "foobb-e",
      "name" : "off"
    },
    "value" : "19518.0"
  }, {
    "tags" : {
      "im.dstype" : "gauge",
      "im.metric-type" : "ts",
      "im.name" : "foobb-e",
      "name" : "olg"
    },
    "value" : "4390.0"
  }, {
    "tags" : {
      "im.dstype" : "gauge",
      "im.metric-type" : "ts",
      "im.name" : "foobb-e",
      "name" : "oof"
    },
    "value" : "30189.0"
  }, {
    "tags" : {
      "im.dstype" : "gauge",
      "im.metric-type" : "ts",
      "im.name" : "foobb-e",
      "name" : "orb"
    },
    "value" : "29492.0"
  }, {
    "tags" : {
      "im.dstype" : "gauge",
      "im.metric-type" : "ts",
      "im.name" : "foobb-e",
      "name" : "plr"
    },
    "value" : "3347.0"
  }, {
    "tags" : {
      "im.dstype" : "gauge",
      "im.metric-type" : "ts",
      "im.name" : "foobb-e",
      "name" : "plu"
    },
    "value" : "31895.0"
  }, {
    "tags" : {
      "im.dstype" : "gauge",
      "im.metric-type" : "ts",
      "im.name" : "foobb-e",
      "name" : "pos"
    },
    "value" : "26733.0"
  }, {
    "tags" : {
      "im.dstype" : "gauge",
      "im.metric-type" : "ts",
      "im.name" : "foobb-e",
      "name" : "pps"
    },
    "value" : "32225.0"
  }, {
    "tags" : {
      "im.dstype" : "gauge",
      "im.metric-type" : "ts",
      "im.name" : "foobb-e",
      "name" : "pto"
    },
    "value" : "13213.0"
  }, {
    "tags" : {
      "im.dstype" : "gauge",
      "im.metric-type" : "ts",
      "im.name" : "foobb-e",
      "name" : "qty"
    },
    "value" : "18754.0"
  }, {
    "tags" : {
      "im.dstype" : "gauge",
      "im.metric-type" : "ts",
      "im.name" : "foobb-e",
      "name" : "rip"
    },
    "value" : "79.0"
  }, {
    "tags" : {
      "im.dstype" : "gauge",
      "im.metric-type" : "ts",
      "im.name" : "foobb-e",
      "name" : "rot"
    },
    "value" : "13726.0"
  }, {
    "tags" : {
      "im.dstype" : "gauge",
      "im.metric-type" : "ts",
      "im.name" : "foobb-e",
      "name" : "sea"
    },
    "value" : "6692.0"
  }, {
    "tags" : {
      "im.dstype" : "gauge",
      "im.metric-type" : "ts",
      "im.name" : "foobb-e",
      "name" : "sgt"
    },
    "value" : "24572.0"
  }, {
    "tags" : {
      "im.dstype" : "gauge",
      "im.metric-type" : "ts",
      "im.name" : "foobb-e",
      "name" : "sin"
    },
    "value" : "7790.0"
  }, {
    "tags" : {
      "im.dstype" : "gauge",
      "im.metric-type" : "ts",
      "im.name" : "foobb-e",
      "name" : "sip"
    },
    "value" : "12103.0"
  }, {
    "tags" : {
      "im.dstype" : "gauge",
      "im.metric-type" : "ts",
      "im.name" : "foobb-e",
      "name" : "sqq"
    },
    "value" : "3873.0"
  }, {
    "tags" : {
      "im.dstype" : "gauge",
      "im.metric-type" : "ts",
      "im.name" : "foobb-e",
      "name" : "stg"
    },
    "value" : "26503.0"
  }, {
    "tags" : {
      "im.dstype" : "gauge",
      "im.metric-type" : "ts",
      "im.name" : "foobb-e",
      "name" : "sym"
    },
    "value" : "31483.0"
  }, {
    "tags" : {
      "im.dstype" : "gauge",
      "im.metric-type" : "ts",
      "im.name" : "foobb-e",
      "name" : "tad"
    },
    "value" : "31746.0"
  }, {
    "tags" : {
      "im.dstype" : "gauge",
      "im.metric-type" : "ts",
      "im.name" : "foobb-e",
      "name" : "tas"
    },
    "value" : "13040.0"
  }, {
    "tags" : {
      "im.dstype" : "gauge",
      "im.metric-type" : "ts",
      "im.name" : "foobb-e",
      "name" : "ted"
    },
    "value" : "27886.0"
  }, {
    "tags" : {
      "im.dstype" : "gauge",
      "im.metric-type" : "ts",
      "im.name" : "foobb-e",
      "name" : "tie"
    },
    "value" : "18919.0"
  }, {
    "tags" : {
      "im.dstype" : "gauge",
      "im.metric-type" : "ts",
      "im.name" : "foobb-e",
      "name" : "too"
    },
    "value" : "18608.0"
  }, {
    "tags" : {
      "im.dstype" : "gauge",
      "im.metric-type" : "ts",
      "im.name" : "foobb-e",
      "name" : "tpr"
    },
    "value" : "4694.0"
  }, {
    "tags" : {
      "im.dstype" : "gauge",
      "im.metric-type" : "ts",
      "im.name" : "foobb-e",
      "name" : "try"
    },
    "value" : "24591.0"
  }, {
    "tags" : {
      "im.dstype" : "gauge",
      "im.metric-type" : "ts",
      "im.name" : "foobb-e",
      "name" : "tsh"
    },
    "value" : "21671.0"
  }, {
    "tags" : {
      "im.dstype" : "gauge",
      "im.metric-type" : "ts",
      "im.name" : "foobb-e",
      "name" : "twp"
    },
    "value" : "22119.0"
  }, {
    "tags" : {
      "im.dstype" : "gauge",
      "im.metric-type" : "ts",
      "im.name" : "foobb-e",
      "name" : "tyr"
    },
    "value" : "2687.0"
  }, {
    "tags" : {
      "im.dstype" : "gauge",
      "im.metric-type" : "ts",
      "im.name" : "foobb-e",
      "name" : "uar"
    },
    "value" : "11524.0"
  }, {
    "tags" : {
      "im.dstype" : "gauge",
      "im.metric-type" : "ts",
      "im.name" : "foobb-e",
      "name" : "uni"
    },
    "value" : "29149.0"
  }, {
    "tags" : {
      "im.dstype" : "gauge",
      "im.metric-type" : "ts",
      "im.name" : "foobb-e",
      "name" : "vzi"
    },
    "value" : "32006.0"
  }, {
    "tags" : {
      "im.dstype" : "gauge",
      "im.metric-type" : "ts",
      "im.name" : "foobb-e",
      "name" : "who"
    },
    "value" : "19162.0"
  }, {
    "tags" : {
      "im.dstype" : "gauge",
      "im.metric-type" : "ts",
      "im.name" : "foobb-e",
      "name" : "wot"
    },
    "value" : "5649.0"
  }, {
    "tags" : {
      "im.dstype" : "gauge",
      "im.metric-type" : "ts",
      "im.name" : "foobb-e",
      "name" : "wsw"
    },
    "value" : "7251.0"
  }, {
    "tags" : {
      "im.dstype" : "gauge",
      "im.metric-type" : "ts",
      "im.name" : "foobb-e",
      "name" : "yarr"
    },
    "value" : "5718.0"
  }, {
    "tags" : {
      "im.dstype" : "gauge",
      "im.metric-type" : "ts",
      "im.name" : "foobb-e",
      "name" : "yea"
    },
    "value" : "9778.0"
  }, {
    "tags" : {
      "im.dstype" : "gauge",
      "im.metric-type" : "ts",
      "im.name" : "foobb-e",
      "name" : "yon"
    },
    "value" : "30879.0"
  }, {
    "tags" : {
      "im.dstype" : "gauge",
      "im.metric-type" : "ts",
      "im.name" : "foobb-e",
      "name" : "zho"
    },
    "value" : "31694.0"
  } ]
}
