{
  "command" : "panos-debug-dataplane-monitor-detail-show",
  "metrics" : [ {
    "tags" : {
      "im.dstype" : "gauge",
      "im.metric-type" : "ts",
      "im.name" : "debug-status",
      "name" : "debug.dataplane.monitor.detail"
    },
    "value" : "0.0"
  } ]
}
INFO -- Exiting
