{
  "command" : "panos-show-system-state",
  "metrics" : [ {
    "tags" : {
      "display-name" : "Routes - Limit",
      "im.dstype" : "gauge",
      "im.dstype.displaytype" : "number",
      "im.metric-type" : "ts",
      "im.name" : "routes-limit",
      "im.step" : "600",
      "live-config" : "true"
    },
    "value" : "1000.0"
  }, {
    "tags" : {
      "display-name" : "Licenses - Limit",
      "im.dstype" : "gauge",
      "im.dstype.displaytype" : "number",
      "im.identity-tags" : "name",
      "im.metric-type" : "ts",
      "im.name" : "license-elements-limit",
      "im.step" : "600",
      "live-config" : "true",
      "name" : "vsys"
    },
    "value" : "1.0"
  } ]
}
