{
  "command" : "panos-show-admins",
  "metrics" : [ {
    "tags" : {
      "im.name" : "logged-in-users"
    },
    "value" : [ {
      "idle" : "0",
      "from" : "10.10.1.1",
      "username" : "indeni"
    }, {
      "idle" : "91",
      "from" : "10.10.1.3",
      "username" : "admin"
    } ]
  } ]
}
