{
  "command" : "panos-show-system-environmentals",
  "metrics" : [ {
    "tags" : {
      "display-name" : "Hardware Elements State",
      "im.dstype.displaytype" : "state",
      "im.identity-tags" : "name",
      "im.name" : "hardware-element-status",
      "live-config" : "true",
      "name" : "1.0V CPU Core"
    },
    "value" : "1.0"
  }, {
    "tags" : {
      "display-name" : "Hardware Elements State",
      "im.dstype.displaytype" : "state",
      "im.identity-tags" : "name",
      "im.name" : "hardware-element-status",
      "live-config" : "true",
      "name" : "1.5V DDR"
    },
    "value" : "1.0"
  }, {
    "tags" : {
      "display-name" : "Hardware Elements State",
      "im.dstype.displaytype" : "state",
      "im.identity-tags" : "name",
      "im.name" : "hardware-element-status",
      "live-config" : "true",
      "name" : "12V Power Rail"
    },
    "value" : "1.0"
  }, {
    "tags" : {
      "display-name" : "Hardware Elements State",
      "im.dstype.displaytype" : "state",
      "im.identity-tags" : "name",
      "im.name" : "hardware-element-status",
      "live-config" : "true",
      "name" : "2.5V Power Rail"
    },
    "value" : "1.0"
  }, {
    "tags" : {
      "display-name" : "Hardware Elements State",
      "im.dstype.displaytype" : "state",
      "im.identity-tags" : "name",
      "im.name" : "hardware-element-status",
      "live-config" : "true",
      "name" : "3.3V Power Rail"
    },
    "value" : "1.0"
  }, {
    "tags" : {
      "display-name" : "Hardware Elements State",
      "im.dstype.displaytype" : "state",
      "im.identity-tags" : "name",
      "im.name" : "hardware-element-status",
      "live-config" : "true",
      "name" : "3.3V RTC Battery"
    },
    "value" : "1.0"
  }, {
    "tags" : {
      "display-name" : "Hardware Elements State",
      "im.dstype.displaytype" : "state",
      "im.identity-tags" : "name",
      "im.name" : "hardware-element-status",
      "live-config" : "true",
      "name" : "5V Power Rail"
    },
    "value" : "1.0"
  }, {
    "tags" : {
      "display-name" : "Hardware Elements State",
      "im.dstype.displaytype" : "state",
      "im.identity-tags" : "name",
      "im.name" : "hardware-element-status",
      "live-config" : "true",
      "name" : "6220 Core Temperature"
    },
    "value" : "1.0"
  }, {
    "tags" : {
      "display-name" : "Hardware Elements State",
      "im.dstype.displaytype" : "state",
      "im.identity-tags" : "name",
      "im.name" : "hardware-element-status",
      "live-config" : "true",
      "name" : "Fan RPM"
    },
    "value" : "0.0"
  }, {
    "tags" : {
      "display-name" : "Hardware Elements State",
      "im.dstype.displaytype" : "state",
      "im.identity-tags" : "name",
      "im.name" : "hardware-element-status",
      "live-config" : "true",
      "name" : "System Temperature"
    },
    "value" : "1.0"
  } ]
}
