{
  "command" : "panos-show-system-resources",
  "metrics" : [ {
    "tags" : {
      "display-name" : "Memory - Free",
      "im.dstype" : "gauge",
      "im.dstype.displaytype" : "kilobytes",
      "im.identity-tags" : "name",
      "im.metric-type" : "ts",
      "im.name" : "memory-free-kbytes",
      "live-config" : "true",
      "name" : "PA firewall management plane"
    },
    "value" : "606572.0"
  }, {
    "tags" : {
      "display-name" : "Memory - Total",
      "im.dstype" : "gauge",
      "im.dstype.displaytype" : "kilobytes",
      "im.identity-tags" : "name",
      "im.metric-type" : "ts",
      "im.name" : "memory-total-kbytes",
      "live-config" : "true",
      "name" : "PA firewall management plane"
    },
    "value" : "4057012.0"
  }, {
    "tags" : {
      "display-name" : "Memory Usage",
      "im.dstype" : "gauge",
      "im.dstype.displaytype" : "percentage",
      "im.identity-tags" : "name",
      "im.metric-type" : "ts",
      "im.name" : "memory-usage",
      "live-config" : "true",
      "name" : "PA firewall management plane"
    },
    "value" : "85.0487994612784"
  }, {
    "tags" : {
      "cpu-id" : "MP",
      "cpu-is-avg" : "false",
      "display-name" : "CPU Usage",
      "im.dstype" : "gauge",
      "im.dstype.displaytype" : "percentage",
      "im.identity-tags" : "cpu-id",
      "im.metric-type" : "ts",
      "im.name" : "cpu-usage",
      "live-config" : "true",
      "resource-metric" : "true"
    },
    "value" : "6.400000000000006"
  } ]
}
