{
  "command" : "chkp-asg-drop-monitor",
  "metrics" : [ {
    "tags" : {
      "im.dstype" : "counter",
      "im.metric-type" : "ts",
      "im.name" : "packet-drop-counter",
      "name" : "Attack mitigation"
    },
    "value" : "1929.0"
  }, {
    "tags" : {
      "im.dstype" : "counter",
      "im.metric-type" : "ts",
      "im.name" : "packet-drop-counter",
      "name" : "Conns limit. Add fail"
    },
    "value" : "202.0"
  }, {
    "tags" : {
      "im.dstype" : "counter",
      "im.metric-type" : "ts",
      "im.name" : "packet-drop-counter",
      "name" : "Conns limit. Exceed"
    },
    "value" : "193.0"
  }, {
    "tags" : {
      "im.dstype" : "counter",
      "im.metric-type" : "ts",
      "im.name" : "packet-drop-counter",
      "name" : "CoreXL queue drops (F2F):"
    },
    "value" : "300.0"
  }, {
    "tags" : {
      "im.dstype" : "counter",
      "im.metric-type" : "ts",
      "im.name" : "packet-drop-counter",
      "name" : "CoreXL queue drops (PXL F2P)"
    },
    "value" : "40.0"
  }, {
    "tags" : {
      "im.dstype" : "counter",
      "im.metric-type" : "ts",
      "im.name" : "packet-drop-counter",
      "name" : "F2F not allowed"
    },
    "value" : "19.0"
  }, {
    "tags" : {
      "im.dstype" : "counter",
      "im.metric-type" : "ts",
      "im.name" : "packet-drop-counter",
      "name" : "IP Stack qdisc drops (Tx):"
    },
    "value" : "5000.0"
  }, {
    "tags" : {
      "im.dstype" : "counter",
      "im.metric-type" : "ts",
      "im.name" : "packet-drop-counter",
      "name" : "NICs drops (Rx):"
    },
    "value" : "20.0"
  }, {
    "tags" : {
      "im.dstype" : "counter",
      "im.metric-type" : "ts",
      "im.name" : "packet-drop-counter",
      "name" : "PSL drops(total):"
    },
    "value" : "70.0"
  }, {
    "tags" : {
      "im.dstype" : "counter",
      "im.metric-type" : "ts",
      "im.name" : "packet-drop-counter",
      "name" : "PSL drops(udp):"
    },
    "value" : "30000.0"
  }, {
    "tags" : {
      "im.dstype" : "counter",
      "im.metric-type" : "ts",
      "im.name" : "packet-drop-counter",
      "name" : "PSL rejects:"
    },
    "value" : "3.0"
  }, {
    "tags" : {
      "im.dstype" : "counter",
      "im.metric-type" : "ts",
      "im.name" : "packet-drop-counter",
      "name" : "PXL decision"
    },
    "value" : "307.0"
  }, {
    "tags" : {
      "im.dstype" : "counter",
      "im.metric-type" : "ts",
      "im.name" : "packet-drop-counter",
      "name" : "Session control"
    },
    "value" : "385.0"
  }, {
    "tags" : {
      "im.dstype" : "counter",
      "im.metric-type" : "ts",
      "im.name" : "packet-drop-counter",
      "name" : "VPN forwarding"
    },
    "value" : "301.0"
  }, {
    "tags" : {
      "im.dstype" : "counter",
      "im.metric-type" : "ts",
      "im.name" : "packet-drop-counter",
      "name" : "XMT error"
    },
    "value" : "374.0"
  }, {
    "tags" : {
      "im.dstype" : "counter",
      "im.metric-type" : "ts",
      "im.name" : "packet-drop-counter",
      "name" : "anti spoofing"
    },
    "value" : "294.0"
  }, {
    "tags" : {
      "im.dstype" : "counter",
      "im.metric-type" : "ts",
      "im.name" : "packet-drop-counter",
      "name" : "clr pkt on vpn"
    },
    "value" : "70.0"
  }, {
    "tags" : {
      "im.dstype" : "counter",
      "im.metric-type" : "ts",
      "im.name" : "packet-drop-counter",
      "name" : "cluster error"
    },
    "value" : "402.0"
  }, {
    "tags" : {
      "im.dstype" : "counter",
      "im.metric-type" : "ts",
      "im.name" : "packet-drop-counter",
      "name" : "corrupted packet"
    },
    "value" : "500.0"
  }, {
    "tags" : {
      "im.dstype" : "counter",
      "im.metric-type" : "ts",
      "im.name" : "packet-drop-counter",
      "name" : "decrypt failed"
    },
    "value" : "21.0"
  }, {
    "tags" : {
      "im.dstype" : "counter",
      "im.metric-type" : "ts",
      "im.name" : "packet-drop-counter",
      "name" : "drop template"
    },
    "value" : "396.0"
  }, {
    "tags" : {
      "im.dstype" : "counter",
      "im.metric-type" : "ts",
      "im.name" : "packet-drop-counter",
      "name" : "encrypt failed"
    },
    "value" : "50.0"
  }, {
    "tags" : {
      "im.dstype" : "counter",
      "im.metric-type" : "ts",
      "im.name" : "packet-drop-counter",
      "name" : "fragment error"
    },
    "value" : "17.0"
  }, {
    "tags" : {
      "im.dstype" : "counter",
      "im.metric-type" : "ts",
      "im.name" : "packet-drop-counter",
      "name" : "general reason"
    },
    "value" : "15.0"
  }, {
    "tags" : {
      "im.dstype" : "counter",
      "im.metric-type" : "ts",
      "im.name" : "packet-drop-counter",
      "name" : "hl - TCP viol"
    },
    "value" : "385.0"
  }, {
    "tags" : {
      "im.dstype" : "counter",
      "im.metric-type" : "ts",
      "im.name" : "packet-drop-counter",
      "name" : "hl - new conn"
    },
    "value" : "679.0"
  }, {
    "tags" : {
      "im.dstype" : "counter",
      "im.metric-type" : "ts",
      "im.name" : "packet-drop-counter",
      "name" : "hl - spoof viol"
    },
    "value" : "584.0"
  }, {
    "tags" : {
      "im.dstype" : "counter",
      "im.metric-type" : "ts",
      "im.name" : "packet-drop-counter",
      "name" : "interface down"
    },
    "value" : "612.0"
  }, {
    "tags" : {
      "im.dstype" : "counter",
      "im.metric-type" : "ts",
      "im.name" : "packet-drop-counter",
      "name" : "local spoofing"
    },
    "value" : "202.0"
  }, {
    "tags" : {
      "im.dstype" : "counter",
      "im.metric-type" : "ts",
      "im.name" : "packet-drop-counter",
      "name" : "monitored spoofed"
    },
    "value" : "105.0"
  }, {
    "tags" : {
      "im.dstype" : "counter",
      "im.metric-type" : "ts",
      "im.name" : "packet-drop-counter",
      "name" : "outb - no conn"
    },
    "value" : "385.0"
  }, {
    "tags" : {
      "im.dstype" : "counter",
      "im.metric-type" : "ts",
      "im.name" : "packet-drop-counter",
      "name" : "partial conn"
    },
    "value" : "287.0"
  }, {
    "tags" : {
      "im.dstype" : "counter",
      "im.metric-type" : "ts",
      "im.name" : "packet-drop-counter",
      "name" : "sanity error"
    },
    "value" : "750.0"
  }, {
    "tags" : {
      "im.dstype" : "counter",
      "im.metric-type" : "ts",
      "im.name" : "packet-drop-counter",
      "name" : "template quota"
    },
    "value" : "679.0"
  } ]
}
