{
  "command" : "cpembedded-show-timezone",
  "metrics" : [ {
    "tags" : {
      "im.metric-type" : "runtime",
      "im.name" : "timezone"
    },
    "value" : {
      "value" : "GMT-05:00(Bogota/Lima/Quito/Rio-Branco)"
    }
  } ]
}
