{
  "command" : "ios-show-version",
  "metrics" : [ {
    "tags" : {
      "im.metric-type" : "runtime",
      "im.name" : "os-name"
    },
    "value" : {
      "value" : "ios"
    }
  }, {
    "tags" : {
      "im.metric-type" : "runtime",
      "im.name" : "os-version"
    },
    "value" : {
      "value" : "15.2(4)S5"
    }
  }, {
    "tags" : {
      "im.metric-type" : "runtime",
      "im.name" : "vendor"
    },
    "value" : {
      "value" : "cisco"
    }
  }, {
    "tags" : {
      "display-name" : "Uptime",
      "im.dstype" : "gauge",
      "im.dstype.displaytype" : "duration",
      "im.metric-type" : "ts",
      "im.name" : "uptime-seconds",
      "live-config" : "true"
    },
    "value" : "133200.0"
  } ]
}
