{
  "command" : "ios-show-processes-memory",
  "metrics" : [ {
    "tags" : {
      "im.dstype" : "gauge",
      "im.metric-type" : "ts",
      "im.name" : "process-memory",
      "name" : "0",
      "process-name" : "*Dead*"
    },
    "value" : "0.16989880895039156"
  }, {
    "tags" : {
      "im.dstype" : "gauge",
      "im.metric-type" : "ts",
      "im.name" : "process-memory",
      "name" : "0",
      "process-name" : "*Init*"
    },
    "value" : "12.61993607911498"
  }, {
    "tags" : {
      "im.dstype" : "gauge",
      "im.metric-type" : "ts",
      "im.name" : "process-memory",
      "name" : "0",
      "process-name" : "*MallocLite*"
    },
    "value" : "0.09951344112356768"
  }, {
    "tags" : {
      "im.dstype" : "gauge",
      "im.metric-type" : "ts",
      "im.name" : "process-memory",
      "name" : "0",
      "process-name" : "*Sched*"
    },
    "value" : "0.0030370932914520216"
  }, {
    "tags" : {
      "im.dstype" : "gauge",
      "im.metric-type" : "ts",
      "im.name" : "process-memory",
      "name" : "1",
      "process-name" : "Chunk Manager"
    },
    "value" : "0.020891734337416066"
  }, {
    "tags" : {
      "im.dstype" : "gauge",
      "im.metric-type" : "ts",
      "im.name" : "process-memory",
      "name" : "10",
      "process-name" : "ARP Input"
    },
    "value" : "0.011064776986481529"
  }, {
    "tags" : {
      "im.dstype" : "gauge",
      "im.metric-type" : "ts",
      "im.name" : "process-memory",
      "name" : "100",
      "process-name" : "PPP IP Route"
    },
    "value" : "0.003342516214555229"
  }, {
    "tags" : {
      "im.dstype" : "gauge",
      "im.metric-type" : "ts",
      "im.name" : "process-memory",
      "name" : "101",
      "process-name" : "SSH Event handle"
    },
    "value" : "0.003911026210034465"
  }, {
    "tags" : {
      "im.dstype" : "gauge",
      "im.metric-type" : "ts",
      "im.name" : "process-memory",
      "name" : "102",
      "process-name" : "SSM connection m"
    },
    "value" : "0.003342516214555229"
  }, {
    "tags" : {
      "im.dstype" : "gauge",
      "im.metric-type" : "ts",
      "im.name" : "process-memory",
      "name" : "103",
      "process-name" : "Spanning Tree"
    },
    "value" : "0.0018910013324805817"
  }, {
    "tags" : {
      "im.dstype" : "gauge",
      "im.metric-type" : "ts",
      "im.name" : "process-memory",
      "name" : "104",
      "process-name" : "VRRS"
    },
    "value" : "0.0018305215457274716"
  }, {
    "tags" : {
      "im.dstype" : "gauge",
      "im.metric-type" : "ts",
      "im.name" : "process-memory",
      "name" : "105",
      "process-name" : "CEF switching ba"
    },
    "value" : "0.0033989640155247984"
  }, {
    "tags" : {
      "im.dstype" : "gauge",
      "im.metric-type" : "ts",
      "im.name" : "process-memory",
      "name" : "106",
      "process-name" : "ADJ NSF process"
    },
    "value" : "0.0011309720122831624"
  }, {
    "tags" : {
      "im.dstype" : "gauge",
      "im.metric-type" : "ts",
      "im.name" : "process-memory",
      "name" : "107",
      "process-name" : "ATM OAM Input"
    },
    "value" : "0.003342516214555229"
  }, {
    "tags" : {
      "im.dstype" : "gauge",
      "im.metric-type" : "ts",
      "im.name" : "process-memory",
      "name" : "108",
      "process-name" : "ATM OAM TIMER"
    },
    "value" : "0.003342516214555229"
  }, {
    "tags" : {
      "im.dstype" : "gauge",
      "im.metric-type" : "ts",
      "im.name" : "process-memory",
      "name" : "109",
      "process-name" : "MOP Protocols"
    },
    "value" : "0.0018305215457274716"
  }, {
    "tags" : {
      "im.dstype" : "gauge",
      "im.metric-type" : "ts",
      "im.name" : "process-memory",
      "name" : "11",
      "process-name" : "ARP Background"
    },
    "value" : "0.0018305215457274716"
  }, {
    "tags" : {
      "im.dstype" : "gauge",
      "im.metric-type" : "ts",
      "im.name" : "process-memory",
      "name" : "110",
      "process-name" : "SSS Manager"
    },
    "value" : "0.003342516214555229"
  }, {
    "tags" : {
      "im.dstype" : "gauge",
      "im.metric-type" : "ts",
      "im.name" : "process-memory",
      "name" : "111",
      "process-name" : "SSS Policy Manag"
    },
    "value" : "0.003342516214555229"
  }, {
    "tags" : {
      "im.dstype" : "gauge",
      "im.metric-type" : "ts",
      "im.name" : "process-memory",
      "name" : "112",
      "process-name" : "SSS Feature Mana"
    },
    "value" : "0.0018305215457274716"
  }, {
    "tags" : {
      "im.dstype" : "gauge",
      "im.metric-type" : "ts",
      "im.name" : "process-memory",
      "name" : "113",
      "process-name" : "SSS Feature Time"
    },
    "value" : "0.0018305215457274716"
  }, {
    "tags" : {
      "im.dstype" : "gauge",
      "im.metric-type" : "ts",
      "im.name" : "process-memory",
      "name" : "114",
      "process-name" : "SSS PM SHIM QOS"
    },
    "value" : "0.003342516214555229"
  }, {
    "tags" : {
      "im.dstype" : "gauge",
      "im.metric-type" : "ts",
      "im.name" : "process-memory",
      "name" : "115",
      "process-name" : "Timer handler fo"
    },
    "value" : "0.0018305215457274716"
  }, {
    "tags" : {
      "im.dstype" : "gauge",
      "im.metric-type" : "ts",
      "im.name" : "process-memory",
      "name" : "116",
      "process-name" : "Prepaid response"
    },
    "value" : "0.0018305215457274716"
  }, {
    "tags" : {
      "im.dstype" : "gauge",
      "im.metric-type" : "ts",
      "im.name" : "process-memory",
      "name" : "117",
      "process-name" : "Timed Policy act"
    },
    "value" : "0.0018305215457274716"
  }, {
    "tags" : {
      "im.dstype" : "gauge",
      "im.metric-type" : "ts",
      "im.name" : "process-memory",
      "name" : "118",
      "process-name" : "AAA response han"
    },
    "value" : "0.0018305215457274716"
  }, {
    "tags" : {
      "im.dstype" : "gauge",
      "im.metric-type" : "ts",
      "im.name" : "process-memory",
      "name" : "119",
      "process-name" : "KRB5 AAA"
    },
    "value" : "0.003342516214555229"
  }, {
    "tags" : {
      "im.dstype" : "gauge",
      "im.metric-type" : "ts",
      "im.name" : "process-memory",
      "name" : "12",
      "process-name" : "ATM Idle Timer"
    },
    "value" : "0.0018305215457274716"
  }, {
    "tags" : {
      "im.dstype" : "gauge",
      "im.metric-type" : "ts",
      "im.name" : "process-memory",
      "name" : "120",
      "process-name" : "delayed evt hand"
    },
    "value" : "0.0018305215457274716"
  }, {
    "tags" : {
      "im.dstype" : "gauge",
      "im.metric-type" : "ts",
      "im.name" : "process-memory",
      "name" : "121",
      "process-name" : "AC Switch"
    },
    "value" : "0.0018305215457274716"
  }, {
    "tags" : {
      "im.dstype" : "gauge",
      "im.metric-type" : "ts",
      "im.name" : "process-memory",
      "name" : "122",
      "process-name" : "ISG CMD HANDLER"
    },
    "value" : "0.0018305215457274716"
  }, {
    "tags" : {
      "im.dstype" : "gauge",
      "im.metric-type" : "ts",
      "im.name" : "process-memory",
      "name" : "123",
      "process-name" : "IP Lite session"
    },
    "value" : "0.0018305215457274716"
  }, {
    "tags" : {
      "im.dstype" : "gauge",
      "im.metric-type" : "ts",
      "im.name" : "process-memory",
      "name" : "124",
      "process-name" : "IP PORTBUNDLE"
    },
    "value" : "0.0037467227893551824"
  }, {
    "tags" : {
      "im.dstype" : "gauge",
      "im.metric-type" : "ts",
      "im.name" : "process-memory",
      "name" : "125",
      "process-name" : "IP Static Sessio"
    },
    "value" : "0.003342516214555229"
  }, {
    "tags" : {
      "im.dstype" : "gauge",
      "im.metric-type" : "ts",
      "im.name" : "process-memory",
      "name" : "126",
      "process-name" : "RADIUS Proxy"
    },
    "value" : "0.0018305215457274716"
  }, {
    "tags" : {
      "im.dstype" : "gauge",
      "im.metric-type" : "ts",
      "im.name" : "process-memory",
      "name" : "127",
      "process-name" : "FRR Background P"
    },
    "value" : "0.0018305215457274716"
  }, {
    "tags" : {
      "im.dstype" : "gauge",
      "im.metric-type" : "ts",
      "im.name" : "process-memory",
      "name" : "128",
      "process-name" : "CEF background p"
    },
    "value" : "0.006174986227492561"
  }, {
    "tags" : {
      "im.dstype" : "gauge",
      "im.metric-type" : "ts",
      "im.name" : "process-memory",
      "name" : "129",
      "process-name" : "fib_fib_bfd_sb e"
    },
    "value" : "0.0033989640155247984"
  }, {
    "tags" : {
      "im.dstype" : "gauge",
      "im.metric-type" : "ts",
      "im.name" : "process-memory",
      "name" : "13",
      "process-name" : "ATM ASYNC PROC"
    },
    "value" : "0.0018305215457274716"
  }, {
    "tags" : {
      "im.dstype" : "gauge",
      "im.metric-type" : "ts",
      "im.name" : "process-memory",
      "name" : "130",
      "process-name" : "IP IRDP"
    },
    "value" : "0.0025865188801413503"
  }, {
    "tags" : {
      "im.dstype" : "gauge",
      "im.metric-type" : "ts",
      "im.name" : "process-memory",
      "name" : "131",
      "process-name" : "SNMP Timers"
    },
    "value" : "0.0018476574853075194"
  }, {
    "tags" : {
      "im.dstype" : "gauge",
      "im.metric-type" : "ts",
      "im.name" : "process-memory",
      "name" : "132",
      "process-name" : "Routing Topology"
    },
    "value" : "0.003342516214555229"
  }, {
    "tags" : {
      "im.dstype" : "gauge",
      "im.metric-type" : "ts",
      "im.name" : "process-memory",
      "name" : "133",
      "process-name" : "IP RIB Update"
    },
    "value" : "0.01633357440912332"
  }, {
    "tags" : {
      "im.dstype" : "gauge",
      "im.metric-type" : "ts",
      "im.name" : "process-memory",
      "name" : "134",
      "process-name" : "IP Background"
    },
    "value" : "0.01099119324593191"
  }, {
    "tags" : {
      "im.dstype" : "gauge",
      "im.metric-type" : "ts",
      "im.name" : "process-memory",
      "name" : "135",
      "process-name" : "IP Connected Rou"
    },
    "value" : "0.013390224787138619"
  }, {
    "tags" : {
      "im.dstype" : "gauge",
      "im.metric-type" : "ts",
      "im.name" : "process-memory",
      "name" : "136",
      "process-name" : "CDP Protocol"
    },
    "value" : "0.15009873476386912"
  }, {
    "tags" : {
      "im.dstype" : "gauge",
      "im.metric-type" : "ts",
      "im.name" : "process-memory",
      "name" : "138",
      "process-name" : "IP Traceroute"
    },
    "value" : "0.0018305215457274716"
  }, {
    "tags" : {
      "im.dstype" : "gauge",
      "im.metric-type" : "ts",
      "im.name" : "process-memory",
      "name" : "139",
      "process-name" : "Socket Timers"
    },
    "value" : "0.0018305215457274716"
  }, {
    "tags" : {
      "im.dstype" : "gauge",
      "im.metric-type" : "ts",
      "im.name" : "process-memory",
      "name" : "14",
      "process-name" : "AAA_SERVER_DEADT"
    },
    "value" : "0.0018305215457274716"
  }, {
    "tags" : {
      "im.dstype" : "gauge",
      "im.metric-type" : "ts",
      "im.name" : "process-memory",
      "name" : "140",
      "process-name" : "Service Routing"
    },
    "value" : "0.0019494651263419218"
  }, {
    "tags" : {
      "im.dstype" : "gauge",
      "im.metric-type" : "ts",
      "im.name" : "process-memory",
      "name" : "141",
      "process-name" : "SR CapMan Proces"
    },
    "value" : "0.004267856951877817"
  }, {
    "tags" : {
      "im.dstype" : "gauge",
      "im.metric-type" : "ts",
      "im.name" : "process-memory",
      "name" : "142",
      "process-name" : "Flow Exporter Ti"
    },
    "value" : "0.0018305215457274716"
  }, {
    "tags" : {
      "im.dstype" : "gauge",
      "im.metric-type" : "ts",
      "im.name" : "process-memory",
      "name" : "143",
      "process-name" : "TCP Timer"
    },
    "value" : "0.003342516214555229"
  }, {
    "tags" : {
      "im.dstype" : "gauge",
      "im.metric-type" : "ts",
      "im.name" : "process-memory",
      "name" : "144",
      "process-name" : "TCP Protocols"
    },
    "value" : "0.003342516214555229"
  }, {
    "tags" : {
      "im.dstype" : "gauge",
      "im.metric-type" : "ts",
      "im.name" : "process-memory",
      "name" : "145",
      "process-name" : "HTTP CORE"
    },
    "value" : "0.005755659706004329"
  }, {
    "tags" : {
      "im.dstype" : "gauge",
      "im.metric-type" : "ts",
      "im.name" : "process-memory",
      "name" : "146",
      "process-name" : "Tunnel FIB"
    },
    "value" : "0.00264296668111092"
  }, {
    "tags" : {
      "im.dstype" : "gauge",
      "im.metric-type" : "ts",
      "im.name" : "process-memory",
      "name" : "147",
      "process-name" : "HQF Output Shape"
    },
    "value" : "0.0018305215457274716"
  }, {
    "tags" : {
      "im.dstype" : "gauge",
      "im.metric-type" : "ts",
      "im.name" : "process-memory",
      "name" : "148",
      "process-name" : "HQF Input Shaper"
    },
    "value" : "0.0018305215457274716"
  }, {
    "tags" : {
      "im.dstype" : "gauge",
      "im.metric-type" : "ts",
      "im.name" : "process-memory",
      "name" : "149",
      "process-name" : "CEF: IPv4 proces"
    },
    "value" : "0.0033989640155247984"
  }, {
    "tags" : {
      "im.dstype" : "gauge",
      "im.metric-type" : "ts",
      "im.name" : "process-memory",
      "name" : "15",
      "process-name" : "Policy Manager"
    },
    "value" : "0.003342516214555229"
  }, {
    "tags" : {
      "im.dstype" : "gauge",
      "im.metric-type" : "ts",
      "im.name" : "process-memory",
      "name" : "150",
      "process-name" : "ADJ background"
    },
    "value" : "0.0018869693466970411"
  }, {
    "tags" : {
      "im.dstype" : "gauge",
      "im.metric-type" : "ts",
      "im.name" : "process-memory",
      "name" : "151",
      "process-name" : "Collection proce"
    },
    "value" : "0.0033989640155247984"
  }, {
    "tags" : {
      "im.dstype" : "gauge",
      "im.metric-type" : "ts",
      "im.name" : "process-memory",
      "name" : "152",
      "process-name" : "GLBP"
    },
    "value" : "0.009855181251419322"
  }, {
    "tags" : {
      "im.dstype" : "gauge",
      "im.metric-type" : "ts",
      "im.name" : "process-memory",
      "name" : "153",
      "process-name" : "GLBP Input"
    },
    "value" : "0.0040924655702937966"
  }, {
    "tags" : {
      "im.dstype" : "gauge",
      "im.metric-type" : "ts",
      "im.name" : "process-memory",
      "name" : "154",
      "process-name" : "MFIB Master back"
    },
    "value" : "0.0033989640155247984"
  }, {
    "tags" : {
      "im.dstype" : "gauge",
      "im.metric-type" : "ts",
      "im.name" : "process-memory",
      "name" : "155",
      "process-name" : "Multicast Offloa"
    },
    "value" : "0.0026469986668944605"
  }, {
    "tags" : {
      "im.dstype" : "gauge",
      "im.metric-type" : "ts",
      "im.name" : "process-memory",
      "name" : "156",
      "process-name" : "MVPN mgr Process"
    },
    "value" : "0.0026469986668944605"
  }, {
    "tags" : {
      "im.dstype" : "gauge",
      "im.metric-type" : "ts",
      "im.name" : "process-memory",
      "name" : "157",
      "process-name" : "static"
    },
    "value" : "0.0025865188801413503"
  }, {
    "tags" : {
      "im.dstype" : "gauge",
      "im.metric-type" : "ts",
      "im.name" : "process-memory",
      "name" : "158",
      "process-name" : "IPv6 RIB Cleanup"
    },
    "value" : "0.0025865188801413503"
  }, {
    "tags" : {
      "im.dstype" : "gauge",
      "im.metric-type" : "ts",
      "im.name" : "process-memory",
      "name" : "159",
      "process-name" : "IPv6 RIB Event H"
    },
    "value" : "0.0025865188801413503"
  }, {
    "tags" : {
      "im.dstype" : "gauge",
      "im.metric-type" : "ts",
      "im.name" : "process-memory",
      "name" : "16",
      "process-name" : "Entity MIB API"
    },
    "value" : "0.006321145712145911"
  }, {
    "tags" : {
      "im.dstype" : "gauge",
      "im.metric-type" : "ts",
      "im.name" : "process-memory",
      "name" : "160",
      "process-name" : "VPWS Thread"
    },
    "value" : "0.0026550626384615416"
  }, {
    "tags" : {
      "im.dstype" : "gauge",
      "im.metric-type" : "ts",
      "im.name" : "process-memory",
      "name" : "161",
      "process-name" : "LFDp Input Proc"
    },
    "value" : "0.0022175921809473773"
  }, {
    "tags" : {
      "im.dstype" : "gauge",
      "im.metric-type" : "ts",
      "im.name" : "process-memory",
      "name" : "162",
      "process-name" : "QoS stats proces"
    },
    "value" : "0.0018305215457274716"
  }, {
    "tags" : {
      "im.dstype" : "gauge",
      "im.metric-type" : "ts",
      "im.name" : "process-memory",
      "name" : "163",
      "process-name" : "SCTP Main Proces"
    },
    "value" : "0.006683016436218687"
  }, {
    "tags" : {
      "im.dstype" : "gauge",
      "im.metric-type" : "ts",
      "im.name" : "process-memory",
      "name" : "164",
      "process-name" : "PPP Compress Inp"
    },
    "value" : "0.0018305215457274716"
  }, {
    "tags" : {
      "im.dstype" : "gauge",
      "im.metric-type" : "ts",
      "im.name" : "process-memory",
      "name" : "165",
      "process-name" : "PPP Compress Res"
    },
    "value" : "0.0018305215457274716"
  }, {
    "tags" : {
      "im.dstype" : "gauge",
      "im.metric-type" : "ts",
      "im.name" : "process-memory",
      "name" : "166",
      "process-name" : "ADJ resolve proc"
    },
    "value" : "0.0033989640155247984"
  }, {
    "tags" : {
      "im.dstype" : "gauge",
      "im.metric-type" : "ts",
      "im.name" : "process-memory",
      "name" : "167",
      "process-name" : "COPS"
    },
    "value" : "0.01567636072640619"
  }, {
    "tags" : {
      "im.dstype" : "gauge",
      "im.metric-type" : "ts",
      "im.name" : "process-memory",
      "name" : "168",
      "process-name" : "Dialer Forwarder"
    },
    "value" : "0.0018305215457274716"
  }, {
    "tags" : {
      "im.dstype" : "gauge",
      "im.metric-type" : "ts",
      "im.name" : "process-memory",
      "name" : "169",
      "process-name" : "RARP Input"
    },
    "value" : "0.0018305215457274716"
  }, {
    "tags" : {
      "im.dstype" : "gauge",
      "im.metric-type" : "ts",
      "im.name" : "process-memory",
      "name" : "17",
      "process-name" : "PrstVbl"
    },
    "value" : "0.0025129351395917327"
  }, {
    "tags" : {
      "im.dstype" : "gauge",
      "im.metric-type" : "ts",
      "im.name" : "process-memory",
      "name" : "170",
      "process-name" : "PPP NBF"
    },
    "value" : "0.0018305215457274716"
  }, {
    "tags" : {
      "im.dstype" : "gauge",
      "im.metric-type" : "ts",
      "im.name" : "process-memory",
      "name" : "171",
      "process-name" : "PfR BR Learn"
    },
    "value" : "0.0011350039980667032"
  }, {
    "tags" : {
      "im.dstype" : "gauge",
      "im.metric-type" : "ts",
      "im.name" : "process-memory",
      "name" : "172",
      "process-name" : "PAD InCall"
    },
    "value" : "0.0018305215457274716"
  }, {
    "tags" : {
      "im.dstype" : "gauge",
      "im.metric-type" : "ts",
      "im.name" : "process-memory",
      "name" : "173",
      "process-name" : "X.25 Background"
    },
    "value" : "0.003342516214555229"
  }, {
    "tags" : {
      "im.dstype" : "gauge",
      "im.metric-type" : "ts",
      "im.name" : "process-memory",
      "name" : "174",
      "process-name" : "X.25 Encaps Mana"
    },
    "value" : "0.0018305215457274716"
  }, {
    "tags" : {
      "im.dstype" : "gauge",
      "im.metric-type" : "ts",
      "im.name" : "process-memory",
      "name" : "175",
      "process-name" : "RBSCP Background"
    },
    "value" : "0.0018305215457274716"
  }, {
    "tags" : {
      "im.dstype" : "gauge",
      "im.metric-type" : "ts",
      "im.name" : "process-memory",
      "name" : "176",
      "process-name" : "VPDN call manage"
    },
    "value" : "0.003342516214555229"
  }, {
    "tags" : {
      "im.dstype" : "gauge",
      "im.metric-type" : "ts",
      "im.name" : "process-memory",
      "name" : "177",
      "process-name" : "XC RIB MGR"
    },
    "value" : "0.0018305215457274716"
  }, {
    "tags" : {
      "im.dstype" : "gauge",
      "im.metric-type" : "ts",
      "im.name" : "process-memory",
      "name" : "178",
      "process-name" : "ac_atm_state_eve"
    },
    "value" : "0.0018305215457274716"
  }, {
    "tags" : {
      "im.dstype" : "gauge",
      "im.metric-type" : "ts",
      "im.name" : "process-memory",
      "name" : "179",
      "process-name" : "ac_atm_mraps_hsp"
    },
    "value" : "0.0018305215457274716"
  }, {
    "tags" : {
      "im.dstype" : "gauge",
      "im.metric-type" : "ts",
      "im.name" : "process-memory",
      "name" : "18",
      "process-name" : "Serial Backgroun"
    },
    "value" : "0.0018305215457274716"
  }, {
    "tags" : {
      "im.dstype" : "gauge",
      "im.metric-type" : "ts",
      "im.name" : "process-memory",
      "name" : "180",
      "process-name" : "L2X Switching Ev"
    },
    "value" : "0.0010745242113135928"
  }, {
    "tags" : {
      "im.dstype" : "gauge",
      "im.metric-type" : "ts",
      "im.name" : "process-memory",
      "name" : "181",
      "process-name" : "IP Inband Sessio"
    },
    "value" : "0.003342516214555229"
  }, {
    "tags" : {
      "im.dstype" : "gauge",
      "im.metric-type" : "ts",
      "im.name" : "process-memory",
      "name" : "182",
      "process-name" : "DHCP SIP"
    },
    "value" : "0.01864894224532156"
  }, {
    "tags" : {
      "im.dstype" : "gauge",
      "im.metric-type" : "ts",
      "im.name" : "process-memory",
      "name" : "183",
      "process-name" : "IP SIP Process"
    },
    "value" : "0.003342516214555229"
  }, {
    "tags" : {
      "im.dstype" : "gauge",
      "im.metric-type" : "ts",
      "im.name" : "process-memory",
      "name" : "184",
      "process-name" : "PMIPV6 Thread"
    },
    "value" : "0.0029695575295777153"
  }, {
    "tags" : {
      "im.dstype" : "gauge",
      "im.metric-type" : "ts",
      "im.name" : "process-memory",
      "name" : "185",
      "process-name" : "AAA Cached Serve"
    },
    "value" : "0.0018305215457274716"
  }, {
    "tags" : {
      "im.dstype" : "gauge",
      "im.metric-type" : "ts",
      "im.name" : "process-memory",
      "name" : "186",
      "process-name" : "EM Background Pr"
    },
    "value" : "0.0018305215457274716"
  }, {
    "tags" : {
      "im.dstype" : "gauge",
      "im.metric-type" : "ts",
      "im.name" : "process-memory",
      "name" : "187",
      "process-name" : "IDMGR CORE"
    },
    "value" : "0.0018305215457274716"
  }, {
    "tags" : {
      "im.dstype" : "gauge",
      "im.metric-type" : "ts",
      "im.name" : "process-memory",
      "name" : "188",
      "process-name" : "Key chain liveke"
    },
    "value" : "0.0018305215457274716"
  }, {
    "tags" : {
      "im.dstype" : "gauge",
      "im.metric-type" : "ts",
      "im.name" : "process-memory",
      "name" : "189",
      "process-name" : "LOCAL AAA"
    },
    "value" : "0.0018305215457274716"
  }, {
    "tags" : {
      "im.dstype" : "gauge",
      "im.metric-type" : "ts",
      "im.name" : "process-memory",
      "name" : "19",
      "process-name" : "RMI RM Notify Wa"
    },
    "value" : "0.0010745242113135928"
  }, {
    "tags" : {
      "im.dstype" : "gauge",
      "im.metric-type" : "ts",
      "im.name" : "process-memory",
      "name" : "190",
      "process-name" : "MPLS Auto Mesh P"
    },
    "value" : "0.003342516214555229"
  }, {
    "tags" : {
      "im.dstype" : "gauge",
      "im.metric-type" : "ts",
      "im.name" : "process-memory",
      "name" : "192",
      "process-name" : "ENABLE AAA"
    },
    "value" : "0.0018305215457274716"
  }, {
    "tags" : {
      "im.dstype" : "gauge",
      "im.metric-type" : "ts",
      "im.name" : "process-memory",
      "name" : "193",
      "process-name" : "LINE AAA"
    },
    "value" : "0.0018305215457274716"
  }, {
    "tags" : {
      "im.dstype" : "gauge",
      "im.metric-type" : "ts",
      "im.name" : "process-memory",
      "name" : "194",
      "process-name" : "TPLUS"
    },
    "value" : "0.002033128831350391"
  }, {
    "tags" : {
      "im.dstype" : "gauge",
      "im.metric-type" : "ts",
      "im.name" : "process-memory",
      "name" : "195",
      "process-name" : "NIST rng proc"
    },
    "value" : "0.002205496223596755"
  }, {
    "tags" : {
      "im.dstype" : "gauge",
      "im.metric-type" : "ts",
      "im.name" : "process-memory",
      "name" : "196",
      "process-name" : "Timer Library"
    },
    "value" : "0.014275245666625799"
  }, {
    "tags" : {
      "im.dstype" : "gauge",
      "im.metric-type" : "ts",
      "im.name" : "process-memory",
      "name" : "197",
      "process-name" : "Crypto Support"
    },
    "value" : "0.0018305215457274716"
  }, {
    "tags" : {
      "im.dstype" : "gauge",
      "im.metric-type" : "ts",
      "im.name" : "process-memory",
      "name" : "198",
      "process-name" : "IPSECv6 PS Proc"
    },
    "value" : "0.0018305215457274716"
  }, {
    "tags" : {
      "im.dstype" : "gauge",
      "im.metric-type" : "ts",
      "im.name" : "process-memory",
      "name" : "199",
      "process-name" : "crypto engine pr"
    },
    "value" : "0.002198440248475559"
  }, {
    "tags" : {
      "im.dstype" : "gauge",
      "im.metric-type" : "ts",
      "im.name" : "process-memory",
      "name" : "2",
      "process-name" : "Load Meter"
    },
    "value" : "0.0010745242113135928"
  }, {
    "tags" : {
      "im.dstype" : "gauge",
      "im.metric-type" : "ts",
      "im.name" : "process-memory",
      "name" : "20",
      "process-name" : "DDR Timers"
    },
    "value" : "0.0018305215457274716"
  }, {
    "tags" : {
      "im.dstype" : "gauge",
      "im.metric-type" : "ts",
      "im.name" : "process-memory",
      "name" : "200",
      "process-name" : "Crypto CA"
    },
    "value" : "0.012587859616214022"
  }, {
    "tags" : {
      "im.dstype" : "gauge",
      "im.metric-type" : "ts",
      "im.name" : "process-memory",
      "name" : "201",
      "process-name" : "Crypto PKI-CRL"
    },
    "value" : "0.003342516214555229"
  }, {
    "tags" : {
      "im.dstype" : "gauge",
      "im.metric-type" : "ts",
      "im.name" : "process-memory",
      "name" : "202",
      "process-name" : "encrypt proc"
    },
    "value" : "0.003342516214555229"
  }, {
    "tags" : {
      "im.dstype" : "gauge",
      "im.metric-type" : "ts",
      "im.name" : "process-memory",
      "name" : "203",
      "process-name" : "crypto sw pk pro"
    },
    "value" : "0.004275920923444898"
  }, {
    "tags" : {
      "im.dstype" : "gauge",
      "im.metric-type" : "ts",
      "im.name" : "process-memory",
      "name" : "204",
      "process-name" : "QOS PERUSER"
    },
    "value" : "0.0025865188801413503"
  }, {
    "tags" : {
      "im.dstype" : "gauge",
      "im.metric-type" : "ts",
      "im.name" : "process-memory",
      "name" : "205",
      "process-name" : "GDOI GM Process"
    },
    "value" : "0.0018305215457274716"
  }, {
    "tags" : {
      "im.dstype" : "gauge",
      "im.metric-type" : "ts",
      "im.name" : "process-memory",
      "name" : "206",
      "process-name" : "UNICAST REKEY"
    },
    "value" : "0.0018305215457274716"
  }, {
    "tags" : {
      "im.dstype" : "gauge",
      "im.metric-type" : "ts",
      "im.name" : "process-memory",
      "name" : "207",
      "process-name" : "UNICAST REKEY AC"
    },
    "value" : "0.0018305215457274716"
  }, {
    "tags" : {
      "im.dstype" : "gauge",
      "im.metric-type" : "ts",
      "im.name" : "process-memory",
      "name" : "208",
      "process-name" : "CRYPTO MAP FREE"
    },
    "value" : "0.0018305215457274716"
  }, {
    "tags" : {
      "im.dstype" : "gauge",
      "im.metric-type" : "ts",
      "im.name" : "process-memory",
      "name" : "209",
      "process-name" : "Crypto INT"
    },
    "value" : "0.003342516214555229"
  }, {
    "tags" : {
      "im.dstype" : "gauge",
      "im.metric-type" : "ts",
      "im.name" : "process-memory",
      "name" : "21",
      "process-name" : "ATM AutoVC Perio"
    },
    "value" : "0.0025865188801413503"
  }, {
    "tags" : {
      "im.dstype" : "gauge",
      "im.metric-type" : "ts",
      "im.name" : "process-memory",
      "name" : "210",
      "process-name" : "Crypto IKE Dispa"
    },
    "value" : "0.003342516214555229"
  }, {
    "tags" : {
      "im.dstype" : "gauge",
      "im.metric-type" : "ts",
      "im.name" : "process-memory",
      "name" : "211",
      "process-name" : "Crypto IKMP"
    },
    "value" : "0.005796987560285622"
  }, {
    "tags" : {
      "im.dstype" : "gauge",
      "im.metric-type" : "ts",
      "im.name" : "process-memory",
      "name" : "212",
      "process-name" : "IPSEC manual key"
    },
    "value" : "0.0025865188801413503"
  }, {
    "tags" : {
      "im.dstype" : "gauge",
      "im.metric-type" : "ts",
      "im.name" : "process-memory",
      "name" : "213",
      "process-name" : "IPSEC key engine"
    },
    "value" : "0.003402996001308339"
  }, {
    "tags" : {
      "im.dstype" : "gauge",
      "im.metric-type" : "ts",
      "im.name" : "process-memory",
      "name" : "214",
      "process-name" : "Crypto ACL"
    },
    "value" : "0.006366505552210743"
  }, {
    "tags" : {
      "im.dstype" : "gauge",
      "im.metric-type" : "ts",
      "im.name" : "process-memory",
      "name" : "215",
      "process-name" : "Crypto PAS Proc"
    },
    "value" : "0.0018305215457274716"
  }, {
    "tags" : {
      "im.dstype" : "gauge",
      "im.metric-type" : "ts",
      "im.name" : "process-memory",
      "name" : "216",
      "process-name" : "IPSec background"
    },
    "value" : "0.003342516214555229"
  }, {
    "tags" : {
      "im.dstype" : "gauge",
      "im.metric-type" : "ts",
      "im.name" : "process-memory",
      "name" : "217",
      "process-name" : "Crypto IKEv2"
    },
    "value" : "0.04099319946125816"
  }, {
    "tags" : {
      "im.dstype" : "gauge",
      "im.metric-type" : "ts",
      "im.name" : "process-memory",
      "name" : "218",
      "process-name" : "IKEv2 AAA handle"
    },
    "value" : "0.0018305215457274716"
  }, {
    "tags" : {
      "im.dstype" : "gauge",
      "im.metric-type" : "ts",
      "im.name" : "process-memory",
      "name" : "219",
      "process-name" : "AAA SEND STOP EV"
    },
    "value" : "0.0018305215457274716"
  }, {
    "tags" : {
      "im.dstype" : "gauge",
      "im.metric-type" : "ts",
      "im.name" : "process-memory",
      "name" : "22",
      "process-name" : "ATM VC Auto Crea"
    },
    "value" : "0.0018305215457274716"
  }, {
    "tags" : {
      "im.dstype" : "gauge",
      "im.metric-type" : "ts",
      "im.name" : "process-memory",
      "name" : "220",
      "process-name" : "Test AAA Client"
    },
    "value" : "0.003342516214555229"
  }, {
    "tags" : {
      "im.dstype" : "gauge",
      "im.metric-type" : "ts",
      "im.name" : "process-memory",
      "name" : "221",
      "process-name" : "EEM ED Syslog"
    },
    "value" : "0.0930330319729719"
  }, {
    "tags" : {
      "im.dstype" : "gauge",
      "im.metric-type" : "ts",
      "im.name" : "process-memory",
      "name" : "222",
      "process-name" : "EEM ED Generic"
    },
    "value" : "0.06947313104329779"
  }, {
    "tags" : {
      "im.dstype" : "gauge",
      "im.metric-type" : "ts",
      "im.name" : "process-memory",
      "name" : "223",
      "process-name" : "EEM ED Track"
    },
    "value" : "0.004331360727968582"
  }, {
    "tags" : {
      "im.dstype" : "gauge",
      "im.metric-type" : "ts",
      "im.name" : "process-memory",
      "name" : "224",
      "process-name" : "EEM ED Routing"
    },
    "value" : "0.004284992891457864"
  }, {
    "tags" : {
      "im.dstype" : "gauge",
      "im.metric-type" : "ts",
      "im.name" : "process-memory",
      "name" : "225",
      "process-name" : "EEM ED Resource"
    },
    "value" : "0.005616556196472175"
  }, {
    "tags" : {
      "im.dstype" : "gauge",
      "im.metric-type" : "ts",
      "im.name" : "process-memory",
      "name" : "227",
      "process-name" : "Syslog Traps"
    },
    "value" : "0.0018305215457274716"
  }, {
    "tags" : {
      "im.dstype" : "gauge",
      "im.metric-type" : "ts",
      "im.name" : "process-memory",
      "name" : "228",
      "process-name" : "RMON Recycle Pro"
    },
    "value" : "0.0018305215457274716"
  }, {
    "tags" : {
      "im.dstype" : "gauge",
      "im.metric-type" : "ts",
      "im.name" : "process-memory",
      "name" : "229",
      "process-name" : "RMON Deferred Se"
    },
    "value" : "0.0018305215457274716"
  }, {
    "tags" : {
      "im.dstype" : "gauge",
      "im.metric-type" : "ts",
      "im.name" : "process-memory",
      "name" : "23",
      "process-name" : "IPC Event Notifi"
    },
    "value" : "0.0018305215457274716"
  }, {
    "tags" : {
      "im.dstype" : "gauge",
      "im.metric-type" : "ts",
      "im.name" : "process-memory",
      "name" : "231",
      "process-name" : "cerf_daemon_proc"
    },
    "value" : "0.0018305215457274716"
  }, {
    "tags" : {
      "im.dstype" : "gauge",
      "im.metric-type" : "ts",
      "im.name" : "process-memory",
      "name" : "232",
      "process-name" : "ISG MIB jobs Man"
    },
    "value" : "0.003342516214555229"
  }, {
    "tags" : {
      "im.dstype" : "gauge",
      "im.metric-type" : "ts",
      "im.name" : "process-memory",
      "name" : "233",
      "process-name" : "IKEv2 FlexVPN Pr"
    },
    "value" : "0.003342516214555229"
  }, {
    "tags" : {
      "im.dstype" : "gauge",
      "im.metric-type" : "ts",
      "im.name" : "process-memory",
      "name" : "234",
      "process-name" : "EEM Server"
    },
    "value" : "0.31519343265317196"
  }, {
    "tags" : {
      "im.dstype" : "gauge",
      "im.metric-type" : "ts",
      "im.name" : "process-memory",
      "name" : "235",
      "process-name" : "Call Home proces"
    },
    "value" : "0.020636711236607118"
  }, {
    "tags" : {
      "im.dstype" : "gauge",
      "im.metric-type" : "ts",
      "im.name" : "process-memory",
      "name" : "236",
      "process-name" : "EEM Policy Direc"
    },
    "value" : "0.0055701883599614576"
  }, {
    "tags" : {
      "im.dstype" : "gauge",
      "im.metric-type" : "ts",
      "im.name" : "process-memory",
      "name" : "237",
      "process-name" : "VRRP"
    },
    "value" : "0.002110744557683549"
  }, {
    "tags" : {
      "im.dstype" : "gauge",
      "im.metric-type" : "ts",
      "im.name" : "process-memory",
      "name" : "238",
      "process-name" : "EEM ED CLI"
    },
    "value" : "0.004280960905674323"
  }, {
    "tags" : {
      "im.dstype" : "gauge",
      "im.metric-type" : "ts",
      "im.name" : "process-memory",
      "name" : "239",
      "process-name" : "EEM ED Counter"
    },
    "value" : "0.004273904930553127"
  }, {
    "tags" : {
      "im.dstype" : "gauge",
      "im.metric-type" : "ts",
      "im.name" : "process-memory",
      "name" : "24",
      "process-name" : "IPC Mcast Pendin"
    },
    "value" : "0.0018305215457274716"
  }, {
    "tags" : {
      "im.dstype" : "gauge",
      "im.metric-type" : "ts",
      "im.name" : "process-memory",
      "name" : "240",
      "process-name" : "EEM ED Interface"
    },
    "value" : "0.004376720568033415"
  }, {
    "tags" : {
      "im.dstype" : "gauge",
      "im.metric-type" : "ts",
      "im.name" : "process-memory",
      "name" : "241",
      "process-name" : "EEM ED IOSWD"
    },
    "value" : "0.004271888937661357"
  }, {
    "tags" : {
      "im.dstype" : "gauge",
      "im.metric-type" : "ts",
      "im.name" : "process-memory",
      "name" : "242",
      "process-name" : "EEM ED None"
    },
    "value" : "0.004254752998081309"
  }, {
    "tags" : {
      "im.dstype" : "gauge",
      "im.metric-type" : "ts",
      "im.name" : "process-memory",
      "name" : "243",
      "process-name" : "EEM ED OIR"
    },
    "value" : "0.004344464681765089"
  }, {
    "tags" : {
      "im.dstype" : "gauge",
      "im.metric-type" : "ts",
      "im.name" : "process-memory",
      "name" : "244",
      "process-name" : "HSRP Common"
    },
    "value" : "0.00848833807079903"
  }, {
    "tags" : {
      "im.dstype" : "gauge",
      "im.metric-type" : "ts",
      "im.name" : "process-memory",
      "name" : "245",
      "process-name" : "EEM ED SNMP"
    },
    "value" : "0.004252737005189538"
  }, {
    "tags" : {
      "im.dstype" : "gauge",
      "im.metric-type" : "ts",
      "im.name" : "process-memory",
      "name" : "246",
      "process-name" : "EEM ED SNMP Obje"
    },
    "value" : "0.004240641047838917"
  }, {
    "tags" : {
      "im.dstype" : "gauge",
      "im.metric-type" : "ts",
      "im.name" : "process-memory",
      "name" : "247",
      "process-name" : "EEM ED SNMP Noti"
    },
    "value" : "0.004284992891457864"
  }, {
    "tags" : {
      "im.dstype" : "gauge",
      "im.metric-type" : "ts",
      "im.name" : "process-memory",
      "name" : "248",
      "process-name" : "EEM ED Timer"
    },
    "value" : "0.004273904930553127"
  }, {
    "tags" : {
      "im.dstype" : "gauge",
      "im.metric-type" : "ts",
      "im.name" : "process-memory",
      "name" : "249",
      "process-name" : "EEM ED Test"
    },
    "value" : "0.004238625054947146"
  }, {
    "tags" : {
      "im.dstype" : "gauge",
      "im.metric-type" : "ts",
      "im.name" : "process-memory",
      "name" : "25",
      "process-name" : "IPC Dynamic Cach"
    },
    "value" : "0.0018305215457274716"
  }, {
    "tags" : {
      "im.dstype" : "gauge",
      "im.metric-type" : "ts",
      "im.name" : "process-memory",
      "name" : "250",
      "process-name" : "EEM ED Config"
    },
    "value" : "0.004238625054947146"
  }, {
    "tags" : {
      "im.dstype" : "gauge",
      "im.metric-type" : "ts",
      "im.name" : "process-memory",
      "name" : "251",
      "process-name" : "EEM ED Env"
    },
    "value" : "0.004238625054947146"
  }, {
    "tags" : {
      "im.dstype" : "gauge",
      "im.metric-type" : "ts",
      "im.name" : "process-memory",
      "name" : "252",
      "process-name" : "HSRP IPv4"
    },
    "value" : "0.010232171922180375"
  }, {
    "tags" : {
      "im.dstype" : "gauge",
      "im.metric-type" : "ts",
      "im.name" : "process-memory",
      "name" : "253",
      "process-name" : "EEM ED Nf"
    },
    "value" : "0.005539948466584903"
  }, {
    "tags" : {
      "im.dstype" : "gauge",
      "im.metric-type" : "ts",
      "im.name" : "process-memory",
      "name" : "254",
      "process-name" : "EEM ED Ipsla"
    },
    "value" : "0.004238625054947146"
  }, {
    "tags" : {
      "im.dstype" : "gauge",
      "im.metric-type" : "ts",
      "im.name" : "process-memory",
      "name" : "255",
      "process-name" : "Syslog"
    },
    "value" : "0.003342516214555229"
  }, {
    "tags" : {
      "im.dstype" : "gauge",
      "im.metric-type" : "ts",
      "im.name" : "process-memory",
      "name" : "256",
      "process-name" : "EEM ED RPC"
    },
    "value" : "0.004324304752847386"
  }, {
    "tags" : {
      "im.dstype" : "gauge",
      "im.metric-type" : "ts",
      "im.name" : "process-memory",
      "name" : "257",
      "process-name" : "RMON Packets"
    },
    "value" : "0.0020966326074411566"
  }, {
    "tags" : {
      "im.dstype" : "gauge",
      "im.metric-type" : "ts",
      "im.name" : "process-memory",
      "name" : "258",
      "process-name" : "IP SLAs Ethernet"
    },
    "value" : "0.0018305215457274716"
  }, {
    "tags" : {
      "im.dstype" : "gauge",
      "im.metric-type" : "ts",
      "im.name" : "process-memory",
      "name" : "259",
      "process-name" : "Net Input"
    },
    "value" : "0.0018305215457274716"
  }, {
    "tags" : {
      "im.dstype" : "gauge",
      "im.metric-type" : "ts",
      "im.name" : "process-memory",
      "name" : "26",
      "process-name" : "IPC Service NonC"
    },
    "value" : "0.0018305215457274716"
  }, {
    "tags" : {
      "im.dstype" : "gauge",
      "im.metric-type" : "ts",
      "im.name" : "process-memory",
      "name" : "260",
      "process-name" : "Compute load avg"
    },
    "value" : "0.0018305215457274716"
  }, {
    "tags" : {
      "im.dstype" : "gauge",
      "im.metric-type" : "ts",
      "im.name" : "process-memory",
      "name" : "261",
      "process-name" : "Per-minute Jobs"
    },
    "value" : "0.0018305215457274716"
  }, {
    "tags" : {
      "im.dstype" : "gauge",
      "im.metric-type" : "ts",
      "im.name" : "process-memory",
      "name" : "262",
      "process-name" : "Per-Second Jobs"
    },
    "value" : "0.0026772385602710155"
  }, {
    "tags" : {
      "im.dstype" : "gauge",
      "im.metric-type" : "ts",
      "im.name" : "process-memory",
      "name" : "263",
      "process-name" : "MRIB Process"
    },
    "value" : "0.03273166059078329"
  }, {
    "tags" : {
      "im.dstype" : "gauge",
      "im.metric-type" : "ts",
      "im.name" : "process-memory",
      "name" : "264",
      "process-name" : "EEM Helper Threa"
    },
    "value" : "0.00455513593895509"
  }, {
    "tags" : {
      "im.dstype" : "gauge",
      "im.metric-type" : "ts",
      "im.name" : "process-memory",
      "name" : "267",
      "process-name" : "Inter Chassis Pr"
    },
    "value" : "0.0018063296310262273"
  }, {
    "tags" : {
      "im.dstype" : "gauge",
      "im.metric-type" : "ts",
      "im.name" : "process-memory",
      "name" : "27",
      "process-name" : "IPC Zone Manager"
    },
    "value" : "0.0018305215457274716"
  }, {
    "tags" : {
      "im.dstype" : "gauge",
      "im.metric-type" : "ts",
      "im.name" : "process-memory",
      "name" : "28",
      "process-name" : "IPC Periodic Tim"
    },
    "value" : "0.0018305215457274716"
  }, {
    "tags" : {
      "im.dstype" : "gauge",
      "im.metric-type" : "ts",
      "im.name" : "process-memory",
      "name" : "29",
      "process-name" : "IPC Deferred Por"
    },
    "value" : "0.0018305215457274716"
  }, {
    "tags" : {
      "im.dstype" : "gauge",
      "im.metric-type" : "ts",
      "im.name" : "process-memory",
      "name" : "3",
      "process-name" : "Exec"
    },
    "value" : "0.46649672316987384"
  }, {
    "tags" : {
      "im.dstype" : "gauge",
      "im.metric-type" : "ts",
      "im.name" : "process-memory",
      "name" : "30",
      "process-name" : "IPC Process leve"
    },
    "value" : "0.0018305215457274716"
  }, {
    "tags" : {
      "im.dstype" : "gauge",
      "im.metric-type" : "ts",
      "im.name" : "process-memory",
      "name" : "31",
      "process-name" : "IPC Seat Manager"
    },
    "value" : "0.0023607276762630715"
  }, {
    "tags" : {
      "im.dstype" : "gauge",
      "im.metric-type" : "ts",
      "im.name" : "process-memory",
      "name" : "32",
      "process-name" : "IPC Check Queue"
    },
    "value" : "0.0018305215457274716"
  }, {
    "tags" : {
      "im.dstype" : "gauge",
      "im.metric-type" : "ts",
      "im.name" : "process-memory",
      "name" : "33",
      "process-name" : "IPC Seat RX Cont"
    },
    "value" : "0.0018305215457274716"
  }, {
    "tags" : {
      "im.dstype" : "gauge",
      "im.metric-type" : "ts",
      "im.name" : "process-memory",
      "name" : "34",
      "process-name" : "IPC Seat TX Cont"
    },
    "value" : "0.0018305215457274716"
  }, {
    "tags" : {
      "im.dstype" : "gauge",
      "im.metric-type" : "ts",
      "im.name" : "process-memory",
      "name" : "35",
      "process-name" : "IPC Keep Alive M"
    },
    "value" : "0.0018305215457274716"
  }, {
    "tags" : {
      "im.dstype" : "gauge",
      "im.metric-type" : "ts",
      "im.name" : "process-memory",
      "name" : "36",
      "process-name" : "IPC Loadometer"
    },
    "value" : "0.0018305215457274716"
  }, {
    "tags" : {
      "im.dstype" : "gauge",
      "im.metric-type" : "ts",
      "im.name" : "process-memory",
      "name" : "37",
      "process-name" : "Compute SRP rate"
    },
    "value" : "0.0018305215457274716"
  }, {
    "tags" : {
      "im.dstype" : "gauge",
      "im.metric-type" : "ts",
      "im.name" : "process-memory",
      "name" : "38",
      "process-name" : "EnvMon"
    },
    "value" : "0.004363616614236908"
  }, {
    "tags" : {
      "im.dstype" : "gauge",
      "im.metric-type" : "ts",
      "im.name" : "process-memory",
      "name" : "39",
      "process-name" : "OIR Handler"
    },
    "value" : "0.0018305215457274716"
  }, {
    "tags" : {
      "im.dstype" : "gauge",
      "im.metric-type" : "ts",
      "im.name" : "process-memory",
      "name" : "4",
      "process-name" : "RO Notify Timers"
    },
    "value" : "0.0018305215457274716"
  }, {
    "tags" : {
      "im.dstype" : "gauge",
      "im.metric-type" : "ts",
      "im.name" : "process-memory",
      "name" : "40",
      "process-name" : "Crash writer"
    },
    "value" : "0.006366505552210743"
  }, {
    "tags" : {
      "im.dstype" : "gauge",
      "im.metric-type" : "ts",
      "im.name" : "process-memory",
      "name" : "41",
      "process-name" : "Exception contro"
    },
    "value" : "0.0019192252329653665"
  }, {
    "tags" : {
      "im.dstype" : "gauge",
      "im.metric-type" : "ts",
      "im.name" : "process-memory",
      "name" : "42",
      "process-name" : "ALARM_TRIGGER_SC"
    },
    "value" : "0.0018305215457274716"
  }, {
    "tags" : {
      "im.dstype" : "gauge",
      "im.metric-type" : "ts",
      "im.name" : "process-memory",
      "name" : "43",
      "process-name" : "CEF MIB API"
    },
    "value" : "0.0018305215457274716"
  }, {
    "tags" : {
      "im.dstype" : "gauge",
      "im.metric-type" : "ts",
      "im.name" : "process-memory",
      "name" : "44",
      "process-name" : "GraphIt"
    },
    "value" : "0.0018305215457274716"
  }, {
    "tags" : {
      "im.dstype" : "gauge",
      "im.metric-type" : "ts",
      "im.name" : "process-memory",
      "name" : "45",
      "process-name" : "SERIAL A'detect"
    },
    "value" : "0.0018305215457274716"
  }, {
    "tags" : {
      "im.dstype" : "gauge",
      "im.metric-type" : "ts",
      "im.name" : "process-memory",
      "name" : "46",
      "process-name" : "Dialer event"
    },
    "value" : "0.003342516214555229"
  }, {
    "tags" : {
      "im.dstype" : "gauge",
      "im.metric-type" : "ts",
      "im.name" : "process-memory",
      "name" : "47",
      "process-name" : "SMART"
    },
    "value" : "0.0018305215457274716"
  }, {
    "tags" : {
      "im.dstype" : "gauge",
      "im.metric-type" : "ts",
      "im.name" : "process-memory",
      "name" : "48",
      "process-name" : "RFS server proce"
    },
    "value" : "0.003342516214555229"
  }, {
    "tags" : {
      "im.dstype" : "gauge",
      "im.metric-type" : "ts",
      "im.name" : "process-memory",
      "name" : "49",
      "process-name" : "Critical Bkgnd"
    },
    "value" : "0.0018305215457274716"
  }, {
    "tags" : {
      "im.dstype" : "gauge",
      "im.metric-type" : "ts",
      "im.name" : "process-memory",
      "name" : "5",
      "process-name" : "Check heaps"
    },
    "value" : "0.002950405597105897"
  }, {
    "tags" : {
      "im.dstype" : "gauge",
      "im.metric-type" : "ts",
      "im.name" : "process-memory",
      "name" : "50",
      "process-name" : "Net Background"
    },
    "value" : "0.07961357528890262"
  }, {
    "tags" : {
      "im.dstype" : "gauge",
      "im.metric-type" : "ts",
      "im.name" : "process-memory",
      "name" : "51",
      "process-name" : "IDB Work"
    },
    "value" : "0.003342516214555229"
  }, {
    "tags" : {
      "im.dstype" : "gauge",
      "im.metric-type" : "ts",
      "im.name" : "process-memory",
      "name" : "52",
      "process-name" : "Logger"
    },
    "value" : "0.0046156157257082"
  }, {
    "tags" : {
      "im.dstype" : "gauge",
      "im.metric-type" : "ts",
      "im.name" : "process-memory",
      "name" : "54",
      "process-name" : "IF-MGR control p"
    },
    "value" : "0.0021722323408825445"
  }, {
    "tags" : {
      "im.dstype" : "gauge",
      "im.metric-type" : "ts",
      "im.name" : "process-memory",
      "name" : "55",
      "process-name" : "IF-MGR event pro"
    },
    "value" : "0.0018305215457274716"
  }, {
    "tags" : {
      "im.dstype" : "gauge",
      "im.metric-type" : "ts",
      "im.name" : "process-memory",
      "name" : "56",
      "process-name" : "Inode Table Dest"
    },
    "value" : "0.0010745242113135928"
  }, {
    "tags" : {
      "im.dstype" : "gauge",
      "im.metric-type" : "ts",
      "im.name" : "process-memory",
      "name" : "57",
      "process-name" : "Transport Port A"
    },
    "value" : "0.0018305215457274716"
  }, {
    "tags" : {
      "im.dstype" : "gauge",
      "im.metric-type" : "ts",
      "im.name" : "process-memory",
      "name" : "58",
      "process-name" : "INTR MGR PROCESS"
    },
    "value" : "0.003342516214555229"
  }, {
    "tags" : {
      "im.dstype" : "gauge",
      "im.metric-type" : "ts",
      "im.name" : "process-memory",
      "name" : "59",
      "process-name" : "HC Counter Timer"
    },
    "value" : "0.0018305215457274716"
  }, {
    "tags" : {
      "im.dstype" : "gauge",
      "im.metric-type" : "ts",
      "im.name" : "process-memory",
      "name" : "6",
      "process-name" : "Pool Manager"
    },
    "value" : "0.025704917366517758"
  }, {
    "tags" : {
      "im.dstype" : "gauge",
      "im.metric-type" : "ts",
      "im.name" : "process-memory",
      "name" : "60",
      "process-name" : "EEM ED ND"
    },
    "value" : "0.04407061261054558"
  }, {
    "tags" : {
      "im.dstype" : "gauge",
      "im.metric-type" : "ts",
      "im.name" : "process-memory",
      "name" : "61",
      "process-name" : "FEC_Link_event_h"
    },
    "value" : "0.0018305215457274716"
  }, {
    "tags" : {
      "im.dstype" : "gauge",
      "im.metric-type" : "ts",
      "im.name" : "process-memory",
      "name" : "62",
      "process-name" : "POS APS Event Pr"
    },
    "value" : "0.0018305215457274716"
  }, {
    "tags" : {
      "im.dstype" : "gauge",
      "im.metric-type" : "ts",
      "im.name" : "process-memory",
      "name" : "63",
      "process-name" : "SONET alarm time"
    },
    "value" : "0.0018305215457274716"
  }, {
    "tags" : {
      "im.dstype" : "gauge",
      "im.metric-type" : "ts",
      "im.name" : "process-memory",
      "name" : "64",
      "process-name" : "Hawkeye Backgrou"
    },
    "value" : "0.0018305215457274716"
  }, {
    "tags" : {
      "im.dstype" : "gauge",
      "im.metric-type" : "ts",
      "im.name" : "process-memory",
      "name" : "65",
      "process-name" : "CSP Timer"
    },
    "value" : "0.0018305215457274716"
  }, {
    "tags" : {
      "im.dstype" : "gauge",
      "im.metric-type" : "ts",
      "im.name" : "process-memory",
      "name" : "66",
      "process-name" : "FPD Management P"
    },
    "value" : "0.0018305215457274716"
  }, {
    "tags" : {
      "im.dstype" : "gauge",
      "im.metric-type" : "ts",
      "im.name" : "process-memory",
      "name" : "67",
      "process-name" : "FPD Action Proce"
    },
    "value" : "0.0018305215457274716"
  }, {
    "tags" : {
      "im.dstype" : "gauge",
      "im.metric-type" : "ts",
      "im.name" : "process-memory",
      "name" : "68",
      "process-name" : "Flash MIB Update"
    },
    "value" : "0.0019363611725454145"
  }, {
    "tags" : {
      "im.dstype" : "gauge",
      "im.metric-type" : "ts",
      "im.name" : "process-memory",
      "name" : "69",
      "process-name" : "Flash Card Oir"
    },
    "value" : "0.0010745242113135928"
  }, {
    "tags" : {
      "im.dstype" : "gauge",
      "im.metric-type" : "ts",
      "im.name" : "process-memory",
      "name" : "7",
      "process-name" : "DiscardQ Backgro"
    },
    "value" : "0.0018305215457274716"
  }, {
    "tags" : {
      "im.dstype" : "gauge",
      "im.metric-type" : "ts",
      "im.name" : "process-memory",
      "name" : "70",
      "process-name" : "AAA Server"
    },
    "value" : "0.006839255885330889"
  }, {
    "tags" : {
      "im.dstype" : "gauge",
      "im.metric-type" : "ts",
      "im.name" : "process-memory",
      "name" : "71",
      "process-name" : "AAA ACCT Proc"
    },
    "value" : "0.0018305215457274716"
  }, {
    "tags" : {
      "im.dstype" : "gauge",
      "im.metric-type" : "ts",
      "im.name" : "process-memory",
      "name" : "72",
      "process-name" : "ACCT Periodic Pr"
    },
    "value" : "0.014275245666625799"
  }, {
    "tags" : {
      "im.dstype" : "gauge",
      "im.metric-type" : "ts",
      "im.name" : "process-memory",
      "name" : "73",
      "process-name" : "AAA System Acct"
    },
    "value" : "0.004363616614236908"
  }, {
    "tags" : {
      "im.dstype" : "gauge",
      "im.metric-type" : "ts",
      "im.name" : "process-memory",
      "name" : "74",
      "process-name" : "Call Home Timer"
    },
    "value" : "0.0018305215457274716"
  }, {
    "tags" : {
      "im.dstype" : "gauge",
      "im.metric-type" : "ts",
      "im.name" : "process-memory",
      "name" : "75",
      "process-name" : "AAA Dictionary R"
    },
    "value" : "0.0018305215457274716"
  }, {
    "tags" : {
      "im.dstype" : "gauge",
      "im.metric-type" : "ts",
      "im.name" : "process-memory",
      "name" : "76",
      "process-name" : "EAP Framework"
    },
    "value" : "0.0018305215457274716"
  }, {
    "tags" : {
      "im.dstype" : "gauge",
      "im.metric-type" : "ts",
      "im.name" : "process-memory",
      "name" : "77",
      "process-name" : "EAP Test"
    },
    "value" : "0.0018305215457274716"
  }, {
    "tags" : {
      "im.dstype" : "gauge",
      "im.metric-type" : "ts",
      "im.name" : "process-memory",
      "name" : "78",
      "process-name" : "HQF TUNNEL"
    },
    "value" : "0.0025865188801413503"
  }, {
    "tags" : {
      "im.dstype" : "gauge",
      "im.metric-type" : "ts",
      "im.name" : "process-memory",
      "name" : "79",
      "process-name" : "IPAM/ODAP Events"
    },
    "value" : "0.0018305215457274716"
  }, {
    "tags" : {
      "im.dstype" : "gauge",
      "im.metric-type" : "ts",
      "im.name" : "process-memory",
      "name" : "8",
      "process-name" : "Timers"
    },
    "value" : "0.0018305215457274716"
  }, {
    "tags" : {
      "im.dstype" : "gauge",
      "im.metric-type" : "ts",
      "im.name" : "process-memory",
      "name" : "80",
      "process-name" : "IPAM Manager"
    },
    "value" : "0.015794296310574753"
  }, {
    "tags" : {
      "im.dstype" : "gauge",
      "im.metric-type" : "ts",
      "im.name" : "process-memory",
      "name" : "81",
      "process-name" : "IPAM Events"
    },
    "value" : "0.003342516214555229"
  }, {
    "tags" : {
      "im.dstype" : "gauge",
      "im.metric-type" : "ts",
      "im.name" : "process-memory",
      "name" : "82",
      "process-name" : "IP ARP Adjacency"
    },
    "value" : "0.005947179030722512"
  }, {
    "tags" : {
      "im.dstype" : "gauge",
      "im.metric-type" : "ts",
      "im.name" : "process-memory",
      "name" : "83",
      "process-name" : "IP ARP Retry Age"
    },
    "value" : "0.010160604174522529"
  }, {
    "tags" : {
      "im.dstype" : "gauge",
      "im.metric-type" : "ts",
      "im.name" : "process-memory",
      "name" : "84",
      "process-name" : "IP Input"
    },
    "value" : "0.003342516214555229"
  }, {
    "tags" : {
      "im.dstype" : "gauge",
      "im.metric-type" : "ts",
      "im.name" : "process-memory",
      "name" : "85",
      "process-name" : "ICMP event handl"
    },
    "value" : "0.0018305215457274716"
  }, {
    "tags" : {
      "im.dstype" : "gauge",
      "im.metric-type" : "ts",
      "im.name" : "process-memory",
      "name" : "86",
      "process-name" : "PIM register asy"
    },
    "value" : "0.0018305215457274716"
  }, {
    "tags" : {
      "im.dstype" : "gauge",
      "im.metric-type" : "ts",
      "im.name" : "process-memory",
      "name" : "87",
      "process-name" : "TurboACL"
    },
    "value" : "0.0018305215457274716"
  }, {
    "tags" : {
      "im.dstype" : "gauge",
      "im.metric-type" : "ts",
      "im.name" : "process-memory",
      "name" : "88",
      "process-name" : "TurboACL chunk"
    },
    "value" : "0.0018305215457274716"
  }, {
    "tags" : {
      "im.dstype" : "gauge",
      "im.metric-type" : "ts",
      "im.name" : "process-memory",
      "name" : "89",
      "process-name" : "IPv6 ping proces"
    },
    "value" : "0.0018305215457274716"
  }, {
    "tags" : {
      "im.dstype" : "gauge",
      "im.metric-type" : "ts",
      "im.name" : "process-memory",
      "name" : "9",
      "process-name" : "WATCH_AFS"
    },
    "value" : "0.0010745242113135928"
  }, {
    "tags" : {
      "im.dstype" : "gauge",
      "im.metric-type" : "ts",
      "im.name" : "process-memory",
      "name" : "90",
      "process-name" : "OCE punted Pkts"
    },
    "value" : "0.0018305215457274716"
  }, {
    "tags" : {
      "im.dstype" : "gauge",
      "im.metric-type" : "ts",
      "im.name" : "process-memory",
      "name" : "91",
      "process-name" : "O-UNI Client Msg"
    },
    "value" : "0.0018305215457274716"
  }, {
    "tags" : {
      "im.dstype" : "gauge",
      "im.metric-type" : "ts",
      "im.name" : "process-memory",
      "name" : "92",
      "process-name" : "LSP Tunnel FRR"
    },
    "value" : "0.003342516214555229"
  }, {
    "tags" : {
      "im.dstype" : "gauge",
      "im.metric-type" : "ts",
      "im.name" : "process-memory",
      "name" : "93",
      "process-name" : "MPLS Auto-Tunnel"
    },
    "value" : "0.003342516214555229"
  }, {
    "tags" : {
      "im.dstype" : "gauge",
      "im.metric-type" : "ts",
      "im.name" : "process-memory",
      "name" : "94",
      "process-name" : "st_pw_oam"
    },
    "value" : "0.0228946232753899"
  }, {
    "tags" : {
      "im.dstype" : "gauge",
      "im.metric-type" : "ts",
      "im.name" : "process-memory",
      "name" : "95",
      "process-name" : "AAA EPD HANDLER"
    },
    "value" : "0.0018305215457274716"
  }, {
    "tags" : {
      "im.dstype" : "gauge",
      "im.metric-type" : "ts",
      "im.name" : "process-memory",
      "name" : "96",
      "process-name" : "PM EPD API"
    },
    "value" : "0.0018305215457274716"
  }, {
    "tags" : {
      "im.dstype" : "gauge",
      "im.metric-type" : "ts",
      "im.name" : "process-memory",
      "name" : "97",
      "process-name" : "DM Proc"
    },
    "value" : "0.003342516214555229"
  }, {
    "tags" : {
      "im.dstype" : "gauge",
      "im.metric-type" : "ts",
      "im.name" : "process-memory",
      "name" : "98",
      "process-name" : "PPP SIP"
    },
    "value" : "0.0018305215457274716"
  }, {
    "tags" : {
      "im.dstype" : "gauge",
      "im.metric-type" : "ts",
      "im.name" : "process-memory",
      "name" : "99",
      "process-name" : "PPP Bind"
    },
    "value" : "0.0018305215457274716"
  } ]
}
