{
  "command" : "ios-vrrp-monitoring",
  "metrics" : [ {
    "tags" : {
      "display-name" : "vrrp - This Member State",
      "group-vip" : "192.145.31.254",
      "im.dstype" : "gauge",
      "im.dstype.displaytype" : "state",
      "im.identity-tags" : "name",
      "im.metric-type" : "ts",
      "im.name" : "cluster-member-active",
      "live-config" : "true",
      "name" : "vrrp:FastEthernet2/0.2:32:192.145.32.254"
    },
    "value" : "0.0"
  }, {
    "tags" : {
      "display-name" : "vrrp - This Member State",
      "group-vip" : "192.145.32.254",
      "im.dstype" : "gauge",
      "im.dstype.displaytype" : "state",
      "im.identity-tags" : "name",
      "im.metric-type" : "ts",
      "im.name" : "cluster-member-active",
      "live-config" : "true",
      "name" : "vrrp:FastEthernet2/0.3:33:192.145.33.254"
    },
    "value" : "0.0"
  }, {
    "tags" : {
      "display-name" : "vrrp - Cluster State",
      "group-vip" : "192.145.31.254",
      "im.dstype" : "gauge",
      "im.dstype.displaytype" : "state",
      "im.identity-tags" : "name",
      "im.metric-type" : "ts",
      "im.name" : "cluster-state",
      "live-config" : "true",
      "name" : "vrrp:FastEthernet2/0.1:31:192.145.31.254"
    },
    "value" : "1.0"
  }, {
    "tags" : {
      "display-name" : "vrrp - Cluster State",
      "group-vip" : "192.145.32.254",
      "im.dstype" : "gauge",
      "im.dstype.displaytype" : "state",
      "im.identity-tags" : "name",
      "im.metric-type" : "ts",
      "im.name" : "cluster-state",
      "live-config" : "true",
      "name" : "vrrp:FastEthernet2/0.2:32:192.145.32.254"
    },
    "value" : "0.0"
  }, {
    "tags" : {
      "display-name" : "vrrp - Preemption",
      "group-vip" : "192.145.31.254",
      "im.dstype" : "gauge",
      "im.dstype.displaytype" : "boolean",
      "im.identity-tags" : "name",
      "im.metric-type" : "ts",
      "im.name" : "cluster-preemption-enabled",
      "live-config" : "true",
      "name" : "vrrp:FastEthernet2/0.1:31:192.145.31.254"
    },
    "value" : "0.0"
  }, {
    "tags" : {
      "display-name" : "vrrp - Preemption",
      "group-vip" : "192.145.32.254",
      "im.dstype" : "gauge",
      "im.dstype.displaytype" : "boolean",
      "im.identity-tags" : "name",
      "im.metric-type" : "ts",
      "im.name" : "cluster-preemption-enabled",
      "live-config" : "true",
      "name" : "vrrp:FastEthernet2/0.2:32:192.145.32.254"
    },
    "value" : "1.0"
  }, {
    "tags" : {
      "display-name" : "vrrp - This Member State",
      "im.dstype" : "gauge",
      "im.dstype.displaytype" : "state",
      "im.identity-tags" : "name",
      "im.metric-type" : "ts",
      "im.name" : "cluster-member-active",
      "live-config" : "true",
      "name" : "vrrp:FastEthernet2/0.1:31:192.145.31.254"
    },
    "value" : "1.0"
  }, {
    "tags" : {
      "display-name" : "vrrp - Preemption",
      "group-vip" : "192.145.33.254",
      "im.dstype" : "gauge",
      "im.dstype.displaytype" : "boolean",
      "im.identity-tags" : "name",
      "im.metric-type" : "ts",
      "im.name" : "cluster-preemption-enabled",
      "live-config" : "true",
      "name" : "vrrp:FastEthernet2/0.3:33:192.145.33.254"
    },
    "value" : "1.0"
  }, {
    "tags" : {
      "display-name" : "vrrp - Cluster State",
      "group-vip" : "192.145.33.254",
      "im.dstype" : "gauge",
      "im.dstype.displaytype" : "state",
      "im.identity-tags" : "name",
      "im.metric-type" : "ts",
      "im.name" : "cluster-state",
      "live-config" : "true",
      "name" : "vrrp:FastEthernet2/0.3:33:192.145.33.254"
    },
    "value" : "0.0"
  } ]
}
