{
  "command" : "chkp-os-dst-cache",
  "metrics" : [ {
    "tags" : {
      "im.dstype" : "gauge",
      "im.metric-type" : "ts",
      "im.name" : "destination-cache-limit",
      "im.step" : "300"
    },
    "value" : "8388608.0"
  }, {
    "tags" : {
      "im.dstype" : "gauge",
      "im.metric-type" : "ts",
      "im.name" : "destination-cache-usage",
      "im.step" : "300"
    },
    "value" : "14780.0"
  } ]
}
