{
  "command" : "chkp-os-failed-logins",
  "metrics" : [ {
    "tags" : {
      "im.dstype" : "gauge",
      "im.metric-type" : "ts",
      "im.name" : "failed-logins",
      "username" : "admin"
    },
    "value" : "3.0"
  }, {
    "tags" : {
      "im.dstype" : "gauge",
      "im.metric-type" : "ts",
      "im.name" : "failed-logins",
      "username" : "fakeuser"
    },
    "value" : "3.0"
  }, {
    "tags" : {
      "im.dstype" : "gauge",
      "im.metric-type" : "ts",
      "im.name" : "failed-logins",
      "username" : "someuser"
    },
    "value" : "7.0"
  } ]
}
