{
  "command" : "chkp-os-interfaces",
  "metrics" : [ {
    "tags" : {
      "display-name" : "Interfaces IPv4 Address",
      "im.metric-type" : "runtime",
      "im.name" : "network-interface-ipv4-address",
      "live-config" : "true",
      "name" : "eth1"
    },
    "value" : {
      "value" : "10.11.2.21"
    }
  }, {
    "tags" : {
      "display-name" : "Network Interfaces - Enabled/Disabed",
      "im.dstype" : "gauge",
      "im.dstype.displaytype" : "state",
      "im.identity-tags" : "name",
      "im.metric-type" : "ts",
      "im.name" : "network-interface-admin-state",
      "im.step" : "60",
      "live-config" : "true",
      "name" : "eth0"
    },
    "value" : "0.0"
  }, {
    "tags" : {
      "display-name" : "Interfaces IPv4 Subnet",
      "im.metric-type" : "runtime",
      "im.name" : "network-interface-ipv4-subnet",
      "live-config" : "true",
      "name" : "eth1"
    },
    "value" : {
      "value" : "255.255.255.0"
    }
  }, {
    "tags" : {
      "display-name" : "Interfaces IPv4 Subnet",
      "im.metric-type" : "runtime",
      "im.name" : "network-interface-ipv4-subnet",
      "live-config" : "true",
      "name" : "eth2"
    },
    "value" : {
      "value" : "255.255.255.0"
    }
  }, {
    "tags" : {
      "im.metric-type" : "runtime",
      "im.name" : "network-interface-description",
      "name" : "eth1"
    },
    "value" : {
      "value" : "Private2 lala"
    }
  }, {
    "tags" : {
      "im.metric-type" : "runtime",
      "im.name" : "network-interface-duplex",
      "name" : "eth0"
    },
    "value" : {
      "value" : "full"
    }
  }, {
    "tags" : {
      "display-name" : "Network Interfaces - Enabled/Disabed",
      "im.dstype" : "gauge",
      "im.dstype.displaytype" : "state",
      "im.identity-tags" : "name",
      "im.metric-type" : "ts",
      "im.name" : "network-interface-admin-state",
      "im.step" : "60",
      "live-config" : "true",
      "name" : "eth1"
    },
    "value" : "1.0"
  }, {
    "tags" : {
      "display-name" : "Network Interfaces - rx bytes",
      "im.dstype" : "counter",
      "im.dstype.displaytype" : "number",
      "im.identity-tags" : "name",
      "im.metric-type" : "ts",
      "im.name" : "network-interface-rx-bytes",
      "im.step" : "60",
      "live-config" : "true",
      "name" : "eth0"
    },
    "value" : "0.0"
  }, {
    "tags" : {
      "display-name" : "Network Interfaces - rx bytes",
      "im.dstype" : "counter",
      "im.dstype.displaytype" : "number",
      "im.identity-tags" : "name",
      "im.metric-type" : "ts",
      "im.name" : "network-interface-rx-bytes",
      "im.step" : "60",
      "live-config" : "true",
      "name" : "eth1"
    },
    "value" : "2.734579474E9"
  }, {
    "tags" : {
      "display-name" : "Network Interfaces - rx bytes",
      "im.dstype" : "counter",
      "im.dstype.displaytype" : "number",
      "im.identity-tags" : "name",
      "im.metric-type" : "ts",
      "im.name" : "network-interface-rx-bytes",
      "im.step" : "60",
      "live-config" : "true",
      "name" : "eth2"
    },
    "value" : "9.22468769E8"
  }, {
    "tags" : {
      "display-name" : "Network Interfaces - rx dropped",
      "im.dstype" : "counter",
      "im.dstype.displaytype" : "number",
      "im.identity-tags" : "name",
      "im.metric-type" : "ts",
      "im.name" : "network-interface-rx-dropped",
      "im.step" : "60",
      "live-config" : "true",
      "name" : "eth0"
    },
    "value" : "100.0"
  }, {
    "tags" : {
      "display-name" : "Network Interfaces - rx frame",
      "im.dstype" : "counter",
      "im.dstype.displaytype" : "number",
      "im.identity-tags" : "name",
      "im.metric-type" : "ts",
      "im.name" : "network-interface-rx-frame",
      "im.step" : "60",
      "live-config" : "true",
      "name" : "eth2"
    },
    "value" : "0.0"
  }, {
    "tags" : {
      "display-name" : "Network Interfaces - rx overruns",
      "im.dstype" : "counter",
      "im.dstype.displaytype" : "number",
      "im.identity-tags" : "name",
      "im.metric-type" : "ts",
      "im.name" : "network-interface-rx-overruns",
      "im.step" : "60",
      "live-config" : "true",
      "name" : "eth1"
    },
    "value" : "0.0"
  }, {
    "tags" : {
      "im.metric-type" : "runtime",
      "im.name" : "network-interface-duplex",
      "name" : "eth1"
    },
    "value" : {
      "value" : "full"
    }
  }, {
    "tags" : {
      "im.metric-type" : "runtime",
      "im.name" : "network-interface-duplex",
      "name" : "eth2"
    },
    "value" : {
      "value" : "full"
    }
  }, {
    "tags" : {
      "im.metric-type" : "runtime",
      "im.name" : "network-interface-mac",
      "name" : "eth1"
    },
    "value" : {
      "value" : "00:0C:29:FF:5B:16"
    }
  }, {
    "tags" : {
      "im.metric-type" : "runtime",
      "im.name" : "network-interfaces"
    },
    "value" : [ {
      "auto-negotiation" : "on",
      "mtu" : "1500",
      "name" : "eth2",
      "driver" : "e1000"
    }, {
      "name" : "eth1",
      "auto-negotiation" : "on",
      "mtu" : "1500",
      "driver" : "e1000"
    }, {
      "name" : "eth0",
      "auto-negotiation" : "on",
      "mtu" : "1500",
      "driver" : "e1000"
    } ]
  }, {
    "tags" : {
      "im.metric-type" : "runtime",
      "im.name" : "network-interface-mac",
      "name" : "eth2"
    },
    "value" : {
      "value" : "00:0C:29:FF:5B:20"
    }
  }, {
    "tags" : {
      "im.metric-type" : "runtime",
      "im.name" : "network-interface-mtu",
      "name" : "eth1"
    },
    "value" : {
      "value" : "1500"
    }
  }, {
    "tags" : {
      "im.metric-type" : "runtime",
      "im.name" : "network-interface-mtu",
      "name" : "eth2"
    },
    "value" : {
      "value" : "1500"
    }
  }, {
    "tags" : {
      "im.metric-type" : "runtime",
      "im.name" : "network-interface-speed",
      "name" : "eth1"
    },
    "value" : {
      "value" : "1000M"
    }
  }, {
    "tags" : {
      "im.metric-type" : "runtime",
      "im.name" : "network-interface-speed",
      "name" : "eth2"
    },
    "value" : {
      "value" : "1000M"
    }
  }, {
    "tags" : {
      "im.metric-type" : "runtime",
      "im.name" : "network-interface-type",
      "name" : "eth2"
    },
    "value" : {
      "value" : "Ethernet"
    }
  }, {
    "tags" : {
      "display-name" : "Interfaces IPv4 Address",
      "im.metric-type" : "runtime",
      "im.name" : "network-interface-ipv4-address",
      "live-config" : "true",
      "name" : "eth2"
    },
    "value" : {
      "value" : "10.10.6.21"
    }
  }, {
    "tags" : {
      "display-name" : "Network Interfaces - Enabled/Disabed",
      "im.dstype" : "gauge",
      "im.dstype.displaytype" : "state",
      "im.identity-tags" : "name",
      "im.metric-type" : "ts",
      "im.name" : "network-interface-admin-state",
      "im.step" : "60",
      "live-config" : "true",
      "name" : "eth2"
    },
    "value" : "1.0"
  }, {
    "tags" : {
      "display-name" : "Network Interfaces - rx bytes",
      "im.dstype" : "counter",
      "im.dstype.displaytype" : "number",
      "im.identity-tags" : "name",
      "im.metric-type" : "ts",
      "im.name" : "network-interface-rx-bytes",
      "im.step" : "60",
      "live-config" : "true",
      "name" : "eth1"
    },
    "value" : "3.380834915E9"
  }, {
    "tags" : {
      "display-name" : "Network Interfaces - rx dropped",
      "im.dstype" : "counter",
      "im.dstype.displaytype" : "number",
      "im.identity-tags" : "name",
      "im.metric-type" : "ts",
      "im.name" : "network-interface-rx-dropped",
      "im.step" : "60",
      "live-config" : "true",
      "name" : "eth1"
    },
    "value" : "0.0"
  }, {
    "tags" : {
      "display-name" : "Network Interfaces - rx dropped",
      "im.dstype" : "counter",
      "im.dstype.displaytype" : "number",
      "im.identity-tags" : "name",
      "im.metric-type" : "ts",
      "im.name" : "network-interface-rx-dropped",
      "im.step" : "60",
      "live-config" : "true",
      "name" : "eth2"
    },
    "value" : "0.0"
  }, {
    "tags" : {
      "display-name" : "Network Interfaces - rx errors",
      "im.dstype" : "counter",
      "im.dstype.displaytype" : "number",
      "im.identity-tags" : "name",
      "im.metric-type" : "ts",
      "im.name" : "network-interface-rx-errors",
      "im.step" : "60",
      "live-config" : "true",
      "name" : "eth1"
    },
    "value" : "0.0"
  }, {
    "tags" : {
      "display-name" : "Network Interfaces - Up/Down",
      "im.dstype" : "gauge",
      "im.dstype.displaytype" : "state",
      "im.identity-tags" : "name",
      "im.metric-type" : "ts",
      "im.name" : "network-interface-state",
      "im.step" : "60",
      "live-config" : "true",
      "name" : "eth0"
    },
    "value" : "0.0"
  }, {
    "tags" : {
      "display-name" : "Network Interfaces - Up/Down",
      "im.dstype" : "gauge",
      "im.dstype.displaytype" : "state",
      "im.identity-tags" : "name",
      "im.metric-type" : "ts",
      "im.name" : "network-interface-state",
      "im.step" : "60",
      "live-config" : "true",
      "name" : "eth1"
    },
    "value" : "1.0"
  }, {
    "tags" : {
      "display-name" : "Network Interfaces - Up/Down",
      "im.dstype" : "gauge",
      "im.dstype.displaytype" : "state",
      "im.identity-tags" : "name",
      "im.metric-type" : "ts",
      "im.name" : "network-interface-state",
      "im.step" : "60",
      "live-config" : "true",
      "name" : "eth2"
    },
    "value" : "1.0"
  }, {
    "tags" : {
      "im.metric-type" : "runtime",
      "im.name" : "network-interface-mac",
      "name" : "eth0"
    },
    "value" : {
      "value" : "00:0C:29:FF:5B:0C"
    }
  }, {
    "tags" : {
      "im.metric-type" : "runtime",
      "im.name" : "network-interface-mtu",
      "name" : "eth0"
    },
    "value" : {
      "value" : "1500"
    }
  }, {
    "tags" : {
      "im.metric-type" : "runtime",
      "im.name" : "network-interface-speed",
      "name" : "eth0"
    },
    "value" : {
      "value" : "1000M"
    }
  }, {
    "tags" : {
      "im.metric-type" : "runtime",
      "im.name" : "network-interface-type",
      "name" : "eth0"
    },
    "value" : {
      "value" : "Ethernet"
    }
  }, {
    "tags" : {
      "im.metric-type" : "runtime",
      "im.name" : "network-interface-type",
      "name" : "eth1"
    },
    "value" : {
      "value" : "Ethernet"
    }
  }, {
    "tags" : {
      "display-name" : "Network Interfaces - rx errors",
      "im.dstype" : "counter",
      "im.dstype.displaytype" : "number",
      "im.identity-tags" : "name",
      "im.metric-type" : "ts",
      "im.name" : "network-interface-rx-errors",
      "im.step" : "60",
      "live-config" : "true",
      "name" : "eth0"
    },
    "value" : "5.0"
  }, {
    "tags" : {
      "display-name" : "Network Interfaces - rx errors",
      "im.dstype" : "counter",
      "im.dstype.displaytype" : "number",
      "im.identity-tags" : "name",
      "im.metric-type" : "ts",
      "im.name" : "network-interface-rx-errors",
      "im.step" : "60",
      "live-config" : "true",
      "name" : "eth2"
    },
    "value" : "0.0"
  }, {
    "tags" : {
      "display-name" : "Network Interfaces - rx frame",
      "im.dstype" : "counter",
      "im.dstype.displaytype" : "number",
      "im.identity-tags" : "name",
      "im.metric-type" : "ts",
      "im.name" : "network-interface-rx-frame",
      "im.step" : "60",
      "live-config" : "true",
      "name" : "eth0"
    },
    "value" : "2.0"
  }, {
    "tags" : {
      "display-name" : "Network Interfaces - rx frame",
      "im.dstype" : "counter",
      "im.dstype.displaytype" : "number",
      "im.identity-tags" : "name",
      "im.metric-type" : "ts",
      "im.name" : "network-interface-rx-frame",
      "im.step" : "60",
      "live-config" : "true",
      "name" : "eth1"
    },
    "value" : "0.0"
  }, {
    "tags" : {
      "display-name" : "Network Interfaces - rx overruns",
      "im.dstype" : "counter",
      "im.dstype.displaytype" : "number",
      "im.identity-tags" : "name",
      "im.metric-type" : "ts",
      "im.name" : "network-interface-rx-overruns",
      "im.step" : "60",
      "live-config" : "true",
      "name" : "eth0"
    },
    "value" : "5.0"
  }, {
    "tags" : {
      "display-name" : "Network Interfaces - rx overruns",
      "im.dstype" : "counter",
      "im.dstype.displaytype" : "number",
      "im.identity-tags" : "name",
      "im.metric-type" : "ts",
      "im.name" : "network-interface-rx-overruns",
      "im.step" : "60",
      "live-config" : "true",
      "name" : "eth2"
    },
    "value" : "0.0"
  }, {
    "tags" : {
      "display-name" : "Network Interfaces - rx packets",
      "im.dstype" : "counter",
      "im.dstype.displaytype" : "number",
      "im.identity-tags" : "name",
      "im.metric-type" : "ts",
      "im.name" : "network-interface-rx-packets",
      "im.step" : "60",
      "live-config" : "true",
      "name" : "eth0"
    },
    "value" : "50000.0"
  }, {
    "tags" : {
      "display-name" : "Network Interfaces - rx packets",
      "im.dstype" : "counter",
      "im.dstype.displaytype" : "number",
      "im.identity-tags" : "name",
      "im.metric-type" : "ts",
      "im.name" : "network-interface-rx-packets",
      "im.step" : "60",
      "live-config" : "true",
      "name" : "eth1"
    },
    "value" : "2.34923967E8"
  }, {
    "tags" : {
      "display-name" : "Network Interfaces - rx packets",
      "im.dstype" : "counter",
      "im.dstype.displaytype" : "number",
      "im.identity-tags" : "name",
      "im.metric-type" : "ts",
      "im.name" : "network-interface-rx-packets",
      "im.step" : "60",
      "live-config" : "true",
      "name" : "eth2"
    },
    "value" : "3.347199E7"
  }, {
    "tags" : {
      "display-name" : "Network Interfaces - tx carrier",
      "im.dstype" : "counter",
      "im.dstype.displaytype" : "number",
      "im.identity-tags" : "name",
      "im.metric-type" : "ts",
      "im.name" : "network-interface-tx-carrier",
      "im.step" : "60",
      "live-config" : "true",
      "name" : "eth0"
    },
    "value" : "1.0"
  }, {
    "tags" : {
      "display-name" : "Network Interfaces - tx carrier",
      "im.dstype" : "counter",
      "im.dstype.displaytype" : "number",
      "im.identity-tags" : "name",
      "im.metric-type" : "ts",
      "im.name" : "network-interface-tx-carrier",
      "im.step" : "60",
      "live-config" : "true",
      "name" : "eth1"
    },
    "value" : "0.0"
  }, {
    "tags" : {
      "display-name" : "Network Interfaces - tx carrier",
      "im.dstype" : "counter",
      "im.dstype.displaytype" : "number",
      "im.identity-tags" : "name",
      "im.metric-type" : "ts",
      "im.name" : "network-interface-tx-carrier",
      "im.step" : "60",
      "live-config" : "true",
      "name" : "eth2"
    },
    "value" : "0.0"
  }, {
    "tags" : {
      "display-name" : "Network Interfaces - tx dropped",
      "im.dstype" : "counter",
      "im.dstype.displaytype" : "number",
      "im.identity-tags" : "name",
      "im.metric-type" : "ts",
      "im.name" : "network-interface-tx-dropped",
      "im.step" : "60",
      "live-config" : "true",
      "name" : "eth0"
    },
    "value" : "5000.0"
  }, {
    "tags" : {
      "display-name" : "Network Interfaces - tx dropped",
      "im.dstype" : "counter",
      "im.dstype.displaytype" : "number",
      "im.identity-tags" : "name",
      "im.metric-type" : "ts",
      "im.name" : "network-interface-tx-dropped",
      "im.step" : "60",
      "live-config" : "true",
      "name" : "eth1"
    },
    "value" : "0.0"
  }, {
    "tags" : {
      "display-name" : "Network Interfaces - tx dropped",
      "im.dstype" : "counter",
      "im.dstype.displaytype" : "number",
      "im.identity-tags" : "name",
      "im.metric-type" : "ts",
      "im.name" : "network-interface-tx-dropped",
      "im.step" : "60",
      "live-config" : "true",
      "name" : "eth2"
    },
    "value" : "0.0"
  }, {
    "tags" : {
      "display-name" : "Network Interfaces - tx errors",
      "im.dstype" : "counter",
      "im.dstype.displaytype" : "number",
      "im.identity-tags" : "name",
      "im.metric-type" : "ts",
      "im.name" : "network-interface-tx-errors",
      "im.step" : "60",
      "live-config" : "true",
      "name" : "eth0"
    },
    "value" : "10.0"
  }, {
    "tags" : {
      "display-name" : "Network Interfaces - tx errors",
      "im.dstype" : "counter",
      "im.dstype.displaytype" : "number",
      "im.identity-tags" : "name",
      "im.metric-type" : "ts",
      "im.name" : "network-interface-tx-errors",
      "im.step" : "60",
      "live-config" : "true",
      "name" : "eth1"
    },
    "value" : "0.0"
  }, {
    "tags" : {
      "display-name" : "Network Interfaces - tx errors",
      "im.dstype" : "counter",
      "im.dstype.displaytype" : "number",
      "im.identity-tags" : "name",
      "im.metric-type" : "ts",
      "im.name" : "network-interface-tx-errors",
      "im.step" : "60",
      "live-config" : "true",
      "name" : "eth2"
    },
    "value" : "0.0"
  }, {
    "tags" : {
      "display-name" : "Network Interfaces - tx overruns",
      "im.dstype" : "counter",
      "im.dstype.displaytype" : "number",
      "im.identity-tags" : "name",
      "im.metric-type" : "ts",
      "im.name" : "network-interface-tx-overruns",
      "im.step" : "60",
      "live-config" : "true",
      "name" : "eth0"
    },
    "value" : "3.0"
  }, {
    "tags" : {
      "display-name" : "Network Interfaces - tx overruns",
      "im.dstype" : "counter",
      "im.dstype.displaytype" : "number",
      "im.identity-tags" : "name",
      "im.metric-type" : "ts",
      "im.name" : "network-interface-tx-overruns",
      "im.step" : "60",
      "live-config" : "true",
      "name" : "eth1"
    },
    "value" : "0.0"
  }, {
    "tags" : {
      "display-name" : "Network Interfaces - tx overruns",
      "im.dstype" : "counter",
      "im.dstype.displaytype" : "number",
      "im.identity-tags" : "name",
      "im.metric-type" : "ts",
      "im.name" : "network-interface-tx-overruns",
      "im.step" : "60",
      "live-config" : "true",
      "name" : "eth2"
    },
    "value" : "0.0"
  }, {
    "tags" : {
      "display-name" : "Network Interfaces - tx packets",
      "im.dstype" : "counter",
      "im.dstype.displaytype" : "number",
      "im.identity-tags" : "name",
      "im.metric-type" : "ts",
      "im.name" : "network-interface-tx-packets",
      "im.step" : "60",
      "live-config" : "true",
      "name" : "eth0"
    },
    "value" : "60000.0"
  }, {
    "tags" : {
      "display-name" : "Network Interfaces - tx packets",
      "im.dstype" : "counter",
      "im.dstype.displaytype" : "number",
      "im.identity-tags" : "name",
      "im.metric-type" : "ts",
      "im.name" : "network-interface-tx-packets",
      "im.step" : "60",
      "live-config" : "true",
      "name" : "eth1"
    },
    "value" : "4.0054412E7"
  }, {
    "tags" : {
      "display-name" : "Network Interfaces - tx packets",
      "im.dstype" : "counter",
      "im.dstype.displaytype" : "number",
      "im.identity-tags" : "name",
      "im.metric-type" : "ts",
      "im.name" : "network-interface-tx-packets",
      "im.step" : "60",
      "live-config" : "true",
      "name" : "eth2"
    },
    "value" : "1.154739E7"
  } ]
}
