{
  "command" : "chkp-os-interfaces",
  "metrics" : [ {
    "tags" : {
      "display-name" : "Network Interfaces - Enabled/Disabed",
      "im.dstype" : "gauge",
      "im.dstype.displaytype" : "state",
      "im.identity-tags" : "name",
      "im.metric-type" : "ts",
      "im.name" : "network-interface-admin-state",
      "im.step" : "60",
      "live-config" : "true",
      "name" : "lo"
    },
    "value" : "1.0"
  }, {
    "tags" : {
      "display-name" : "Network Interfaces - Stats",
      "im.dstype" : "counter",
      "im.dstype.displaytype" : "number",
      "im.identity-tags" : "name",
      "im.metric-type" : "ts",
      "im.name" : "network-interface-rx-bytes",
      "im.step" : "60",
      "live-config" : "true",
      "name" : "eth0"
    },
    "value" : "429340.0"
  }, {
    "tags" : {
      "display-name" : "Network Interfaces - Stats",
      "im.dstype" : "counter",
      "im.dstype.displaytype" : "number",
      "im.identity-tags" : "name",
      "im.metric-type" : "ts",
      "im.name" : "network-interface-rx-bytes",
      "im.step" : "60",
      "live-config" : "true",
      "name" : "eth1"
    },
    "value" : "108.0"
  }, {
    "tags" : {
      "display-name" : "Network Interfaces - Stats",
      "im.dstype" : "counter",
      "im.dstype.displaytype" : "number",
      "im.identity-tags" : "name",
      "im.metric-type" : "ts",
      "im.name" : "network-interface-rx-bytes",
      "im.step" : "60",
      "live-config" : "true",
      "name" : "eth2"
    },
    "value" : "0.0"
  }, {
    "tags" : {
      "display-name" : "Network Interfaces - Stats",
      "im.dstype" : "counter",
      "im.dstype.displaytype" : "number",
      "im.identity-tags" : "name",
      "im.metric-type" : "ts",
      "im.name" : "network-interface-rx-dropped",
      "im.step" : "60",
      "live-config" : "true",
      "name" : "eth1"
    },
    "value" : "0.0"
  }, {
    "tags" : {
      "display-name" : "Network Interfaces - Stats",
      "im.dstype" : "counter",
      "im.dstype.displaytype" : "number",
      "im.identity-tags" : "name",
      "im.metric-type" : "ts",
      "im.name" : "network-interface-rx-errors",
      "im.step" : "60",
      "live-config" : "true",
      "name" : "eth0"
    },
    "value" : "0.0"
  }, {
    "tags" : {
      "display-name" : "Network Interfaces - Stats",
      "im.dstype" : "counter",
      "im.dstype.displaytype" : "number",
      "im.identity-tags" : "name",
      "im.metric-type" : "ts",
      "im.name" : "network-interface-rx-overruns",
      "im.step" : "60",
      "live-config" : "true",
      "name" : "eth1"
    },
    "value" : "0.0"
  }, {
    "tags" : {
      "im.metric-type" : "runtime",
      "im.name" : "network-interface-duplex",
      "name" : "eth0"
    },
    "value" : {
      "value" : "full"
    }
  }, {
    "tags" : {
      "im.metric-type" : "runtime",
      "im.name" : "network-interface-duplex",
      "name" : "eth2"
    },
    "value" : {
      "value" : "full"
    }
  }, {
    "tags" : {
      "im.metric-type" : "runtime",
      "im.name" : "network-interface-ipv4-address",
      "name" : "eth1"
    },
    "value" : {
      "value" : "10.10.1.1"
    }
  }, {
    "tags" : {
      "im.metric-type" : "runtime",
      "im.name" : "network-interface-ipv4-subnet",
      "name" : "eth1"
    },
    "value" : {
      "value" : "255.255.255.0"
    }
  }, {
    "tags" : {
      "im.metric-type" : "runtime",
      "im.name" : "network-interface-mac",
      "name" : "eth0"
    },
    "value" : {
      "value" : "00:50:56:90:EB:07"
    }
  }, {
    "tags" : {
      "im.metric-type" : "runtime",
      "im.name" : "network-interface-mac",
      "name" : "eth1"
    },
    "value" : {
      "value" : "00:50:56:90:AF:71"
    }
  }, {
    "tags" : {
      "display-name" : "Network Interfaces - Enabled/Disabed",
      "im.dstype" : "gauge",
      "im.dstype.displaytype" : "state",
      "im.identity-tags" : "name",
      "im.metric-type" : "ts",
      "im.name" : "network-interface-admin-state",
      "im.step" : "60",
      "live-config" : "true",
      "name" : "eth0"
    },
    "value" : "1.0"
  }, {
    "tags" : {
      "display-name" : "Network Interfaces - Enabled/Disabed",
      "im.dstype" : "gauge",
      "im.dstype.displaytype" : "state",
      "im.identity-tags" : "name",
      "im.metric-type" : "ts",
      "im.name" : "network-interface-admin-state",
      "im.step" : "60",
      "live-config" : "true",
      "name" : "eth2"
    },
    "value" : "0.0"
  }, {
    "tags" : {
      "display-name" : "Network Interfaces - Stats",
      "im.dstype" : "counter",
      "im.dstype.displaytype" : "number",
      "im.identity-tags" : "name",
      "im.metric-type" : "ts",
      "im.name" : "network-interface-rx-bytes",
      "im.step" : "60",
      "live-config" : "true",
      "name" : "eth2"
    },
    "value" : "1521066.0"
  }, {
    "tags" : {
      "display-name" : "Network Interfaces - Stats",
      "im.dstype" : "counter",
      "im.dstype.displaytype" : "number",
      "im.identity-tags" : "name",
      "im.metric-type" : "ts",
      "im.name" : "network-interface-rx-frame",
      "im.step" : "60",
      "live-config" : "true",
      "name" : "eth1"
    },
    "value" : "0.0"
  }, {
    "tags" : {
      "display-name" : "Network Interfaces - Stats",
      "im.dstype" : "counter",
      "im.dstype.displaytype" : "number",
      "im.identity-tags" : "name",
      "im.metric-type" : "ts",
      "im.name" : "network-interface-rx-frame",
      "im.step" : "60",
      "live-config" : "true",
      "name" : "eth2"
    },
    "value" : "0.0"
  }, {
    "tags" : {
      "display-name" : "Network Interfaces - Stats",
      "im.dstype" : "counter",
      "im.dstype.displaytype" : "number",
      "im.identity-tags" : "name",
      "im.metric-type" : "ts",
      "im.name" : "network-interface-rx-overruns",
      "im.step" : "60",
      "live-config" : "true",
      "name" : "eth0"
    },
    "value" : "0.0"
  }, {
    "tags" : {
      "im.metric-type" : "runtime",
      "im.name" : "network-interface-mtu",
      "name" : "eth0"
    },
    "value" : {
      "value" : "1500"
    }
  }, {
    "tags" : {
      "im.metric-type" : "runtime",
      "im.name" : "network-interface-mtu",
      "name" : "eth1"
    },
    "value" : {
      "value" : "1500"
    }
  }, {
    "tags" : {
      "im.metric-type" : "runtime",
      "im.name" : "network-interface-mtu",
      "name" : "eth2"
    },
    "value" : {
      "value" : "1500"
    }
  }, {
    "tags" : {
      "im.metric-type" : "runtime",
      "im.name" : "network-interface-speed",
      "name" : "eth1"
    },
    "value" : {
      "value" : "1000M"
    }
  }, {
    "tags" : {
      "im.metric-type" : "runtime",
      "im.name" : "network-interface-speed",
      "name" : "eth2"
    },
    "value" : {
      "value" : "1000M"
    }
  }, {
    "tags" : {
      "im.metric-type" : "runtime",
      "im.name" : "network-interface-type",
      "name" : "eth0"
    },
    "value" : {
      "value" : "Ethernet"
    }
  }, {
    "tags" : {
      "im.metric-type" : "runtime",
      "im.name" : "network-interface-type",
      "name" : "eth1"
    },
    "value" : {
      "value" : "Ethernet"
    }
  }, {
    "tags" : {
      "display-name" : "Network Interfaces - Enabled/Disabed",
      "im.dstype" : "gauge",
      "im.dstype.displaytype" : "state",
      "im.identity-tags" : "name",
      "im.metric-type" : "ts",
      "im.name" : "network-interface-admin-state",
      "im.step" : "60",
      "live-config" : "true",
      "name" : "eth1"
    },
    "value" : "1.0"
  }, {
    "tags" : {
      "display-name" : "Network Interfaces - Stats",
      "im.dstype" : "counter",
      "im.dstype.displaytype" : "number",
      "im.identity-tags" : "name",
      "im.metric-type" : "ts",
      "im.name" : "network-interface-rx-dropped",
      "im.step" : "60",
      "live-config" : "true",
      "name" : "eth0"
    },
    "value" : "0.0"
  }, {
    "tags" : {
      "display-name" : "Network Interfaces - Stats",
      "im.dstype" : "counter",
      "im.dstype.displaytype" : "number",
      "im.identity-tags" : "name",
      "im.metric-type" : "ts",
      "im.name" : "network-interface-rx-dropped",
      "im.step" : "60",
      "live-config" : "true",
      "name" : "eth2"
    },
    "value" : "0.0"
  }, {
    "tags" : {
      "display-name" : "Network Interfaces - Stats",
      "im.dstype" : "counter",
      "im.dstype.displaytype" : "number",
      "im.identity-tags" : "name",
      "im.metric-type" : "ts",
      "im.name" : "network-interface-rx-overruns",
      "im.step" : "60",
      "live-config" : "true",
      "name" : "eth2"
    },
    "value" : "0.0"
  }, {
    "tags" : {
      "display-name" : "Network Interfaces - Stats",
      "im.dstype" : "counter",
      "im.dstype.displaytype" : "number",
      "im.identity-tags" : "name",
      "im.metric-type" : "ts",
      "im.name" : "network-interface-rx-packets",
      "im.step" : "60",
      "live-config" : "true",
      "name" : "eth1"
    },
    "value" : "1442.0"
  }, {
    "tags" : {
      "display-name" : "Network Interfaces - Stats",
      "im.dstype" : "counter",
      "im.dstype.displaytype" : "number",
      "im.identity-tags" : "name",
      "im.metric-type" : "ts",
      "im.name" : "network-interface-rx-packets",
      "im.step" : "60",
      "live-config" : "true",
      "name" : "eth2"
    },
    "value" : "17884.0"
  }, {
    "tags" : {
      "display-name" : "Network Interfaces - Stats",
      "im.dstype" : "counter",
      "im.dstype.displaytype" : "number",
      "im.identity-tags" : "name",
      "im.metric-type" : "ts",
      "im.name" : "network-interface-tx-carrier",
      "im.step" : "60",
      "live-config" : "true",
      "name" : "eth0"
    },
    "value" : "0.0"
  }, {
    "tags" : {
      "display-name" : "Network Interfaces - Stats",
      "im.dstype" : "counter",
      "im.dstype.displaytype" : "number",
      "im.identity-tags" : "name",
      "im.metric-type" : "ts",
      "im.name" : "network-interface-tx-carrier",
      "im.step" : "60",
      "live-config" : "true",
      "name" : "eth1"
    },
    "value" : "0.0"
  }, {
    "tags" : {
      "display-name" : "Network Interfaces - Stats",
      "im.dstype" : "counter",
      "im.dstype.displaytype" : "number",
      "im.identity-tags" : "name",
      "im.metric-type" : "ts",
      "im.name" : "network-interface-tx-carrier",
      "im.step" : "60",
      "live-config" : "true",
      "name" : "eth2"
    },
    "value" : "0.0"
  }, {
    "tags" : {
      "display-name" : "Network Interfaces - Stats",
      "im.dstype" : "counter",
      "im.dstype.displaytype" : "number",
      "im.identity-tags" : "name",
      "im.metric-type" : "ts",
      "im.name" : "network-interface-tx-dropped",
      "im.step" : "60",
      "live-config" : "true",
      "name" : "eth0"
    },
    "value" : "0.0"
  }, {
    "tags" : {
      "display-name" : "Network Interfaces - Up/Down",
      "im.dstype" : "gauge",
      "im.dstype.displaytype" : "state",
      "im.identity-tags" : "name",
      "im.metric-type" : "ts",
      "im.name" : "network-interface-state",
      "im.step" : "60",
      "live-config" : "true",
      "name" : "eth0"
    },
    "value" : "1.0"
  }, {
    "tags" : {
      "display-name" : "Network Interfaces - Stats",
      "im.dstype" : "counter",
      "im.dstype.displaytype" : "number",
      "im.identity-tags" : "name",
      "im.metric-type" : "ts",
      "im.name" : "network-interface-tx-dropped",
      "im.step" : "60",
      "live-config" : "true",
      "name" : "eth1"
    },
    "value" : "0.0"
  }, {
    "tags" : {
      "display-name" : "Network Interfaces - Stats",
      "im.dstype" : "counter",
      "im.dstype.displaytype" : "number",
      "im.identity-tags" : "name",
      "im.metric-type" : "ts",
      "im.name" : "network-interface-tx-dropped",
      "im.step" : "60",
      "live-config" : "true",
      "name" : "eth2"
    },
    "value" : "0.0"
  }, {
    "tags" : {
      "display-name" : "Network Interfaces - Stats",
      "im.dstype" : "counter",
      "im.dstype.displaytype" : "number",
      "im.identity-tags" : "name",
      "im.metric-type" : "ts",
      "im.name" : "network-interface-tx-errors",
      "im.step" : "60",
      "live-config" : "true",
      "name" : "eth0"
    },
    "value" : "0.0"
  }, {
    "tags" : {
      "display-name" : "Network Interfaces - Stats",
      "im.dstype" : "counter",
      "im.dstype.displaytype" : "number",
      "im.identity-tags" : "name",
      "im.metric-type" : "ts",
      "im.name" : "network-interface-tx-errors",
      "im.step" : "60",
      "live-config" : "true",
      "name" : "eth1"
    },
    "value" : "0.0"
  }, {
    "tags" : {
      "display-name" : "Network Interfaces - Stats",
      "im.dstype" : "counter",
      "im.dstype.displaytype" : "number",
      "im.identity-tags" : "name",
      "im.metric-type" : "ts",
      "im.name" : "network-interface-tx-errors",
      "im.step" : "60",
      "live-config" : "true",
      "name" : "eth2"
    },
    "value" : "0.0"
  }, {
    "tags" : {
      "display-name" : "Network Interfaces - Stats",
      "im.dstype" : "counter",
      "im.dstype.displaytype" : "number",
      "im.identity-tags" : "name",
      "im.metric-type" : "ts",
      "im.name" : "network-interface-tx-overruns",
      "im.step" : "60",
      "live-config" : "true",
      "name" : "eth0"
    },
    "value" : "0.0"
  }, {
    "tags" : {
      "display-name" : "Network Interfaces - Stats",
      "im.dstype" : "counter",
      "im.dstype.displaytype" : "number",
      "im.identity-tags" : "name",
      "im.metric-type" : "ts",
      "im.name" : "network-interface-tx-overruns",
      "im.step" : "60",
      "live-config" : "true",
      "name" : "eth1"
    },
    "value" : "0.0"
  }, {
    "tags" : {
      "display-name" : "Network Interfaces - Stats",
      "im.dstype" : "counter",
      "im.dstype.displaytype" : "number",
      "im.identity-tags" : "name",
      "im.metric-type" : "ts",
      "im.name" : "network-interface-tx-packets",
      "im.step" : "60",
      "live-config" : "true",
      "name" : "eth0"
    },
    "value" : "4482.0"
  }, {
    "tags" : {
      "display-name" : "Network Interfaces - Stats",
      "im.dstype" : "counter",
      "im.dstype.displaytype" : "number",
      "im.identity-tags" : "name",
      "im.metric-type" : "ts",
      "im.name" : "network-interface-tx-packets",
      "im.step" : "60",
      "live-config" : "true",
      "name" : "eth2"
    },
    "value" : "0.0"
  }, {
    "tags" : {
      "im.metric-type" : "runtime",
      "im.name" : "network-interface-duplex",
      "name" : "eth1"
    },
    "value" : {
      "value" : "full"
    }
  }, {
    "tags" : {
      "im.metric-type" : "runtime",
      "im.name" : "network-interface-ipv4-address",
      "name" : "eth0"
    },
    "value" : {
      "value" : "192.168.197.36"
    }
  }, {
    "tags" : {
      "im.metric-type" : "runtime",
      "im.name" : "network-interface-speed",
      "name" : "eth0"
    },
    "value" : {
      "value" : "1000M"
    }
  }, {
    "tags" : {
      "im.metric-type" : "runtime",
      "im.name" : "network-interfaces"
    },
    "value" : [ {
      "auto-negotiation" : "on",
      "mtu" : "1500",
      "name" : "eth2",
      "driver" : "e1000"
    }, {
      "name" : "eth1",
      "auto-negotiation" : "on",
      "mtu" : "1500",
      "driver" : "e1000"
    }, {
      "name" : "eth0",
      "auto-negotiation" : "on",
      "mtu" : "1500",
      "driver" : "e1000"
    } ]
  }, {
    "tags" : {
      "display-name" : "Network Interfaces - Stats",
      "im.dstype" : "counter",
      "im.dstype.displaytype" : "number",
      "im.identity-tags" : "name",
      "im.metric-type" : "ts",
      "im.name" : "network-interface-rx-errors",
      "im.step" : "60",
      "live-config" : "true",
      "name" : "eth1"
    },
    "value" : "0.0"
  }, {
    "tags" : {
      "display-name" : "Network Interfaces - Stats",
      "im.dstype" : "counter",
      "im.dstype.displaytype" : "number",
      "im.identity-tags" : "name",
      "im.metric-type" : "ts",
      "im.name" : "network-interface-rx-errors",
      "im.step" : "60",
      "live-config" : "true",
      "name" : "eth2"
    },
    "value" : "0.0"
  }, {
    "tags" : {
      "display-name" : "Network Interfaces - Stats",
      "im.dstype" : "counter",
      "im.dstype.displaytype" : "number",
      "im.identity-tags" : "name",
      "im.metric-type" : "ts",
      "im.name" : "network-interface-rx-frame",
      "im.step" : "60",
      "live-config" : "true",
      "name" : "eth0"
    },
    "value" : "0.0"
  }, {
    "tags" : {
      "display-name" : "Network Interfaces - Stats",
      "im.dstype" : "counter",
      "im.dstype.displaytype" : "number",
      "im.identity-tags" : "name",
      "im.metric-type" : "ts",
      "im.name" : "network-interface-rx-packets",
      "im.step" : "60",
      "live-config" : "true",
      "name" : "eth0"
    },
    "value" : "4465.0"
  }, {
    "tags" : {
      "display-name" : "Network Interfaces - Up/Down",
      "im.dstype" : "gauge",
      "im.dstype.displaytype" : "state",
      "im.identity-tags" : "name",
      "im.metric-type" : "ts",
      "im.name" : "network-interface-state",
      "im.step" : "60",
      "live-config" : "true",
      "name" : "eth1"
    },
    "value" : "1.0"
  }, {
    "tags" : {
      "display-name" : "Network Interfaces - Up/Down",
      "im.dstype" : "gauge",
      "im.dstype.displaytype" : "state",
      "im.identity-tags" : "name",
      "im.metric-type" : "ts",
      "im.name" : "network-interface-state",
      "im.step" : "60",
      "live-config" : "true",
      "name" : "eth2"
    },
    "value" : "0.0"
  }, {
    "tags" : {
      "display-name" : "Network Interfaces - Stats",
      "im.dstype" : "counter",
      "im.dstype.displaytype" : "number",
      "im.identity-tags" : "name",
      "im.metric-type" : "ts",
      "im.name" : "network-interface-tx-overruns",
      "im.step" : "60",
      "live-config" : "true",
      "name" : "eth2"
    },
    "value" : "0.0"
  }, {
    "tags" : {
      "display-name" : "Network Interfaces - Stats",
      "im.dstype" : "counter",
      "im.dstype.displaytype" : "number",
      "im.identity-tags" : "name",
      "im.metric-type" : "ts",
      "im.name" : "network-interface-tx-packets",
      "im.step" : "60",
      "live-config" : "true",
      "name" : "eth1"
    },
    "value" : "2.0"
  }, {
    "tags" : {
      "im.metric-type" : "runtime",
      "im.name" : "network-interface-ipv4-subnet",
      "name" : "eth0"
    },
    "value" : {
      "value" : "255.255.255.0"
    }
  }, {
    "tags" : {
      "im.metric-type" : "runtime",
      "im.name" : "network-interface-mac",
      "name" : "eth2"
    },
    "value" : {
      "value" : "00:50:56:90:B4:25"
    }
  }, {
    "tags" : {
      "im.metric-type" : "runtime",
      "im.name" : "network-interface-type",
      "name" : "eth2"
    },
    "value" : {
      "value" : "Ethernet"
    }
  } ]
}
