{
  "command" : "chkp-ipso-interfaces-novsx",
  "metrics" : [ {
    "tags" : {
      "im.metric-type" : "runtime",
      "im.name" : "network-interface-duplex",
      "name" : "eth1c0"
    },
    "value" : {
      "value" : "full"
    }
  }, {
    "tags" : {
      "im.metric-type" : "runtime",
      "im.name" : "network-interface-mac",
      "name" : "eth1c0"
    },
    "value" : {
      "value" : "00:a0:8e:b2:22:34"
    }
  }, {
    "tags" : {
      "im.metric-type" : "runtime",
      "im.name" : "network-interface-mac",
      "name" : "eth3c0"
    },
    "value" : {
      "value" : "00:a0:8e:b2:22:36"
    }
  }, {
    "tags" : {
      "im.metric-type" : "runtime",
      "im.name" : "network-interface-mtu",
      "name" : "eth1c0"
    },
    "value" : {
      "value" : "1500"
    }
  }, {
    "tags" : {
      "im.metric-type" : "runtime",
      "im.name" : "network-interface-speed",
      "name" : "eth3c0"
    },
    "value" : {
      "value" : "10M"
    }
  }, {
    "tags" : {
      "im.metric-type" : "runtime",
      "im.name" : "network-interface-type",
      "name" : "eth2c0"
    },
    "value" : {
      "value" : "eth"
    }
  }, {
    "tags" : {
      "display-name" : "Interfaces IPv4 Address",
      "im.metric-type" : "runtime",
      "im.name" : "network-interface-ipv4-address",
      "live-config" : "true",
      "name" : "eth1c0"
    },
    "value" : {
      "value" : "172.16.16.30"
    }
  }, {
    "tags" : {
      "display-name" : "Interfaces IPv4 Address",
      "im.metric-type" : "runtime",
      "im.name" : "network-interface-ipv4-address",
      "live-config" : "true",
      "name" : "eth3c0"
    },
    "value" : {
      "value" : ""
    }
  }, {
    "tags" : {
      "display-name" : "Interfaces IPv4 Subnet",
      "im.metric-type" : "runtime",
      "im.name" : "network-interface-ipv4-subnet",
      "live-config" : "true",
      "name" : "eth1c0"
    },
    "value" : {
      "value" : "255.255.255.0"
    }
  }, {
    "tags" : {
      "display-name" : "Interfaces IPv4 Subnet",
      "im.metric-type" : "runtime",
      "im.name" : "network-interface-ipv4-subnet",
      "live-config" : "true",
      "name" : "eth2c0"
    },
    "value" : {
      "value" : "255.255.255.0"
    }
  }, {
    "tags" : {
      "display-name" : "Interfaces IPv4 Subnet",
      "im.metric-type" : "runtime",
      "im.name" : "network-interface-ipv4-subnet",
      "live-config" : "true",
      "name" : "eth3c0"
    },
    "value" : {
      "value" : ""
    }
  }, {
    "tags" : {
      "im.metric-type" : "runtime",
      "im.name" : "network-interface-description",
      "name" : "eth2c0"
    },
    "value" : {
      "value" : "my comments"
    }
  }, {
    "tags" : {
      "im.metric-type" : "runtime",
      "im.name" : "network-interface-mtu",
      "name" : "eth3c0"
    },
    "value" : {
      "value" : "1500"
    }
  }, {
    "tags" : {
      "im.metric-type" : "runtime",
      "im.name" : "network-interface-speed",
      "name" : "eth1c0"
    },
    "value" : {
      "value" : "100M"
    }
  }, {
    "tags" : {
      "im.metric-type" : "runtime",
      "im.name" : "network-interface-speed",
      "name" : "eth2c0"
    },
    "value" : {
      "value" : "10M"
    }
  }, {
    "tags" : {
      "im.metric-type" : "runtime",
      "im.name" : "network-interface-type",
      "name" : "eth3c0"
    },
    "value" : {
      "value" : "eth"
    }
  }, {
    "tags" : {
      "display-name" : "Network Interfaces - Enabled/Disabed",
      "im.dstype" : "gauge",
      "im.dstype.displaytype" : "state",
      "im.identity-tags" : "name",
      "im.metric-type" : "ts",
      "im.name" : "network-interface-admin-state",
      "live-config" : "true",
      "name" : "eth1c0"
    },
    "value" : "0.0"
  }, {
    "tags" : {
      "display-name" : "Network Interfaces - Enabled/Disabed",
      "im.dstype" : "gauge",
      "im.dstype.displaytype" : "state",
      "im.identity-tags" : "name",
      "im.metric-type" : "ts",
      "im.name" : "network-interface-admin-state",
      "live-config" : "true",
      "name" : "eth2c0"
    },
    "value" : "1.0"
  }, {
    "tags" : {
      "display-name" : "Network Interfaces - Enabled/Disabed",
      "im.dstype" : "gauge",
      "im.dstype.displaytype" : "state",
      "im.identity-tags" : "name",
      "im.metric-type" : "ts",
      "im.name" : "network-interface-admin-state",
      "live-config" : "true",
      "name" : "eth3c0"
    },
    "value" : "1.0"
  }, {
    "tags" : {
      "display-name" : "Network Interfaces - Enabled/Disabed",
      "im.dstype" : "gauge",
      "im.dstype.displaytype" : "state",
      "im.identity-tags" : "name",
      "im.metric-type" : "ts",
      "im.name" : "network-interface-admin-state",
      "live-config" : "true",
      "name" : "eth4c0"
    },
    "value" : "1.0"
  }, {
    "tags" : {
      "im.metric-type" : "runtime",
      "im.name" : "network-interfaces"
    },
    "value" : [ {
      "driver" : "eth"
    }, {
      "driver" : "eth",
      "mtu" : "1500"
    }, {
      "driver" : "eth",
      "mtu" : "1500"
    }, {
      "driver" : "eth",
      "mtu" : "1500"
    }, {
      "driver" : "ae"
    } ]
  }, {
    "tags" : {
      "display-name" : "Network Interfaces - RX Bytes",
      "im.dstype" : "counter",
      "im.dstype.displaytype" : "number",
      "im.identity-tags" : "name",
      "im.metric-type" : "ts",
      "im.name" : "network-interface-rx-bytes",
      "live-config" : "true",
      "name" : "ae1"
    },
    "value" : "0.0"
  }, {
    "tags" : {
      "display-name" : "Network Interfaces - RX Bytes",
      "im.dstype" : "counter",
      "im.dstype.displaytype" : "number",
      "im.identity-tags" : "name",
      "im.metric-type" : "ts",
      "im.name" : "network-interface-rx-bytes",
      "live-config" : "true",
      "name" : "eth1"
    },
    "value" : "0.0"
  }, {
    "tags" : {
      "display-name" : "Network Interfaces - RX Bytes",
      "im.dstype" : "counter",
      "im.dstype.displaytype" : "number",
      "im.identity-tags" : "name",
      "im.metric-type" : "ts",
      "im.name" : "network-interface-rx-bytes",
      "live-config" : "true",
      "name" : "eth2"
    },
    "value" : "5495011.0"
  }, {
    "tags" : {
      "display-name" : "Network Interfaces - RX Bytes",
      "im.dstype" : "counter",
      "im.dstype.displaytype" : "number",
      "im.identity-tags" : "name",
      "im.metric-type" : "ts",
      "im.name" : "network-interface-rx-bytes",
      "live-config" : "true",
      "name" : "eth3"
    },
    "value" : "0.0"
  }, {
    "tags" : {
      "display-name" : "Network Interfaces - RX Bytes",
      "im.dstype" : "counter",
      "im.dstype.displaytype" : "number",
      "im.identity-tags" : "name",
      "im.metric-type" : "ts",
      "im.name" : "network-interface-rx-bytes",
      "live-config" : "true",
      "name" : "eth4"
    },
    "value" : "19642.0"
  }, {
    "tags" : {
      "display-name" : "Network Interfaces - RX Dropped",
      "im.dstype" : "counter",
      "im.dstype.displaytype" : "number",
      "im.identity-tags" : "name",
      "im.metric-type" : "ts",
      "im.name" : "network-interface-rx-dropped",
      "live-config" : "true",
      "name" : "ae1"
    },
    "value" : "0.0"
  }, {
    "tags" : {
      "display-name" : "Network Interfaces - RX Dropped",
      "im.dstype" : "counter",
      "im.dstype.displaytype" : "number",
      "im.identity-tags" : "name",
      "im.metric-type" : "ts",
      "im.name" : "network-interface-rx-dropped",
      "live-config" : "true",
      "name" : "eth1"
    },
    "value" : "0.0"
  }, {
    "tags" : {
      "display-name" : "Network Interfaces - RX Dropped",
      "im.dstype" : "counter",
      "im.dstype.displaytype" : "number",
      "im.identity-tags" : "name",
      "im.metric-type" : "ts",
      "im.name" : "network-interface-rx-dropped",
      "live-config" : "true",
      "name" : "eth2"
    },
    "value" : "0.0"
  }, {
    "tags" : {
      "display-name" : "Network Interfaces - RX Dropped",
      "im.dstype" : "counter",
      "im.dstype.displaytype" : "number",
      "im.identity-tags" : "name",
      "im.metric-type" : "ts",
      "im.name" : "network-interface-rx-dropped",
      "live-config" : "true",
      "name" : "eth3"
    },
    "value" : "0.0"
  }, {
    "tags" : {
      "display-name" : "Network Interfaces - RX Dropped",
      "im.dstype" : "counter",
      "im.dstype.displaytype" : "number",
      "im.identity-tags" : "name",
      "im.metric-type" : "ts",
      "im.name" : "network-interface-rx-dropped",
      "live-config" : "true",
      "name" : "eth4"
    },
    "value" : "0.0"
  }, {
    "tags" : {
      "display-name" : "Network Interfaces - RX Errors",
      "im.dstype" : "counter",
      "im.dstype.displaytype" : "number",
      "im.identity-tags" : "name",
      "im.metric-type" : "ts",
      "im.name" : "network-interface-rx-errors",
      "live-config" : "true",
      "name" : "ae1"
    },
    "value" : "0.0"
  }, {
    "tags" : {
      "display-name" : "Network Interfaces - RX Errors",
      "im.dstype" : "counter",
      "im.dstype.displaytype" : "number",
      "im.identity-tags" : "name",
      "im.metric-type" : "ts",
      "im.name" : "network-interface-rx-errors",
      "live-config" : "true",
      "name" : "eth1"
    },
    "value" : "0.0"
  }, {
    "tags" : {
      "display-name" : "Network Interfaces - RX Errors",
      "im.dstype" : "counter",
      "im.dstype.displaytype" : "number",
      "im.identity-tags" : "name",
      "im.metric-type" : "ts",
      "im.name" : "network-interface-rx-errors",
      "live-config" : "true",
      "name" : "eth2"
    },
    "value" : "440.0"
  }, {
    "tags" : {
      "display-name" : "Interfaces IPv4 Address",
      "im.metric-type" : "runtime",
      "im.name" : "network-interface-ipv4-address",
      "live-config" : "true",
      "name" : "eth2c0"
    },
    "value" : {
      "value" : "172.16.20.30"
    }
  }, {
    "tags" : {
      "display-name" : "Network Interfaces - RX Errors",
      "im.dstype" : "counter",
      "im.dstype.displaytype" : "number",
      "im.identity-tags" : "name",
      "im.metric-type" : "ts",
      "im.name" : "network-interface-rx-errors",
      "live-config" : "true",
      "name" : "eth3"
    },
    "value" : "0.0"
  }, {
    "tags" : {
      "display-name" : "Network Interfaces - RX Errors",
      "im.dstype" : "counter",
      "im.dstype.displaytype" : "number",
      "im.identity-tags" : "name",
      "im.metric-type" : "ts",
      "im.name" : "network-interface-rx-errors",
      "live-config" : "true",
      "name" : "eth4"
    },
    "value" : "0.0"
  }, {
    "tags" : {
      "display-name" : "Network Interfaces - RX Packets",
      "im.dstype" : "counter",
      "im.dstype.displaytype" : "number",
      "im.identity-tags" : "name",
      "im.metric-type" : "ts",
      "im.name" : "network-interface-rx-packets",
      "live-config" : "true",
      "name" : "ae1"
    },
    "value" : "0.0"
  }, {
    "tags" : {
      "display-name" : "Network Interfaces - RX Packets",
      "im.dstype" : "counter",
      "im.dstype.displaytype" : "number",
      "im.identity-tags" : "name",
      "im.metric-type" : "ts",
      "im.name" : "network-interface-rx-packets",
      "live-config" : "true",
      "name" : "eth1"
    },
    "value" : "0.0"
  }, {
    "tags" : {
      "display-name" : "Network Interfaces - RX Packets",
      "im.dstype" : "counter",
      "im.dstype.displaytype" : "number",
      "im.identity-tags" : "name",
      "im.metric-type" : "ts",
      "im.name" : "network-interface-rx-packets",
      "live-config" : "true",
      "name" : "eth2"
    },
    "value" : "39825.0"
  }, {
    "tags" : {
      "display-name" : "Network Interfaces - RX Packets",
      "im.dstype" : "counter",
      "im.dstype.displaytype" : "number",
      "im.identity-tags" : "name",
      "im.metric-type" : "ts",
      "im.name" : "network-interface-rx-packets",
      "live-config" : "true",
      "name" : "eth3"
    },
    "value" : "0.0"
  }, {
    "tags" : {
      "display-name" : "Network Interfaces - RX Packets",
      "im.dstype" : "counter",
      "im.dstype.displaytype" : "number",
      "im.identity-tags" : "name",
      "im.metric-type" : "ts",
      "im.name" : "network-interface-rx-packets",
      "live-config" : "true",
      "name" : "eth4"
    },
    "value" : "222.0"
  }, {
    "tags" : {
      "display-name" : "Network Interfaces - Up/Down",
      "im.dstype" : "gauge",
      "im.dstype.displaytype" : "state",
      "im.identity-tags" : "name",
      "im.metric-type" : "ts",
      "im.name" : "network-interface-state",
      "live-config" : "true",
      "name" : "eth1c0"
    },
    "value" : "0.0"
  }, {
    "tags" : {
      "display-name" : "Network Interfaces - TX Bytes",
      "im.dstype" : "counter",
      "im.dstype.displaytype" : "number",
      "im.identity-tags" : "name",
      "im.metric-type" : "ts",
      "im.name" : "network-interface-tx-bytes",
      "live-config" : "true",
      "name" : "eth2"
    },
    "value" : "1.0173268E7"
  }, {
    "tags" : {
      "display-name" : "Network Interfaces - TX Bytes",
      "im.dstype" : "counter",
      "im.dstype.displaytype" : "number",
      "im.identity-tags" : "name",
      "im.metric-type" : "ts",
      "im.name" : "network-interface-tx-bytes",
      "live-config" : "true",
      "name" : "eth3"
    },
    "value" : "0.0"
  }, {
    "tags" : {
      "display-name" : "Network Interfaces - TX Bytes",
      "im.dstype" : "counter",
      "im.dstype.displaytype" : "number",
      "im.identity-tags" : "name",
      "im.metric-type" : "ts",
      "im.name" : "network-interface-tx-bytes",
      "live-config" : "true",
      "name" : "eth4"
    },
    "value" : "0.0"
  }, {
    "tags" : {
      "display-name" : "Network Interfaces - TX Collisions",
      "im.dstype" : "counter",
      "im.dstype.displaytype" : "number",
      "im.identity-tags" : "name",
      "im.metric-type" : "ts",
      "im.name" : "network-interface-tx-collisions",
      "live-config" : "true",
      "name" : "eth1"
    },
    "value" : "0.0"
  }, {
    "tags" : {
      "display-name" : "Network Interfaces - TX Collisions",
      "im.dstype" : "counter",
      "im.dstype.displaytype" : "number",
      "im.identity-tags" : "name",
      "im.metric-type" : "ts",
      "im.name" : "network-interface-tx-collisions",
      "live-config" : "true",
      "name" : "eth3"
    },
    "value" : "0.0"
  }, {
    "tags" : {
      "display-name" : "Network Interfaces - Up/Down",
      "im.dstype" : "gauge",
      "im.dstype.displaytype" : "state",
      "im.identity-tags" : "name",
      "im.metric-type" : "ts",
      "im.name" : "network-interface-state",
      "live-config" : "true",
      "name" : "eth2c0"
    },
    "value" : "1.0"
  }, {
    "tags" : {
      "display-name" : "Network Interfaces - Up/Down",
      "im.dstype" : "gauge",
      "im.dstype.displaytype" : "state",
      "im.identity-tags" : "name",
      "im.metric-type" : "ts",
      "im.name" : "network-interface-state",
      "live-config" : "true",
      "name" : "eth3c0"
    },
    "value" : "0.0"
  }, {
    "tags" : {
      "display-name" : "Network Interfaces - Up/Down",
      "im.dstype" : "gauge",
      "im.dstype.displaytype" : "state",
      "im.identity-tags" : "name",
      "im.metric-type" : "ts",
      "im.name" : "network-interface-state",
      "live-config" : "true",
      "name" : "eth4c0"
    },
    "value" : "0.0"
  }, {
    "tags" : {
      "display-name" : "Network Interfaces - TX Bytes",
      "im.dstype" : "counter",
      "im.dstype.displaytype" : "number",
      "im.identity-tags" : "name",
      "im.metric-type" : "ts",
      "im.name" : "network-interface-tx-bytes",
      "live-config" : "true",
      "name" : "ae1"
    },
    "value" : "0.0"
  }, {
    "tags" : {
      "display-name" : "Network Interfaces - TX Bytes",
      "im.dstype" : "counter",
      "im.dstype.displaytype" : "number",
      "im.identity-tags" : "name",
      "im.metric-type" : "ts",
      "im.name" : "network-interface-tx-bytes",
      "live-config" : "true",
      "name" : "eth1"
    },
    "value" : "0.0"
  }, {
    "tags" : {
      "display-name" : "Network Interfaces - TX Collisions",
      "im.dstype" : "counter",
      "im.dstype.displaytype" : "number",
      "im.identity-tags" : "name",
      "im.metric-type" : "ts",
      "im.name" : "network-interface-tx-collisions",
      "live-config" : "true",
      "name" : "ae1"
    },
    "value" : "0.0"
  }, {
    "tags" : {
      "display-name" : "Network Interfaces - TX Collisions",
      "im.dstype" : "counter",
      "im.dstype.displaytype" : "number",
      "im.identity-tags" : "name",
      "im.metric-type" : "ts",
      "im.name" : "network-interface-tx-collisions",
      "live-config" : "true",
      "name" : "eth2"
    },
    "value" : "1898.0"
  }, {
    "tags" : {
      "display-name" : "Network Interfaces - TX Collisions",
      "im.dstype" : "counter",
      "im.dstype.displaytype" : "number",
      "im.identity-tags" : "name",
      "im.metric-type" : "ts",
      "im.name" : "network-interface-tx-collisions",
      "live-config" : "true",
      "name" : "eth4"
    },
    "value" : "0.0"
  }, {
    "tags" : {
      "display-name" : "Network Interfaces - TX Errors",
      "im.dstype" : "counter",
      "im.dstype.displaytype" : "number",
      "im.identity-tags" : "name",
      "im.metric-type" : "ts",
      "im.name" : "network-interface-tx-errors",
      "live-config" : "true",
      "name" : "ae1"
    },
    "value" : "0.0"
  }, {
    "tags" : {
      "display-name" : "Network Interfaces - TX Errors",
      "im.dstype" : "counter",
      "im.dstype.displaytype" : "number",
      "im.identity-tags" : "name",
      "im.metric-type" : "ts",
      "im.name" : "network-interface-tx-errors",
      "live-config" : "true",
      "name" : "eth1"
    },
    "value" : "0.0"
  }, {
    "tags" : {
      "display-name" : "Network Interfaces - TX Errors",
      "im.dstype" : "counter",
      "im.dstype.displaytype" : "number",
      "im.identity-tags" : "name",
      "im.metric-type" : "ts",
      "im.name" : "network-interface-tx-errors",
      "live-config" : "true",
      "name" : "eth2"
    },
    "value" : "0.0"
  }, {
    "tags" : {
      "display-name" : "Network Interfaces - TX Errors",
      "im.dstype" : "counter",
      "im.dstype.displaytype" : "number",
      "im.identity-tags" : "name",
      "im.metric-type" : "ts",
      "im.name" : "network-interface-tx-errors",
      "live-config" : "true",
      "name" : "eth3"
    },
    "value" : "0.0"
  }, {
    "tags" : {
      "display-name" : "Network Interfaces - TX Errors",
      "im.dstype" : "counter",
      "im.dstype.displaytype" : "number",
      "im.identity-tags" : "name",
      "im.metric-type" : "ts",
      "im.name" : "network-interface-tx-errors",
      "live-config" : "true",
      "name" : "eth4"
    },
    "value" : "0.0"
  }, {
    "tags" : {
      "display-name" : "Network Interfaces - TX Packets",
      "im.dstype" : "counter",
      "im.dstype.displaytype" : "number",
      "im.identity-tags" : "name",
      "im.metric-type" : "ts",
      "im.name" : "network-interface-tx-packets",
      "live-config" : "true",
      "name" : "ae1"
    },
    "value" : "0.0"
  }, {
    "tags" : {
      "display-name" : "Network Interfaces - TX Packets",
      "im.dstype" : "counter",
      "im.dstype.displaytype" : "number",
      "im.identity-tags" : "name",
      "im.metric-type" : "ts",
      "im.name" : "network-interface-tx-packets",
      "live-config" : "true",
      "name" : "eth1"
    },
    "value" : "0.0"
  }, {
    "tags" : {
      "display-name" : "Network Interfaces - TX Packets",
      "im.dstype" : "counter",
      "im.dstype.displaytype" : "number",
      "im.identity-tags" : "name",
      "im.metric-type" : "ts",
      "im.name" : "network-interface-tx-packets",
      "live-config" : "true",
      "name" : "eth2"
    },
    "value" : "29005.0"
  }, {
    "tags" : {
      "display-name" : "Network Interfaces - TX Packets",
      "im.dstype" : "counter",
      "im.dstype.displaytype" : "number",
      "im.identity-tags" : "name",
      "im.metric-type" : "ts",
      "im.name" : "network-interface-tx-packets",
      "live-config" : "true",
      "name" : "eth3"
    },
    "value" : "0.0"
  }, {
    "tags" : {
      "display-name" : "Network Interfaces - TX Packets",
      "im.dstype" : "counter",
      "im.dstype.displaytype" : "number",
      "im.identity-tags" : "name",
      "im.metric-type" : "ts",
      "im.name" : "network-interface-tx-packets",
      "live-config" : "true",
      "name" : "eth4"
    },
    "value" : "0.0"
  }, {
    "tags" : {
      "im.metric-type" : "runtime",
      "im.name" : "network-interface-duplex",
      "name" : "eth2c0"
    },
    "value" : {
      "value" : "half"
    }
  }, {
    "tags" : {
      "im.metric-type" : "runtime",
      "im.name" : "network-interface-duplex",
      "name" : "eth3c0"
    },
    "value" : {
      "value" : "half"
    }
  }, {
    "tags" : {
      "im.metric-type" : "runtime",
      "im.name" : "network-interface-duplex",
      "name" : "eth4c0"
    },
    "value" : {
      "value" : "half"
    }
  }, {
    "tags" : {
      "im.metric-type" : "runtime",
      "im.name" : "network-interface-mac",
      "name" : "ae1"
    },
    "value" : {
      "value" : "00:00:00:00:00:00"
    }
  }, {
    "tags" : {
      "im.metric-type" : "runtime",
      "im.name" : "network-interface-mac",
      "name" : "eth2c0"
    },
    "value" : {
      "value" : "00:a0:8e:b2:22:35"
    }
  }, {
    "tags" : {
      "im.metric-type" : "runtime",
      "im.name" : "network-interface-mac",
      "name" : "eth4c0"
    },
    "value" : {
      "value" : "00:a0:8e:b2:22:37"
    }
  }, {
    "tags" : {
      "im.metric-type" : "runtime",
      "im.name" : "network-interface-mtu",
      "name" : "eth2c0"
    },
    "value" : {
      "value" : "1500"
    }
  }, {
    "tags" : {
      "im.metric-type" : "runtime",
      "im.name" : "network-interface-speed",
      "name" : "eth4c0"
    },
    "value" : {
      "value" : "10M"
    }
  }, {
    "tags" : {
      "im.metric-type" : "runtime",
      "im.name" : "network-interface-type",
      "name" : "ae1"
    },
    "value" : {
      "value" : "ae"
    }
  }, {
    "tags" : {
      "im.metric-type" : "runtime",
      "im.name" : "network-interface-type",
      "name" : "eth1c0"
    },
    "value" : {
      "value" : "eth"
    }
  }, {
    "tags" : {
      "im.metric-type" : "runtime",
      "im.name" : "network-interface-type",
      "name" : "eth4c0"
    },
    "value" : {
      "value" : "eth"
    }
  } ]
}
