{
  "command" : "chkp-os-list_coredump",
  "metrics" : [ {
    "tags" : {
      "im.metric-type" : "runtime",
      "im.name" : "core-dumps"
    },
    "value" : [ {
      "created" : "1475845307",
      "path" : "/var/log/dump/usermode/service.12334.core.gz"
    }, {
      "created" : "1475554589",
      "path" : "/var/log/dump/usermode/sshd.13383.core.gz"
    }, {
      "path" : "/var/tmp/test.core.du",
      "created" : "1475844950"
    }, {
      "created" : "1475845321",
      "path" : "/var/crash/service1.gz"
    } ]
  } ]
}
