{
  "command" : "fw_ctl_pstat_vsx",
  "metrics" : [ {
    "tags" : {
      "display-name" : "Kernel Memory",
      "im.dstype" : "gauge",
      "im.dstype.displaytype" : "percentage",
      "im.identity-tags" : "vs.id|vs.name",
      "im.metric-type" : "ts",
      "im.name" : "kernel-memory-usage",
      "im.step" : "60",
      "live-config" : "true",
      "vs.id" : "2",
      "vs.name" : "VSX-CXL2-Gear_Solid_Snake"
    },
    "values" : ["9.0","11.0","87","91","93","35"]
  }, {
    "tags" : {
      "im.dstype" : "gauge",
      "im.metric-type" : "ts",
      "im.name" : "chkp-agressive-aging",
      "im.step" : "60",
      "vs.id" : "3",
      "vs.name" : "VSX-CXL2-Gear_Ed"
    },
    "value" : "1.0"
  }, {
    "tags" : {
      "display-name" : "Kernel Memory",
      "im.dstype" : "gauge",
      "im.dstype.displaytype" : "percentage",
      "im.identity-tags" : "vs.id|vs.name",
      "im.metric-type" : "ts",
      "im.name" : "kernel-memory-usage",
      "im.step" : "60",
      "live-config" : "true",
      "vs.id" : "3",
      "vs.name" : "VSX-CXL2-Gear_Ed"
    },
    "values" : ["99.0", "98", "97", "98"]
  }, {
    "tags" : {
      "display-name" : "Virtual Memory",
      "im.dstype" : "gauge",
      "im.dstype.displaytype" : "percentage",
      "im.identity-tags" : "vs.id|vs.name",
      "im.metric-type" : "ts",
      "im.name" : "virtual-memory-usage",
      "im.step" : "60",
      "live-config" : "true",
      "vs.id" : "0",
      "vs.name" : "VSX-CXL2-Gear"
    },
    "values" : ["99.0", "98", "97", "98"]
  }, {
    "tags" : {
      "display-name" : "Virtual Memory",
      "im.dstype" : "gauge",
      "im.dstype.displaytype" : "percentage",
      "im.identity-tags" : "vs.id|vs.name",
      "im.metric-type" : "ts",
      "im.name" : "virtual-memory-usage",
      "im.step" : "60",
      "live-config" : "true",
      "vs.id" : "1",
      "vs.name" : "VSX-CXL2-Gear_VSW"
    },
    "values" : ["99.0", "98", "97", "98"]
  }, {
    "tags" : {
      "display-name" : "Virtual Memory",
      "im.dstype" : "gauge",
      "im.dstype.displaytype" : "percentage",
      "im.identity-tags" : "vs.id|vs.name",
      "im.metric-type" : "ts",
      "im.name" : "virtual-memory-usage",
      "im.step" : "60",
      "live-config" : "true",
      "vs.id" : "2",
      "vs.name" : "VSX-CXL2-Gear_Solid_Snake"
    },
    "values" : ["99.0", "98", "97", "98"]
  }, {
    "tags" : {
      "display-name" : "Virtual Memory",
      "im.dstype" : "gauge",
      "im.dstype.displaytype" : "percentage",
      "im.identity-tags" : "vs.id|vs.name",
      "im.metric-type" : "ts",
      "im.name" : "virtual-memory-usage",
      "im.step" : "60",
      "live-config" : "true",
      "vs.id" : "3",
      "vs.name" : "VSX-CXL2-Gear_Ed"
    },
    "values" : ["99.0", "98", "97", "98"]
  }, {
    "tags" : {
      "im.dstype" : "gauge",
      "im.metric-type" : "ts",
      "im.name" : "chkp-agressive-aging",
      "im.step" : "60",
      "vs.id" : "0",
      "vs.name" : "VSX-CXL2-Gear"
    },
    "value" : "0.0"
  }, {
    "tags" : {
      "im.dstype" : "gauge",
      "im.metric-type" : "ts",
      "im.name" : "chkp-agressive-aging",
      "im.step" : "60",
      "vs.id" : "1",
      "vs.name" : "VSX-CXL2-Gear_VSW"
    },
    "value" : "0.0"
  }, {
    "tags" : {
      "im.dstype" : "gauge",
      "im.metric-type" : "ts",
      "im.name" : "chkp-agressive-aging",
      "im.step" : "60",
      "vs.id" : "2",
      "vs.name" : "VSX-CXL2-Gear_Solid_Snake"
    },
    "value" : "0.0"
  }, {
    "tags" : {
      "display-name" : "Kernel Memory",
      "im.dstype" : "gauge",
      "im.dstype.displaytype" : "percentage",
      "im.identity-tags" : "vs.id|vs.name",
      "im.metric-type" : "ts",
      "im.name" : "kernel-memory-usage",
      "im.step" : "60",
      "live-config" : "true",
      "vs.id" : "0",
      "vs.name" : "VSX-CXL2-Gear"
    },
    "values" : ["99.0", "98", "97", "98"]
  }, {
    "tags" : {
      "display-name" : "Kernel Memory",
      "im.dstype" : "gauge",
      "im.dstype.displaytype" : "percentage",
      "im.identity-tags" : "vs.id|vs.name",
      "im.metric-type" : "ts",
      "im.name" : "kernel-memory-usage",
      "im.step" : "60",
      "live-config" : "true",
      "vs.id" : "1",
      "vs.name" : "VSX-CXL2-Gear_VSW"
    },
    "values" : ["99.0", "98", "97", "98"]
  } ]
}
