{
  "command" : "junos-show-configuration-domain-name",
  "metrics" : [ {
    "tags" : {
      "display-name" : " Overview",
      "im.metric-type" : "runtime",
      "im.name" : "domain",
      "live-config" : "true"
    },
    "value" : {
      "value" : "indeni.com"
    }
  } ]
}
