{
  "command" : "junos-show-system-storage-detail",
  "metrics" : [ {
    "tags" : {
      "display-name" : "Mount Points - Total",
      "file-system" : "/",
      "im.dstype" : "gauge",
      "im.dstype.displaytype" : "kbytes",
      "im.identity-tags" : "file-system",
      "im.metric-type" : "ts",
      "im.name" : "disk-total-kbytes",
      "live-config" : "true"
    },
    "value" : "299052.0"
  }, {
    "tags" : {
      "display-name" : "Mount Points - Total",
      "file-system" : "/cf/var",
      "im.dstype" : "gauge",
      "im.dstype.displaytype" : "kbytes",
      "im.identity-tags" : "file-system",
      "im.metric-type" : "ts",
      "im.name" : "disk-total-kbytes",
      "live-config" : "true"
    },
    "value" : "350636.0"
  }, {
    "tags" : {
      "display-name" : "Mount Points - Total",
      "file-system" : "/config",
      "im.dstype" : "gauge",
      "im.dstype.displaytype" : "kbytes",
      "im.identity-tags" : "file-system",
      "im.metric-type" : "ts",
      "im.name" : "disk-total-kbytes",
      "live-config" : "true"
    },
    "value" : "24876.0"
  }, {
    "tags" : {
      "display-name" : "Mount Points - Total",
      "file-system" : "/jail/mfs",
      "im.dstype" : "gauge",
      "im.dstype.displaytype" : "kbytes",
      "im.identity-tags" : "file-system",
      "im.metric-type" : "ts",
      "im.name" : "disk-total-kbytes",
      "live-config" : "true"
    },
    "value" : "1884.0"
  }, {
    "tags" : {
      "display-name" : "Mount Points - Total",
      "file-system" : "/jail/var",
      "im.dstype" : "gauge",
      "im.dstype.displaytype" : "kbytes",
      "im.identity-tags" : "file-system",
      "im.metric-type" : "ts",
      "im.name" : "disk-total-kbytes",
      "live-config" : "true"
    },
    "value" : "350636.0"
  }, {
    "tags" : {
      "display-name" : "Mount Points - Total",
      "file-system" : "/jail/var/log",
      "im.dstype" : "gauge",
      "im.dstype.displaytype" : "kbytes",
      "im.identity-tags" : "file-system",
      "im.metric-type" : "ts",
      "im.name" : "disk-total-kbytes",
      "live-config" : "true"
    },
    "value" : "350636.0"
  }, {
    "tags" : {
      "display-name" : "Mount Points - Total",
      "file-system" : "/junos/cf",
      "im.dstype" : "gauge",
      "im.dstype.displaytype" : "kbytes",
      "im.identity-tags" : "file-system",
      "im.metric-type" : "ts",
      "im.name" : "disk-total-kbytes",
      "live-config" : "true"
    },
    "value" : "20012.0"
  }, {
    "tags" : {
      "display-name" : "Mount Points - Total",
      "file-system" : "/junos/cf/boot",
      "im.dstype" : "gauge",
      "im.dstype.displaytype" : "kbytes",
      "im.identity-tags" : "file-system",
      "im.metric-type" : "ts",
      "im.name" : "disk-total-kbytes",
      "live-config" : "true"
    },
    "value" : "299052.0"
  }, {
    "tags" : {
      "display-name" : "Mount Points - Total",
      "file-system" : "/junos/cf/packages",
      "im.dstype" : "gauge",
      "im.dstype.displaytype" : "kbytes",
      "im.identity-tags" : "file-system",
      "im.metric-type" : "ts",
      "im.name" : "disk-total-kbytes",
      "live-config" : "true"
    },
    "value" : "299052.0"
  }, {
    "tags" : {
      "display-name" : "Mount Points - Total",
      "file-system" : "/junos/cf/packages1",
      "im.dstype" : "gauge",
      "im.dstype.displaytype" : "kbytes",
      "im.identity-tags" : "file-system",
      "im.metric-type" : "ts",
      "im.name" : "disk-total-kbytes",
      "live-config" : "true"
    },
    "value" : "299052.0"
  }, {
    "tags" : {
      "display-name" : "Mount Points - Total",
      "file-system" : "/junos/cf/usr",
      "im.dstype" : "gauge",
      "im.dstype.displaytype" : "kbytes",
      "im.identity-tags" : "file-system",
      "im.metric-type" : "ts",
      "im.name" : "disk-total-kbytes",
      "live-config" : "true"
    },
    "value" : "299052.0"
  }, {
    "tags" : {
      "display-name" : "Mount Points - Total",
      "file-system" : "/junos/cf/usr1",
      "im.dstype" : "gauge",
      "im.dstype.displaytype" : "kbytes",
      "im.identity-tags" : "file-system",
      "im.metric-type" : "ts",
      "im.name" : "disk-total-kbytes",
      "live-config" : "true"
    },
    "value" : "299052.0"
  }, {
    "tags" : {
      "display-name" : "Mount Points - Total",
      "file-system" : "/mfs",
      "im.dstype" : "gauge",
      "im.dstype.displaytype" : "kbytes",
      "im.identity-tags" : "file-system",
      "im.metric-type" : "ts",
      "im.name" : "disk-total-kbytes",
      "live-config" : "true"
    },
    "value" : "85824.0"
  }, {
    "tags" : {
      "display-name" : "Mount Points - Usage",
      "file-system" : "/",
      "im.dstype" : "gauge",
      "im.dstype.displaytype" : "percentage",
      "im.identity-tags" : "file-system",
      "im.metric-type" : "ts",
      "im.name" : "disk-usage-percentage",
      "live-config" : "true"
    },
    "value" : "55.0"
  }, {
    "tags" : {
      "display-name" : "Mount Points - Usage",
      "file-system" : "/cf/var",
      "im.dstype" : "gauge",
      "im.dstype.displaytype" : "percentage",
      "im.identity-tags" : "file-system",
      "im.metric-type" : "ts",
      "im.name" : "disk-usage-percentage",
      "live-config" : "true"
    },
    "value" : "45.0"
  }, {
    "tags" : {
      "display-name" : "Mount Points - Usage",
      "file-system" : "/config",
      "im.dstype" : "gauge",
      "im.dstype.displaytype" : "percentage",
      "im.identity-tags" : "file-system",
      "im.metric-type" : "ts",
      "im.name" : "disk-usage-percentage",
      "live-config" : "true"
    },
    "value" : "0.0"
  }, {
    "tags" : {
      "display-name" : "Mount Points - Usage",
      "file-system" : "/jail/mfs",
      "im.dstype" : "gauge",
      "im.dstype.displaytype" : "percentage",
      "im.identity-tags" : "file-system",
      "im.metric-type" : "ts",
      "im.name" : "disk-usage-percentage",
      "live-config" : "true"
    },
    "value" : "0.0"
  }, {
    "tags" : {
      "display-name" : "Mount Points - Usage",
      "file-system" : "/jail/var",
      "im.dstype" : "gauge",
      "im.dstype.displaytype" : "percentage",
      "im.identity-tags" : "file-system",
      "im.metric-type" : "ts",
      "im.name" : "disk-usage-percentage",
      "live-config" : "true"
    },
    "value" : "45.0"
  }, {
    "tags" : {
      "display-name" : "Mount Points - Usage",
      "file-system" : "/jail/var/log",
      "im.dstype" : "gauge",
      "im.dstype.displaytype" : "percentage",
      "im.identity-tags" : "file-system",
      "im.metric-type" : "ts",
      "im.name" : "disk-usage-percentage",
      "live-config" : "true"
    },
    "value" : "45.0"
  }, {
    "tags" : {
      "display-name" : "Mount Points - Usage",
      "file-system" : "/junos/cf",
      "im.dstype" : "gauge",
      "im.dstype.displaytype" : "percentage",
      "im.identity-tags" : "file-system",
      "im.metric-type" : "ts",
      "im.name" : "disk-usage-percentage",
      "live-config" : "true"
    },
    "value" : "5.0"
  }, {
    "tags" : {
      "display-name" : "Mount Points - Usage",
      "file-system" : "/junos/cf/boot",
      "im.dstype" : "gauge",
      "im.dstype.displaytype" : "percentage",
      "im.identity-tags" : "file-system",
      "im.metric-type" : "ts",
      "im.name" : "disk-usage-percentage",
      "live-config" : "true"
    },
    "value" : "55.0"
  }, {
    "tags" : {
      "display-name" : "Mount Points - Usage",
      "file-system" : "/junos/cf/packages",
      "im.dstype" : "gauge",
      "im.dstype.displaytype" : "percentage",
      "im.identity-tags" : "file-system",
      "im.metric-type" : "ts",
      "im.name" : "disk-usage-percentage",
      "live-config" : "true"
    },
    "value" : "55.0"
  }, {
    "tags" : {
      "display-name" : "Mount Points - Usage",
      "file-system" : "/junos/cf/packages1",
      "im.dstype" : "gauge",
      "im.dstype.displaytype" : "percentage",
      "im.identity-tags" : "file-system",
      "im.metric-type" : "ts",
      "im.name" : "disk-usage-percentage",
      "live-config" : "true"
    },
    "value" : "55.0"
  }, {
    "tags" : {
      "display-name" : "Mount Points - Usage",
      "file-system" : "/junos/cf/usr",
      "im.dstype" : "gauge",
      "im.dstype.displaytype" : "percentage",
      "im.identity-tags" : "file-system",
      "im.metric-type" : "ts",
      "im.name" : "disk-usage-percentage",
      "live-config" : "true"
    },
    "value" : "55.0"
  }, {
    "tags" : {
      "display-name" : "Mount Points - Usage",
      "file-system" : "/junos/cf/usr1",
      "im.dstype" : "gauge",
      "im.dstype.displaytype" : "percentage",
      "im.identity-tags" : "file-system",
      "im.metric-type" : "ts",
      "im.name" : "disk-usage-percentage",
      "live-config" : "true"
    },
    "value" : "55.0"
  }, {
    "tags" : {
      "display-name" : "Mount Points - Usage",
      "file-system" : "/mfs",
      "im.dstype" : "gauge",
      "im.dstype.displaytype" : "percentage",
      "im.identity-tags" : "file-system",
      "im.metric-type" : "ts",
      "im.name" : "disk-usage-percentage",
      "live-config" : "true"
    },
    "value" : "21.0"
  }, {
    "tags" : {
      "display-name" : "Mount Points - Used",
      "file-system" : "/",
      "im.dstype" : "gauge",
      "im.dstype.displaytype" : "kbytes",
      "im.identity-tags" : "file-system",
      "im.metric-type" : "ts",
      "im.name" : "disk-used-kbytes",
      "live-config" : "true"
    },
    "value" : "150148.0"
  }, {
    "tags" : {
      "display-name" : "Mount Points - Used",
      "file-system" : "/cf/var",
      "im.dstype" : "gauge",
      "im.dstype.displaytype" : "kbytes",
      "im.identity-tags" : "file-system",
      "im.metric-type" : "ts",
      "im.name" : "disk-used-kbytes",
      "live-config" : "true"
    },
    "value" : "144886.0"
  }, {
    "tags" : {
      "display-name" : "Mount Points - Used",
      "file-system" : "/config",
      "im.dstype" : "gauge",
      "im.dstype.displaytype" : "kbytes",
      "im.identity-tags" : "file-system",
      "im.metric-type" : "ts",
      "im.name" : "disk-used-kbytes",
      "live-config" : "true"
    },
    "value" : "34.0"
  }, {
    "tags" : {
      "display-name" : "Mount Points - Used",
      "file-system" : "/jail/mfs",
      "im.dstype" : "gauge",
      "im.dstype.displaytype" : "kbytes",
      "im.identity-tags" : "file-system",
      "im.metric-type" : "ts",
      "im.name" : "disk-used-kbytes",
      "live-config" : "true"
    },
    "value" : "4.0"
  }, {
    "tags" : {
      "display-name" : "Mount Points - Used",
      "file-system" : "/jail/var",
      "im.dstype" : "gauge",
      "im.dstype.displaytype" : "kbytes",
      "im.identity-tags" : "file-system",
      "im.metric-type" : "ts",
      "im.name" : "disk-used-kbytes",
      "live-config" : "true"
    },
    "value" : "144886.0"
  }, {
    "tags" : {
      "display-name" : "Mount Points - Used",
      "file-system" : "/jail/var/log",
      "im.dstype" : "gauge",
      "im.dstype.displaytype" : "kbytes",
      "im.identity-tags" : "file-system",
      "im.metric-type" : "ts",
      "im.name" : "disk-used-kbytes",
      "live-config" : "true"
    },
    "value" : "144886.0"
  }, {
    "tags" : {
      "display-name" : "Mount Points - Used",
      "file-system" : "/junos/cf",
      "im.dstype" : "gauge",
      "im.dstype.displaytype" : "kbytes",
      "im.identity-tags" : "file-system",
      "im.metric-type" : "ts",
      "im.name" : "disk-used-kbytes",
      "live-config" : "true"
    },
    "value" : "992.0"
  }, {
    "tags" : {
      "display-name" : "Mount Points - Used",
      "file-system" : "/junos/cf/boot",
      "im.dstype" : "gauge",
      "im.dstype.displaytype" : "kbytes",
      "im.identity-tags" : "file-system",
      "im.metric-type" : "ts",
      "im.name" : "disk-used-kbytes",
      "live-config" : "true"
    },
    "value" : "150148.0"
  }, {
    "tags" : {
      "display-name" : "Mount Points - Used",
      "file-system" : "/junos/cf/packages",
      "im.dstype" : "gauge",
      "im.dstype.displaytype" : "kbytes",
      "im.identity-tags" : "file-system",
      "im.metric-type" : "ts",
      "im.name" : "disk-used-kbytes",
      "live-config" : "true"
    },
    "value" : "150148.0"
  }, {
    "tags" : {
      "display-name" : "Mount Points - Used",
      "file-system" : "/junos/cf/packages1",
      "im.dstype" : "gauge",
      "im.dstype.displaytype" : "kbytes",
      "im.identity-tags" : "file-system",
      "im.metric-type" : "ts",
      "im.name" : "disk-used-kbytes",
      "live-config" : "true"
    },
    "value" : "150148.0"
  }, {
    "tags" : {
      "display-name" : "Mount Points - Used",
      "file-system" : "/junos/cf/usr",
      "im.dstype" : "gauge",
      "im.dstype.displaytype" : "kbytes",
      "im.identity-tags" : "file-system",
      "im.metric-type" : "ts",
      "im.name" : "disk-used-kbytes",
      "live-config" : "true"
    },
    "value" : "150148.0"
  }, {
    "tags" : {
      "display-name" : "Mount Points - Used",
      "file-system" : "/junos/cf/usr1",
      "im.dstype" : "gauge",
      "im.dstype.displaytype" : "kbytes",
      "im.identity-tags" : "file-system",
      "im.metric-type" : "ts",
      "im.name" : "disk-used-kbytes",
      "live-config" : "true"
    },
    "value" : "150148.0"
  }, {
    "tags" : {
      "display-name" : "Mount Points - Used",
      "file-system" : "/mfs",
      "im.dstype" : "gauge",
      "im.dstype.displaytype" : "kbytes",
      "im.identity-tags" : "file-system",
      "im.metric-type" : "ts",
      "im.name" : "disk-used-kbytes",
      "live-config" : "true"
    },
    "value" : "16598.0"
  } ]
}
